name,slug
lowcode,lowcode
learning,learning
regex,regex
logging,logging
browser,browser
exceptions,exceptions
VB,vb
ocr,ocr
document understanding,document-understanding
ML,ml
datatypes,datatypes
control flow,control-flow
APIs,apis
UiPath Studio,uipath-studio
UiPath Studio Web,uipath-studio-web
UiPath Orchestrator,uipath-orchestrator
MS Power Automate Desktop,ms-power-automate-desktop
UiPath AI Center,uipath-ai-center
email automation,email-automation
UiPath Studio X,uipath-studio-x
UiPath Apps,uipath-apps
selectors,selectors
MS Power Automate,ms-power-automate
C#,csharp
testing,testing
interview,interview
community,community
MS Power Platform,mspp
REFramework,reframework
String,string
DateTime,datetime
DataTable,datatable
Scheduling,scheduling
Error Handling,errorhandling
RPA,rpa
UiPath,uipath
Automation Anywhere,automation-anywhere
Database,database
Excel,excel
Chatbots,chatbots
Microsoft,microsoft
Quiz,quiz
Blue Prism,blue-prism
debugging,debugging
Requirements Mgmt.,requirements-mgmt
PDD,pdd
SDD,sdd
JavaScript,javascript
scraping,scraping
Maintainability,maintainability
business value,business-value
XML,xml
Job Interview Questions,job-interview-questions
Use Case,usecase
Certification,certification
Robocorp,robocorp
revisit,revisit
JSON,json
LINQ,linq
Python,python
CI/CD,cicd
MS Word,ms-word
UiPath Data Service,uipath-data-service
Modern Design Experience,modern-design-experience
Code Templates,code-templates
Code Review,code-review
Powershell,powershell
Challenge,challenge
Citizen Development,citizen-development
SAP,sap
Office 365,o365
ALM,alm
files,files
SharePoint,sharepoint
Power Pages,ms-power-pages
Power Apps,ms-power-apps
PDF,pdf
Marketplace,marketplace
Solution Design,solution-design
sourcecode management,sourcecode-management
approvals,approvals
Power BI,power-bi
success story,success-story
AppSheet,appsheet
Google,google
analytics,analytics
Power Virtual Agents,power-virtual-agents
Airtable,airtable
scalability,scalability
Robot Framework,robot-framework
Dynamics 365,dynamics-365
MS Forms,ms-forms
Task Capture,task-capture
Test Suite,test-suite
MS Yammer,ms-yammer
Process Mining,process-mining
UiPath Insights,uipath-insights
UiPath Assistant,uipath-assisstant
marketplace,marketplace
Intelligent Document Processing,intelligent-document-processing
user experience,user-experience
UiPath Integration Service,uipath-integration-service
UiPath Automation Hub,uipath-automation-hub
Agarwal2022TrainingHindi,agarwal-2022-training-hindi
AI Builder,ai-builder
credentials,credentials
UiPath Data Manager,uipath-data-manager
recording,recording
BotCity,botcity
scripts,scripts
GNU/Linux,gnu-linux
Docker,docker
data privacy,data-privacy
Azure Logic Apps,azure-logic-apps
Azure Functions,azure-functions
UiPath Test Manager,uipath-test-manager
Kofax,kofax
Microsoft Dataverse,microsoft-dataverse
ChatGPT,chatgpt
UiPath Action Center,uipath-action-center
OpenRPA,openrpa
PixieBrix,pixiebrix
MS Graph,ms-graph
SQL,sql
OpenBots,openbots
SMS,sms
attended,attended
unattended,unattended
Google Sheets,google-sheets
Google Workspace,google-workspace
licencing,licencing
Hindi,lang=hin
encryption,encryption
Artificial Intelligence,ai
conference,conference
Control Room,control-room
Telugu,telugu
access management,access-management
PowerFX,powerfx
Tamil,tamil
Argos Labs,argos-labs
Blue Prism Cloud,blue-prism-cloud
UiPath Communications Mining,uipath-communications-mining
botminds.ai,botminds.ai
reusability,reusability
UiPath Forms,uipath-forms
documentation,documentation
picture in picture,picture-in-picture
