id,org_name,org_identifier,org_slug,org_url,person,title,platform_identifier,url,thumbnail_src,published_at,duration,year_week,tags,tags_slugs,type_name,type_slug,platform_name,platform_slug
30224,Anders Jensen,UCPdtz4gd_iYebJFYq9N8pWA,anders-jensen,https://www.youtube.com/channel/UCPdtz4gd_iYebJFYq9N8pWA,,The Power of ChatGPT in Power Automate Desktop Development,faCjxIc-vqQ,https://www.youtube.com/watch?v=faCjxIc-vqQ,https://i.ytimg.com/vi_webp/faCjxIc-vqQ/maxresdefault.webp,2023-02-12,00:26:12,2023-6,"Artificial Intelligence,lowcode,Microsoft,MS Power Automate Desktop,RPA","ai,lowcode,microsoft,ms-power-automate-desktop,rpa",video,video,YouTube,youtube
30219,RPA Hub,UCnSVBOMNpmC-6SxHmogmu8w,rpa-hub,https://www.youtube.com/channel/UCnSVBOMNpmC-6SxHmogmu8w,,How to work with Hash Algorithm using Power Automate | Power Automate Tutorial,JSZxdq4dyeU,https://www.youtube.com/watch?v=JSZxdq4dyeU,https://i.ytimg.com/vi_webp/JSZxdq4dyeU/maxresdefault.webp,2023-02-11,00:08:02,2023-6,"encryption,lowcode,MS Power Automate Desktop,RPA","encryption,lowcode,ms-power-automate-desktop,rpa",video,video,YouTube,youtube
30209,RPA Hub,UCnSVBOMNpmC-6SxHmogmu8w,rpa-hub,https://www.youtube.com/channel/UCnSVBOMNpmC-6SxHmogmu8w,,How to work with Encryption and Decryption using Power Automate | Power Automate Tutorial,eH3baaAb93U,https://www.youtube.com/watch?v=eH3baaAb93U,https://i.ytimg.com/vi_webp/eH3baaAb93U/maxresdefault.webp,2023-02-09,00:11:01,2023-6,"encryption,lowcode,Microsoft,MS Power Automate","encryption,lowcode,microsoft,ms-power-automate",video,video,YouTube,youtube
30191,Daniel Christian,UC2v4TcvO4rdDdfqd6rUR5yg,daniel-christian,https://www.youtube.com/channel/UC2v4TcvO4rdDdfqd6rUR5yg,,Top 5 Updates for Power Apps In The 2023 Release Wave 1 #Short,NP0aZhWqUro,https://www.youtube.com/watch?v=NP0aZhWqUro,https://i.ytimg.com/vi/NP0aZhWqUro/sd2.jpg,2023-02-07,00:01:00,2023-6,"lowcode,Microsoft,Power Apps","lowcode,microsoft,ms-power-apps",video,video,YouTube,youtube
30186,Reza Dorrani,4711,reza-dorrani,https://www.youtube.com/channel/UCvBYTqRx-n_8KzFO0MJlUVw,,"Customize Modern SharePoint List Forms Tutorial | JSON Formatting, Validations",H4HyWJ9Seps,https://www.youtube.com/watch?v=H4HyWJ9Seps,https://i.ytimg.com/vi/H4HyWJ9Seps/maxresdefault.jpg,2023-02-06,00:21:50,2023-6,"JSON,lowcode,Microsoft,SharePoint","json,lowcode,microsoft,sharepoint",video,video,YouTube,youtube
30180,Daniel Christian,UC2v4TcvO4rdDdfqd6rUR5yg,daniel-christian,https://www.youtube.com/channel/UC2v4TcvO4rdDdfqd6rUR5yg,,Power Automate for Desktop with Microsoft Excel,d3UWY07z4zo,https://www.youtube.com/watch?v=d3UWY07z4zo,https://i.ytimg.com/vi/d3UWY07z4zo/maxresdefault.jpg,2023-02-06,00:22:25,2023-6,"Excel,lowcode,MS Power Automate Desktop,RPA","excel,lowcode,ms-power-automate-desktop,rpa",video,video,YouTube,youtube
30185,Andrew Hess - MySPQuestions,UCH7RJ4zXEjFpfsm-6VZI8vw,andrew-hess-myspquestions,https://www.youtube.com/channel/UCH7RJ4zXEjFpfsm-6VZI8vw,,Power Apps + Midjourney AI generated art can be used with the Power Platform,9MKYEV1SC1U,https://www.youtube.com/watch?v=9MKYEV1SC1U,https://i.ytimg.com/vi_webp/9MKYEV1SC1U/maxresdefault.webp,2023-02-06,00:13:21,2023-6,"Artificial Intelligence,lowcode,Microsoft,Power Apps","ai,lowcode,microsoft,ms-power-apps",video,video,YouTube,youtube
