id,org_name,org_slug,org_url,person,title,platform_identifier,url,thumbnail_src,published_at,duration,year_week,tags,tags_slugs,type_name,type_slug,platform_name,platform_slug
29731,Reza Dorrani,reza-dorrani,https://www.youtube.com/c/RezaDorrani,,Upload files to Dataverse from Power Apps | Patch multiple files | File Column tutorial,RGJrUkgh_NU,https://www.youtube.com/watch?v=RGJrUkgh_NU,https://i.ytimg.com/vi/RGJrUkgh_NU/maxresdefault.jpg,2022-12-05,00:20:54,2022-49,"files,lowcode,Microsoft,Microsoft Dataverse,Power Apps","files,lowcode,microsoft,microsoft-dataverse,ms-power-apps",video,video,YouTube,youtube
29728,Daniel Christian,daniel-christian,https://example.com,,Microsoft Forms Quiz Enhancements,88qLl3bvXyU,https://www.youtube.com/watch?v=88qLl3bvXyU,https://i.ytimg.com/vi/88qLl3bvXyU/maxresdefault.jpg,2022-12-05,00:16:07,2022-49,"lowcode,Microsoft,MS Forms","lowcode,microsoft,ms-forms",video,video,YouTube,youtube
29732,Andrew Hess - MySPQuestions,andrew-hess-myspquestions,https://example.com,,Create a Raffle Give Away in Power Apps Using MS Forms,-TLM9VUKAhE,https://www.youtube.com/watch?v=-TLM9VUKAhE,https://i.ytimg.com/vi_webp/-TLM9VUKAhE/maxresdefault.webp,2022-12-05,00:28:01,2022-49,"lowcode,Microsoft,MS Forms,MS Power Platform,Power Apps","lowcode,microsoft,ms-forms,mspp,ms-power-apps",video,video,YouTube,youtube
