id,org_name,org_slug,org_url,person,title,platform_identifier,url,thumbnail_src,published_at,duration,year_week,tags,tags_slugs,type_name,type_slug,platform_name,platform_slug
4108,Anders Jensen,anders-jensen,https://www.youtube.com/channel/UCPdtz4gd_iYebJFYq9N8pWA,,How to Run Desktop Flows From Power Automate - Full Tutorial,mxfOEpTE6hw,https://www.youtube.com/watch?v=mxfOEpTE6hw,https://i.ytimg.com/vi/mxfOEpTE6hw/hqdefault.jpg,2022-07-22,00:07:05,2022-29,"lowcode,Microsoft,MS Power Automate,MS Power Automate Desktop,MS Power Platform,RPA","lowcode,microsoft,ms-power-automate,ms-power-automate-desktop,mspp,rpa",video,video,YouTube,youtube
29051,Reza Dorrani,reza-dorrani,https://www.youtube.com/c/RezaDorrani,,"Power Apps Export Large Data to Email, CSV or PDF File | SharePoint",UZdngrwWsqA,https://www.youtube.com/watch?v=UZdngrwWsqA,https://i.ytimg.com/vi/UZdngrwWsqA/hqdefault.jpg,2022-07-18,00:21:45,2022-29,"lowcode,Microsoft,MS Power Automate,MS Power Platform,Power Apps","lowcode,microsoft,ms-power-automate,mspp,ms-power-apps",video,video,YouTube,youtube
