id,org_name,org_slug,org_url,person,title,platform_identifier,url,thumbnail_src,published_at,duration,year_week,tags,tags_slugs,type_name,type_slug,platform_name,platform_slug
29391,Softchief Learn,softchief-learn,https://example.com,,Use Idea box to generate PowerFX inside canvas app to avoid remembering expressions,krfbKBbPk7k,https://www.youtube.com/watch?v=krfbKBbPk7k,https://i.ytimg.com/vi/krfbKBbPk7k/maxresdefault.jpg,2022-10-26,00:05:35,2022-43,"lowcode,Microsoft,Power Apps","lowcode,microsoft,ms-power-apps",video,video,YouTube,youtube
29389,Softchief Learn,softchief-learn,https://example.com,,Apply CSS in Canvas App using HTML Text Component and Design 3D UI for Canvas app like Box Shadow,96nHs-1VCiU,https://www.youtube.com/watch?v=96nHs-1VCiU,https://i.ytimg.com/vi_webp/96nHs-1VCiU/maxresdefault.webp,2022-10-26,00:07:30,2022-43,"lowcode,Microsoft,Power Apps,user experience","lowcode,microsoft,ms-power-apps,user-experience",video,video,YouTube,youtube
29387,Softchief Learn,softchief-learn,https://example.com,,Capture Signature and Scan barcode and store data in Dataverse using Canvas App - Delivery Boy App,OAW-NqP0a0w,https://www.youtube.com/watch?v=OAW-NqP0a0w,https://i.ytimg.com/vi/OAW-NqP0a0w/maxresdefault.jpg,2022-10-25,00:10:43,2022-43,"lowcode,Microsoft,MS Power Automate,Use Case","lowcode,microsoft,ms-power-automate,usecase",video,video,YouTube,youtube
29388,Jon Levesque,jon-levesque,https://www.youtube.com/c/JonLSeattle,,DocuSign Tutorial - Power Automate Connector (UPDATED!),M_ShFtWIVpw,https://www.youtube.com/watch?v=M_ShFtWIVpw,https://i.ytimg.com/vi/M_ShFtWIVpw/maxresdefault.jpg,2022-10-25,00:47:09,2022-43,"lowcode,Microsoft,MS Power Automate,Use Case","lowcode,microsoft,ms-power-automate,usecase",video,video,YouTube,youtube
29366,Softchief Learn,softchief-learn,https://example.com,,How to debug a Canvas App Live / Published in Power Apps,47fOYGroJ50,https://www.youtube.com/watch?v=47fOYGroJ50,https://i.ytimg.com/vi/47fOYGroJ50/maxresdefault.jpg,2022-10-24,00:11:59,2022-43,"debugging,lowcode,Microsoft,Power Apps","debugging,lowcode,microsoft,ms-power-apps",video,video,YouTube,youtube
29377,Reza Dorrani,reza-dorrani,https://www.youtube.com/c/RezaDorrani,,Filter Query for SharePoint Get Items action in Power Automate MADE EASY!,I8FdUmECAn8,https://www.youtube.com/watch?v=I8FdUmECAn8,https://i.ytimg.com/vi/I8FdUmECAn8/maxresdefault.jpg,2022-10-24,00:16:57,2022-43,"lowcode,Microsoft,MS Power Automate,SharePoint","lowcode,microsoft,ms-power-automate,sharepoint",video,video,YouTube,youtube
29380,Daniel Christian,daniel-christian,https://example.com,,Introduction to Microsoft Syntex,rkCIv2YuZO8,https://www.youtube.com/watch?v=rkCIv2YuZO8,https://i.ytimg.com/vi/rkCIv2YuZO8/maxresdefault.jpg,2022-10-24,00:28:07,2022-43,"document understanding,Intelligent Document Processing,lowcode,Microsoft","document-understanding,intelligent-document-processing,lowcode,microsoft",video,video,YouTube,youtube
29370,Andrew Hess - MySPQuestions,andrew-hess-myspquestions,https://example.com,,Creating a Calculator from Scratch in a PowerApps Example,xOiz4gtTvig,https://www.youtube.com/watch?v=xOiz4gtTvig,https://i.ytimg.com/vi_webp/xOiz4gtTvig/maxresdefault.webp,2022-10-24,00:27:28,2022-43,"lowcode,Microsoft,Power Apps,Use Case","lowcode,microsoft,ms-power-apps,usecase",video,video,YouTube,youtube
29379,Anders Jensen,anders-jensen,https://www.youtube.com/channel/UCPdtz4gd_iYebJFYq9N8pWA,,Power Automate Desktop - API Call and extract XML - Full Tutorial,vL1Z3oON7SM,https://www.youtube.com/watch?v=vL1Z3oON7SM,https://i.ytimg.com/vi_webp/vL1Z3oON7SM/maxresdefault.webp,2022-10-24,00:09:13,2022-43,"APIs,lowcode,Microsoft,MS Power Automate Desktop,RPA","apis,lowcode,microsoft,ms-power-automate-desktop,rpa",video,video,YouTube,youtube
