id,org_name,org_identifier,org_slug,org_url,person,title,platform_identifier,url,thumbnail_src,published_at,duration,year_week,tags,tags_slugs,type_name,type_slug,platform_name,platform_slug
30711,Tom's Tech Academy,UCstCuI_7DvHw7-KSA3Yy9PQ,tom-s-tech-academy,https://www.youtube.com/channel/UCstCuI_7DvHw7-KSA3Yy9PQ,,Automate any Web Application with Power Automate Desktop!,YUeG62tOwBE,https://www.youtube.com/watch?v=YUeG62tOwBE,https://i.ytimg.com/vi/YUeG62tOwBE/maxresdefault.jpg,2023-04-21,00:16:35,2023-16,"browser,lowcode,Microsoft,MS Power Automate Desktop,RPA","browser,lowcode,microsoft,ms-power-automate-desktop,rpa",video,video,YouTube,youtube
30709,Softchief Learn,4711,softchief-learn,https://www.youtube.com/channel/UCx28J1vtdIZId2ztVgFiJPQ,,Trigger Condition in Power Automate Understanding,iVhkuo8Xo3A,https://www.youtube.com/watch?v=iVhkuo8Xo3A,https://i.ytimg.com/vi_webp/iVhkuo8Xo3A/maxresdefault.webp,2023-04-21,00:09:27,2023-16,"Dynamics 365,lowcode,MS Power Automate,MS Power Automate Desktop","dynamics-365,lowcode,ms-power-automate,ms-power-automate-desktop",video,video,YouTube,youtube
30700,Anders Jensen,UCPdtz4gd_iYebJFYq9N8pWA,anders-jensen,https://www.youtube.com/channel/UCPdtz4gd_iYebJFYq9N8pWA,,Use Power Automate Desktop and Task Scheduler Together,pFZSajbQsxc,https://www.youtube.com/watch?v=pFZSajbQsxc,https://i.ytimg.com/vi_webp/pFZSajbQsxc/maxresdefault.webp,2023-04-20,00:05:42,2023-16,"lowcode,Microsoft,MS Power Automate Desktop,RPA","lowcode,microsoft,ms-power-automate-desktop,rpa",video,video,YouTube,youtube
30687,Anders Jensen,UCPdtz4gd_iYebJFYq9N8pWA,anders-jensen,https://www.youtube.com/channel/UCPdtz4gd_iYebJFYq9N8pWA,,How to Setup Power Automate Desktop on Virtual Machines,-r5sJpqY73k,https://www.youtube.com/watch?v=-r5sJpqY73k,https://i.ytimg.com/vi_webp/-r5sJpqY73k/maxresdefault.webp,2023-04-19,00:20:35,2023-16,"lowcode,Microsoft,MS Power Automate Desktop,RPA","lowcode,microsoft,ms-power-automate-desktop,rpa",video,video,YouTube,youtube
30680,Softchief Learn,4711,softchief-learn,https://www.youtube.com/channel/UCx28J1vtdIZId2ztVgFiJPQ,,Custom Layout in Power Pages,T8qX52X3i4U,https://www.youtube.com/watch?v=T8qX52X3i4U,https://i.ytimg.com/vi/T8qX52X3i4U/maxresdefault.jpg,2023-04-18,00:14:52,2023-16,"lowcode,Microsoft,Power Pages","lowcode,microsoft,ms-power-pages",video,video,YouTube,youtube
30673,Softchief Learn,4711,softchief-learn,https://www.youtube.com/channel/UCx28J1vtdIZId2ztVgFiJPQ,,Hide Quick view form field conditionally power apps,14eetaUC8fg,https://www.youtube.com/watch?v=14eetaUC8fg,https://i.ytimg.com/vi_webp/14eetaUC8fg/maxresdefault.webp,2023-04-17,00:03:43,2023-16,"lowcode,Microsoft,Power Apps","lowcode,microsoft,ms-power-apps",video,video,YouTube,youtube
30677,Reza Dorrani,4711,reza-dorrani,https://www.youtube.com/channel/UCvBYTqRx-n_8KzFO0MJlUVw,,First Look at SharePoint Lists Approvals Integration with Microsoft Teams | New Approval Templates,LLVqBUG_Ls8,https://www.youtube.com/watch?v=LLVqBUG_Ls8,https://i.ytimg.com/vi/LLVqBUG_Ls8/maxresdefault.jpg,2023-04-17,00:11:50,2023-16,"approvals,lowcode,Microsoft,MS Forms,SharePoint","approvals,lowcode,microsoft,ms-forms,sharepoint",video,video,YouTube,youtube
30671,Daniel Christian,UC2v4TcvO4rdDdfqd6rUR5yg,daniel-christian,https://www.youtube.com/channel/UC2v4TcvO4rdDdfqd6rUR5yg,,How to Phase Out a Connector in Power Platform,hWFiMEDqKAE,https://www.youtube.com/watch?v=hWFiMEDqKAE,https://i.ytimg.com/vi/hWFiMEDqKAE/maxresdefault.jpg,2023-04-17,00:15:43,2023-16,"lowcode,Maintainability,Microsoft","lowcode,maintainability,microsoft",video,video,YouTube,youtube
30676,Andrew Hess - MySPQuestions,UCH7RJ4zXEjFpfsm-6VZI8vw,andrew-hess-myspquestions,https://www.youtube.com/channel/UCH7RJ4zXEjFpfsm-6VZI8vw,,Beginner Tutorial: How to Write Multiple Lines at a Time in Power Apps,GnegIaClTQ4,https://www.youtube.com/watch?v=GnegIaClTQ4,https://i.ytimg.com/vi_webp/GnegIaClTQ4/maxresdefault.webp,2023-04-17,00:19:44,2023-16,"Database,lowcode,Microsoft,Power Apps","database,lowcode,microsoft,ms-power-apps",video,video,YouTube,youtube
