id,org_name,org_slug,org_url,person,title,platform_identifier,url,thumbnail_src,published_at,duration,year_week,tags,tags_slugs,type_name,type_slug,platform_name,platform_slug
29065,Softchief Learn,softchief-learn,https://example.com,,File Lock Error in SharePoint Solution in Power Automate,FgrGirk9hrQ,https://www.youtube.com/watch?v=FgrGirk9hrQ,https://i.ytimg.com/vi_webp/FgrGirk9hrQ/maxresdefault.webp,2022-08-04,00:19:00,2022-31,"lowcode,Microsoft,Power Apps,SharePoint","lowcode,microsoft,ms-power-apps,sharepoint",video,video,YouTube,youtube
29061,Reza Dorrani,reza-dorrani,https://www.youtube.com/c/RezaDorrani,,Power Automate SharePoint Item Modified flow | Track Column Changes (Version History),Ek4oYWPWfT0,https://www.youtube.com/watch?v=Ek4oYWPWfT0,https://i.ytimg.com/vi/Ek4oYWPWfT0/hqdefault.jpg,2022-08-01,00:31:25,2022-31,"APIs,lowcode,Microsoft,MS Power Automate","apis,lowcode,microsoft,ms-power-automate",video,video,YouTube,youtube
29062,MySPQuestions,myspquestions,https://example.com,,Handling Duplicates and Multiple Datasources in Power Apps using Distinct and First Functions,cSVDafX6dIk,https://www.youtube.com/watch?v=cSVDafX6dIk,https://i.ytimg.com/vi_webp/cSVDafX6dIk/maxresdefault.webp,2022-08-01,00:13:00,2022-31,"lowcode,Microsoft,Power Apps","lowcode,microsoft,ms-power-apps",video,video,YouTube,youtube
29063,Daniel Christian,daniel-christian,https://example.com,,SharePoint List Templates That Include Power Automate Flows,0agRywlqcf4,https://www.youtube.com/watch?v=0agRywlqcf4,https://i.ytimg.com/vi/0agRywlqcf4/hqdefault.jpg,2022-08-01,00:15:00,2022-31,"Code Templates,lowcode,Microsoft,Power Apps,SharePoint","code-templates,lowcode,microsoft,ms-power-apps,sharepoint",video,video,YouTube,youtube
