id,org_name,org_identifier,org_slug,org_url,person,title,platform_identifier,url,thumbnail_src,published_at,duration,year_week,tags,tags_slugs,type_name,type_slug,platform_name,platform_slug
30284,Botaverse,UC9X6RP2sAa4NDeg0aznQAkA,botaverse,https://www.youtube.com/channel/UC9X6RP2sAa4NDeg0aznQAkA,,Connect MS Teams with GPT3 ( ChatGPT ) using Power Automate,MbxwX4nXEfg,https://www.youtube.com/watch?v=MbxwX4nXEfg,https://i.ytimg.com/vi/MbxwX4nXEfg/sddefault.jpg,2023-02-20,00:11:29,2023-8,"Artificial Intelligence,lowcode,Microsoft,MS Power Automate,MS Power Platform,RPA","ai,lowcode,microsoft,ms-power-automate,mspp,rpa",video,video,YouTube,youtube
29093,RPA Hub,UCnSVBOMNpmC-6SxHmogmu8w,rpa-hub,https://www.youtube.com/channel/UCnSVBOMNpmC-6SxHmogmu8w,,Folder Operation using Power Automate | Power Automate,oT80L3HD5AY,https://www.youtube.com/watch?v=oT80L3HD5AY,https://i.ytimg.com/vi_webp/oT80L3HD5AY/maxresdefault.webp,2022-09-22,00:08:04,2022-38,"files,Microsoft,MS Power Automate Desktop,MS Power Platform,RPA","files,microsoft,ms-power-automate-desktop,mspp,rpa",video,video,YouTube,youtube
29086,Power of RPA with MJ,UCSUj-3f3nwG94TmQ-m9D6SQ,power-of-rpa-with-mj,https://www.youtube.com/channel/UCSUj-3f3nwG94TmQ-m9D6SQ,,Power Automate desktop introduction,HU0jDZjFGi0,https://www.youtube.com/watch?v=HU0jDZjFGi0,https://i.ytimg.com/vi/HU0jDZjFGi0/maxresdefault.jpg,2022-09-22,00:15:44,2022-38,"Microsoft,MS Power Automate Desktop,MS Power Platform,RPA","microsoft,ms-power-automate-desktop,mspp,rpa",video,video,YouTube,youtube
4237,RPA Hub,UCnSVBOMNpmC-6SxHmogmu8w,rpa-hub,https://www.youtube.com/channel/UCnSVBOMNpmC-6SxHmogmu8w,,How to Write XML file using Power Automate | Write into XML File - XML Automation,IYlZ8ukYgYk,https://www.youtube.com/watch?v=IYlZ8ukYgYk,https://i.ytimg.com/vi_webp/IYlZ8ukYgYk/maxresdefault.webp,2022-08-20,00:03:41,2022-33,"Microsoft,MS Power Automate Desktop,MS Power Platform,RPA","microsoft,ms-power-automate-desktop,mspp,rpa",video,video,YouTube,youtube
4225,RPA Hub,UCnSVBOMNpmC-6SxHmogmu8w,rpa-hub,https://www.youtube.com/channel/UCnSVBOMNpmC-6SxHmogmu8w,,Read XML From File - XML Automation | How to Read XML Data using Power Automate,55pOA7NX5K4,https://www.youtube.com/watch?v=55pOA7NX5K4,https://i.ytimg.com/vi_webp/55pOA7NX5K4/maxresdefault.webp,2022-08-18,00:03:11,2022-33,"Microsoft,MS Power Automate Desktop,MS Power Platform,RPA","microsoft,ms-power-automate-desktop,mspp,rpa",video,video,YouTube,youtube
4220,RPA Hub,UCnSVBOMNpmC-6SxHmogmu8w,rpa-hub,https://www.youtube.com/channel/UCnSVBOMNpmC-6SxHmogmu8w,,How to Merge PDF file using Power Automate | Power Automate,NiOc7ZvGg60,https://www.youtube.com/watch?v=NiOc7ZvGg60,https://i.ytimg.com/vi_webp/NiOc7ZvGg60/maxresdefault.webp,2022-08-16,00:02:58,2022-33,"Microsoft,MS Power Automate Desktop,MS Power Platform,RPA","microsoft,ms-power-automate-desktop,mspp,rpa",video,video,YouTube,youtube
4216,RPA Hub,UCnSVBOMNpmC-6SxHmogmu8w,rpa-hub,https://www.youtube.com/channel/UCnSVBOMNpmC-6SxHmogmu8w,,How to Extract Images from PDF using Power Automate | Power Automate Tutorial,ZsBbm73BlHQ,https://www.youtube.com/watch?v=ZsBbm73BlHQ,https://i.ytimg.com/vi_webp/ZsBbm73BlHQ/maxresdefault.webp,2022-08-16,00:04:31,2022-33,"Microsoft,MS Power Automate Desktop,MS Power Platform,RPA","microsoft,ms-power-automate-desktop,mspp,rpa",video,video,YouTube,youtube
4217,RPA Hub,UCnSVBOMNpmC-6SxHmogmu8w,rpa-hub,https://www.youtube.com/channel/UCnSVBOMNpmC-6SxHmogmu8w,,Find and Replace in Excel using Power Automate | Excel Automation,4RvqzMSMsno,https://www.youtube.com/watch?v=4RvqzMSMsno,https://i.ytimg.com/vi_webp/4RvqzMSMsno/maxresdefault.webp,2022-08-16,00:05:36,2022-33,"Microsoft,MS Power Automate Desktop,MS Power Platform,RPA","microsoft,ms-power-automate-desktop,mspp,rpa",video,video,YouTube,youtube
4219,RPA Hub,UCnSVBOMNpmC-6SxHmogmu8w,rpa-hub,https://www.youtube.com/channel/UCnSVBOMNpmC-6SxHmogmu8w,,How to Extract Table from PDF using Power Automate | Power Automate Tutorial,keLgSWYHtSw,https://www.youtube.com/watch?v=keLgSWYHtSw,https://i.ytimg.com/vi_webp/keLgSWYHtSw/maxresdefault.webp,2022-08-16,00:03:32,2022-33,"Microsoft,MS Power Automate Desktop,MS Power Platform,RPA","microsoft,ms-power-automate-desktop,mspp,rpa",video,video,YouTube,youtube
4213,Marcelo Cruz,UCZiebEnHb2xPokSLdCasVNQ,marcelo-cruz,https://www.youtube.com/channel/UCZiebEnHb2xPokSLdCasVNQ,,Power Automate Desktop - How To Create Data Table and Insert/Update/Delete Row,xvgKI1fx3bU,https://www.youtube.com/watch?v=xvgKI1fx3bU,https://i.ytimg.com/vi/xvgKI1fx3bU/hqdefault.jpg,2022-08-16,00:10:58,2022-33,"datatypes,Microsoft,MS Power Automate Desktop,MS Power Platform,RPA","datatypes,microsoft,ms-power-automate-desktop,mspp,rpa",video,video,YouTube,youtube
4108,Anders Jensen,UCPdtz4gd_iYebJFYq9N8pWA,anders-jensen,https://www.youtube.com/channel/UCPdtz4gd_iYebJFYq9N8pWA,,How to Run Desktop Flows From Power Automate - Full Tutorial,mxfOEpTE6hw,https://www.youtube.com/watch?v=mxfOEpTE6hw,https://i.ytimg.com/vi/mxfOEpTE6hw/hqdefault.jpg,2022-07-22,00:07:05,2022-29,"lowcode,Microsoft,MS Power Automate,MS Power Automate Desktop,MS Power Platform,RPA","lowcode,microsoft,ms-power-automate,ms-power-automate-desktop,mspp,rpa",video,video,YouTube,youtube
4001,Marcelo Cruz,UCZiebEnHb2xPokSLdCasVNQ,marcelo-cruz,https://www.youtube.com/channel/UCZiebEnHb2xPokSLdCasVNQ,,Power Automate for Desktop - How To Terminate System Process,rxSxlL8xTJo,https://www.youtube.com/watch?v=rxSxlL8xTJo,https://i.ytimg.com/vi_webp/rxSxlL8xTJo/maxresdefault.webp,2022-06-28,00:05:10,2022-26,"MS Power Automate Desktop,MS Power Platform,RPA","ms-power-automate-desktop,mspp,rpa",video,video,YouTube,youtube
