id,org_name,org_identifier,org_slug,org_url,person,title,platform_identifier,url,thumbnail_src,published_at,duration,year_week,tags,tags_slugs,type_name,type_slug,platform_name,platform_slug
30838,Automate with Rakesh,UCqxVW50cODphM0YHvA34NjQ,automate-with-rakesh,https://www.youtube.com/channel/UCqxVW50cODphM0YHvA34NjQ,,UiPath Apps Demo | How to Use UiPath Apps Demo for Beginners,nrnT9p9kP_A,https://www.youtube.com/watch?v=nrnT9p9kP_A,https://i.ytimg.com/vi_webp/nrnT9p9kP_A/maxresdefault.webp,2023-05-06,00:46:33,2023-18,"RPA,UiPath,UiPath Apps","rpa,uipath,uipath-apps",video,video,YouTube,youtube
30503,Tutorials by Mukesh Kala,UCtZTZt9fI91Xp-PVTPBESQQ,tutorials-by-mukesh-kala,https://www.youtube.com/channel/UCtZTZt9fI91Xp-PVTPBESQQ,,UiPath | What are #Tags and How can we use them | Tags Management Portal |  Label vs Properties,qUptZaxWCbg,https://www.youtube.com/watch?v=qUptZaxWCbg,https://i.ytimg.com/vi_webp/qUptZaxWCbg/maxresdefault.webp,2023-03-23,00:40:49,2023-12,"RPA,UiPath,UiPath Apps","rpa,uipath,uipath-apps",video,video,YouTube,youtube
30500,Parth Doshi - Learning By Doing,UCznYd5txTJFJ3ar7HD8WUdQ,parth-doshi-learning-by-doing,https://www.youtube.com/channel/UCznYd5txTJFJ3ar7HD8WUdQ,,Updating Checkboxes on File Upload in UiPath Apps,Hv8Xreuak5s,https://www.youtube.com/watch?v=Hv8Xreuak5s,https://i.ytimg.com/vi/Hv8Xreuak5s/maxresdefault.jpg,2023-03-23,00:08:07,2023-12,"files,RPA,UiPath Apps","files,rpa,uipath-apps",video,video,YouTube,youtube
30479,botsDNA,UCeUnm1Edt7W7CH_E3Nj3eOg,botsdna,https://www.youtube.com/channel/UCeUnm1Edt7W7CH_E3Nj3eOg,,How to Convert Text to Voice MP3 Easily with UiPath Apps and Play.ht,EiB7OfM6-cM,https://www.youtube.com/watch?v=EiB7OfM6-cM,https://i.ytimg.com/vi_webp/EiB7OfM6-cM/maxresdefault.webp,2023-03-18,00:01:03,2023-11,"RPA,UiPath,UiPath Apps,Use Case","rpa,uipath,uipath-apps,usecase",video,video,YouTube,youtube
30276,nisarg kadam,UCX7FdmCv9UOKdlyjfGydV3w,nisarg-kadam,https://www.youtube.com/channel/UCX7FdmCv9UOKdlyjfGydV3w,,How to use ChatGPT API for free? How to integrated ChatGPT with UiPath using ChatGPT API's?,ujreoiTgUD0,https://www.youtube.com/watch?v=ujreoiTgUD0,https://i.ytimg.com/vi_webp/ujreoiTgUD0/maxresdefault.webp,2023-02-20,00:35:39,2023-8,"Artificial Intelligence,RPA,UiPath,UiPath Apps","ai,rpa,uipath,uipath-apps",video,video,YouTube,youtube
30262,Parth Doshi - Learning By Doing,UCznYd5txTJFJ3ar7HD8WUdQ,parth-doshi-learning-by-doing,https://www.youtube.com/channel/UCznYd5txTJFJ3ar7HD8WUdQ,,Build a Contact Us Page & Integrate Maps in UiPath Apps,RRz5VNHWxKA,https://www.youtube.com/watch?v=RRz5VNHWxKA,https://i.ytimg.com/vi_webp/RRz5VNHWxKA/maxresdefault.webp,2023-02-17,00:08:30,2023-7,"RPA,UiPath,UiPath Apps","rpa,uipath,uipath-apps",video,video,YouTube,youtube
30233,Parth Doshi - Learning By Doing,UCznYd5txTJFJ3ar7HD8WUdQ,parth-doshi-learning-by-doing,https://www.youtube.com/channel/UCznYd5txTJFJ3ar7HD8WUdQ,,This is how I built reusable headers in UiPath Apps,jR7kEXs6270,https://www.youtube.com/watch?v=jR7kEXs6270,https://i.ytimg.com/vi/jR7kEXs6270/maxresdefault.jpg,2023-02-14,00:10:09,2023-7,"RPA,Solution Design,UiPath,UiPath Apps","rpa,solution-design,uipath,uipath-apps",video,video,YouTube,youtube
30210,Automate with Piyush,UCNNQUk0imKD6c9YMoumzhEg,automate-with-piyush,https://www.youtube.com/channel/UCNNQUk0imKD6c9YMoumzhEg,,UiPath Apps - Conditional Dropdown,Lge1MXSuJO8,https://www.youtube.com/watch?v=Lge1MXSuJO8,https://i.ytimg.com/vi/Lge1MXSuJO8/sddefault.jpg,2023-02-09,00:08:27,2023-6,"RPA,UiPath,UiPath Apps","rpa,uipath,uipath-apps",video,video,YouTube,youtube
30200,Automate with Piyush,UCNNQUk0imKD6c9YMoumzhEg,automate-with-piyush,https://www.youtube.com/channel/UCNNQUk0imKD6c9YMoumzhEg,,Entity Relationship,y0Z-EX7U8gg,https://www.youtube.com/watch?v=y0Z-EX7U8gg,https://i.ytimg.com/vi/y0Z-EX7U8gg/sddefault.jpg,2023-02-08,00:06:04,2023-6,"RPA,UiPath,UiPath Apps,UiPath Data Service","rpa,uipath,uipath-apps,uipath-data-service",video,video,YouTube,youtube
30168,UiPath with Jeppe,UCs8A4UTIVWDtq_NGccJUBUw,uipath-with-jeppe,https://www.youtube.com/channel/UCs8A4UTIVWDtq_NGccJUBUw,,Starting a UiPath automation ...from an e-mail ....USING AN APP!!,_3IDcAhok7o,https://www.youtube.com/watch?v=_3IDcAhok7o,https://i.ytimg.com/vi/_3IDcAhok7o/maxresdefault.jpg,2023-02-03,00:29:07,2023-5,"RPA,Scheduling,UiPath,UiPath Apps","rpa,scheduling,uipath,uipath-apps",video,video,YouTube,youtube
30092,Robot ICT,UC9G5RiiDSaku7kY-38SN1kg,robot-ict,https://www.youtube.com/channel/UC9G5RiiDSaku7kY-38SN1kg,,RPA Fridays #34 - UiPath: Vendor Inventory,ohPPSnxzGM0,https://www.youtube.com/watch?v=ohPPSnxzGM0,https://i.ytimg.com/vi_webp/ohPPSnxzGM0/maxresdefault.webp,2023-01-20,00:10:01,2023-3,"RPA,UiPath,UiPath Apps,Use Case","rpa,uipath,uipath-apps,usecase",video,video,YouTube,youtube
29212,Tutorials by Mukesh Kala,UCtZTZt9fI91Xp-PVTPBESQQ,tutorials-by-mukesh-kala,https://www.youtube.com/channel/UCtZTZt9fI91Xp-PVTPBESQQ,,Collaboration | Create Interface for Transactional Processing |,L5XfuBLc6ps,https://www.youtube.com/watch?v=L5XfuBLc6ps,https://i.ytimg.com/vi/L5XfuBLc6ps/sd2.jpg?sqp=-oaymwEoCIAFEOAD8quKqQMcGADwAQH4Ac4FgAKACooCDAgAEAEYfyATKBUwDw==&rs=AOn4CLCLtjbJYM9pUDSM9ER_P78SVdrnZg,2022-10-07,00:00:18,2022-40,"RPA,UiPath,UiPath Apps","rpa,uipath,uipath-apps",video,video,YouTube,youtube
29196,RPA Vanguard,UCrCNK5cllpBY-HqeyGd1VoQ,rpa-vanguard,https://www.youtube.com/channel/UCrCNK5cllpBY-HqeyGd1VoQ,,UiPath Apps Tutorial - Real time Automation Progress Tracking with Interim Process Result 2022-10-05 06:03,X1EqBpw6jpk,https://www.youtube.com/watch?v=X1EqBpw6jpk,https://i.ytimg.com/vi_webp/X1EqBpw6jpk/maxresdefault.webp,2022-10-04,00:35:04,2022-40,"RPA,UiPath,UiPath Apps,Use Case","rpa,uipath,uipath-apps,usecase",video,video,YouTube,youtube
29155,Tutorials by Mukesh Kala,UCtZTZt9fI91Xp-PVTPBESQQ,tutorials-by-mukesh-kala,https://www.youtube.com/channel/UCtZTZt9fI91Xp-PVTPBESQQ,,UiPath | Create Interface for Transactional Processing | UiPath Apps | Unattended Automations RPA 2022-09-29 12:04,igmGyEtkFUc,https://www.youtube.com/watch?v=igmGyEtkFUc,https://i.ytimg.com/vi_webp/igmGyEtkFUc/maxresdefault.webp,2022-09-29,00:54:35,2022-39,"RPA,UiPath,UiPath Apps","rpa,uipath,uipath-apps",video,video,YouTube,youtube
29140,botsDNA,UCeUnm1Edt7W7CH_E3Nj3eOg,botsdna,https://www.youtube.com/channel/UCeUnm1Edt7W7CH_E3Nj3eOg,,How to Automate OTP From Mobile Using UiPath Applications | botsDNA,6RGm-mOMkys,https://www.youtube.com/watch?v=6RGm-mOMkys,https://i.ytimg.com/vi/6RGm-mOMkys/hqdefault.jpg,2022-09-27,00:00:59,2022-39,"RPA,UiPath,UiPath Apps","rpa,uipath,uipath-apps",video,video,YouTube,youtube
29116,Parth Doshi - Learning By Doing,UCznYd5txTJFJ3ar7HD8WUdQ,parth-doshi-learning-by-doing,https://www.youtube.com/channel/UCznYd5txTJFJ3ar7HD8WUdQ,,RPA Tip of the day!!,v4OU4UEuWKE,https://www.youtube.com/watch?v=v4OU4UEuWKE,https://i.ytimg.com/vi/v4OU4UEuWKE/hqdefault.jpg,2022-09-25,00:00:56,2022-38,"RPA,UiPath,UiPath Apps","rpa,uipath,uipath-apps",video,video,YouTube,youtube
27609,RPA Vanguard,UCrCNK5cllpBY-HqeyGd1VoQ,rpa-vanguard,https://www.youtube.com/channel/UCrCNK5cllpBY-HqeyGd1VoQ,,UiPath Apps Tutorial - Integrate Dropdown List with Data Service,XSfizMoaJdY,https://www.youtube.com/watch?v=XSfizMoaJdY,https://i.ytimg.com/vi/XSfizMoaJdY/maxresdefault.jpg,2022-09-14,00:55:06,2022-37,"RPA,UiPath,UiPath Apps,UiPath Data Service","rpa,uipath,uipath-apps,uipath-data-service",video,video,YouTube,youtube
24949,Stefano Negro,UCsdk_PhG9QTcJ_eQSKozkfw,stefano-negro,https://www.youtube.com/channel/UCsdk_PhG9QTcJ_eQSKozkfw,,UiPath Apps and Integration Services Demo - Climate Watcher,OyutAoCK4HY,https://www.youtube.com/watch?v=OyutAoCK4HY,https://i.ytimg.com/vi_webp/OyutAoCK4HY/maxresdefault.webp,2022-09-07,00:03:22,2022-36,"RPA,UiPath,UiPath Apps","rpa,uipath,uipath-apps",video,video,YouTube,youtube
24943,Parth Doshi - Learning By Doing,UCznYd5txTJFJ3ar7HD8WUdQ,parth-doshi-learning-by-doing,https://www.youtube.com/channel/UCznYd5txTJFJ3ar7HD8WUdQ,,Building a Multi-Lingual UiPath App | UiPath Apps,rPrAaNFHiyA,https://www.youtube.com/watch?v=rPrAaNFHiyA,https://i.ytimg.com/vi_webp/rPrAaNFHiyA/maxresdefault.webp,2022-09-07,00:08:20,2022-36,"RPA,UiPath,UiPath Apps","rpa,uipath,uipath-apps",video,video,YouTube,youtube
24216,Tom's Tech Academy,UCstCuI_7DvHw7-KSA3Yy9PQ,tom-s-tech-academy,https://www.youtube.com/channel/UCstCuI_7DvHw7-KSA3Yy9PQ,,How to Use Drag and Drop Activity in UiPath,KR1mFK9M4aM,https://www.youtube.com/watch?v=KR1mFK9M4aM,https://i.ytimg.com/vi/KR1mFK9M4aM/maxresdefault.jpg,2022-09-02,00:01:46,2022-35,"RPA,UiPath Apps","rpa,uipath-apps",video,video,YouTube,youtube
23854,RPA Vanguard,UCrCNK5cllpBY-HqeyGd1VoQ,rpa-vanguard,https://www.youtube.com/channel/UCrCNK5cllpBY-HqeyGd1VoQ,,UiPath Tutorial - Integrate Apps with Orchestrator Queues,9Y7-jLc-3Ew,https://www.youtube.com/watch?v=9Y7-jLc-3Ew,https://i.ytimg.com/vi/9Y7-jLc-3Ew/hqdefault.jpg?v=630d5f81,2022-08-30,01:04:55,2022-35,"RPA,UiPath,UiPath Apps,UiPath Orchestrator","rpa,uipath,uipath-apps,uipath-orchestrator",video,video,YouTube,youtube
23838,AUTOMATE WITH UIPATH,UCa7b3OJL6ghuCX3hCUghVTA,automate-with-uipath,https://www.youtube.com/channel/UCa7b3OJL6ghuCX3hCUghVTA,,Generate Data Table in UiPath,-dFqTvwkJk0,https://www.youtube.com/watch?v=-dFqTvwkJk0,https://i.ytimg.com/vi_webp/-dFqTvwkJk0/maxresdefault.webp,2022-08-24,00:02:35,2022-34,"DataTable,datatypes,RPA,UiPath Apps","datatable,datatypes,rpa,uipath-apps",video,video,YouTube,youtube
4195,nisarg kadam,UCX7FdmCv9UOKdlyjfGydV3w,nisarg-kadam,https://www.youtube.com/channel/UCX7FdmCv9UOKdlyjfGydV3w,,The Month of AI Day 3 | Profit prediction using UiPath Apps and AI Center | Ticker Routing of Emails,Pnse2Pyi5sQ,https://www.youtube.com/watch?v=Pnse2Pyi5sQ,https://i.ytimg.com/vi/Pnse2Pyi5sQ/maxresdefault.jpg,2022-08-12,02:06:30,2022-32,"RPA,UiPath,UiPath AI Center,UiPath Apps","rpa,uipath,uipath-ai-center,uipath-apps",video,video,YouTube,youtube
4180,RPA Vanguard,UCrCNK5cllpBY-HqeyGd1VoQ,rpa-vanguard,https://www.youtube.com/channel/UCrCNK5cllpBY-HqeyGd1VoQ,,UiPath Apps Tutorial - Compare DateTime Values in UiPath Apps 2022-08-09 06:03,7USERQNSZyg,https://www.youtube.com/watch?v=7USERQNSZyg,https://i.ytimg.com/vi/7USERQNSZyg/hqdefault.jpg?v=62f0acde,2022-08-08,00:37:04,2022-32,"RPA,UiPath,UiPath Apps","rpa,uipath,uipath-apps",video,video,YouTube,youtube
4146,Automate with Rakesh,UCqxVW50cODphM0YHvA34NjQ,automate-with-rakesh,https://www.youtube.com/channel/UCqxVW50cODphM0YHvA34NjQ,,UiPath Google Calendar | UiPath Calendar | UiPath Calendar Delete Events | UiPath Google Workspace,IHh5C1OQMEE,https://www.youtube.com/watch?v=IHh5C1OQMEE,https://i.ytimg.com/vi_webp/IHh5C1OQMEE/maxresdefault.webp,2022-07-31,00:03:17,2022-30,"RPA,UiPath,UiPath Apps","rpa,uipath,uipath-apps",video,video,YouTube,youtube
4112,Automate with Rakesh,UCqxVW50cODphM0YHvA34NjQ,automate-with-rakesh,https://www.youtube.com/channel/UCqxVW50cODphM0YHvA34NjQ,,API | UiPath Gmail API | UiPath Email Automation,O9dVTI1n3qM,https://www.youtube.com/watch?v=O9dVTI1n3qM,https://i.ytimg.com/vi/O9dVTI1n3qM/hqdefault.jpg,2022-07-23,00:22:04,2022-29,"email automation,RPA,UiPath,UiPath Apps","email-automation,rpa,uipath,uipath-apps",video,video,YouTube,youtube
