id,org_name,org_identifier,org_slug,org_url,person,title,platform_identifier,url,thumbnail_src,published_at,duration,year_week,tags,tags_slugs,type_name,type_slug,platform_name,platform_slug
30804,Anders Jensen,UCPdtz4gd_iYebJFYq9N8pWA,anders-jensen,https://www.youtube.com/channel/UCPdtz4gd_iYebJFYq9N8pWA,,How to do Invoice Processing with botminds.ai,JEn5L6StcF4,https://www.youtube.com/watch?v=JEn5L6StcF4,https://i.ytimg.com/vi/JEn5L6StcF4/maxresdefault.jpg,2023-05-02,00:54:13,2023-18,"botminds.ai,Intelligent Document Processing,RPA,Use Case","botminds.ai,intelligent-document-processing,rpa,usecase",video,video,YouTube,youtube
30762,Anders Jensen,UCPdtz4gd_iYebJFYq9N8pWA,anders-jensen,https://www.youtube.com/channel/UCPdtz4gd_iYebJFYq9N8pWA,,How to Build a Search Engine for Your Documents,0wvUVUepJSU,https://www.youtube.com/watch?v=0wvUVUepJSU,https://i.ytimg.com/vi/0wvUVUepJSU/maxresdefault.jpg,2023-04-28,00:45:14,2023-17,"Artificial Intelligence,botminds.ai,lowcode,RPA,Use Case","ai,botminds.ai,lowcode,rpa,usecase",video,video,YouTube,youtube
30752,Anders Jensen,UCPdtz4gd_iYebJFYq9N8pWA,anders-jensen,https://www.youtube.com/channel/UCPdtz4gd_iYebJFYq9N8pWA,,Advanced Document Processing with botminds.ai,cTZ5cliUHrk,https://www.youtube.com/watch?v=cTZ5cliUHrk,https://i.ytimg.com/vi/cTZ5cliUHrk/maxresdefault.jpg,2023-04-26,00:41:55,2023-17,"Artificial Intelligence,botminds.ai,Intelligent Document Processing,lowcode,RPA","ai,botminds.ai,intelligent-document-processing,lowcode,rpa",video,video,YouTube,youtube
