id,org_name,org_identifier,org_slug,org_url,person,title,platform_identifier,url,thumbnail_src,published_at,duration,year_week,tags,tags_slugs,type_name,type_slug,platform_name,platform_slug
30846,Harika Mudiam,UCDIBmgKBPBtNJrE0dQfnAYg,harika-mudiam,https://www.youtube.com/channel/UCDIBmgKBPBtNJrE0dQfnAYg,,Complete Functionality of Triggers in UiPath Forms - Run Local Triggers and Stop Local Triggers.,rnWUjEz20-A,https://www.youtube.com/watch?v=rnWUjEz20-A,https://i.ytimg.com/vi_webp/rnWUjEz20-A/maxresdefault.webp,2023-05-08,,2023-19,"RPA,UiPath,UiPath Forms","rpa,uipath,uipath-forms",video,video,YouTube,youtube
30840,Harika Mudiam,UCDIBmgKBPBtNJrE0dQfnAYg,harika-mudiam,https://www.youtube.com/channel/UCDIBmgKBPBtNJrE0dQfnAYg,,"API calls in -Design Custom HTML Form with Latest UiPath Forms - Get value, Set value with Triggers.",EpDjqWMOZlo,https://www.youtube.com/watch?v=EpDjqWMOZlo,https://i.ytimg.com/vi/EpDjqWMOZlo/maxresdefault.jpg,2023-05-07,00:17:57,2023-18,"APIs,RPA,UiPath,UiPath Forms","apis,rpa,uipath,uipath-forms",video,video,YouTube,youtube
30821,Harika Mudiam,UCDIBmgKBPBtNJrE0dQfnAYg,harika-mudiam,https://www.youtube.com/channel/UCDIBmgKBPBtNJrE0dQfnAYg,,Integrate  Custom HTML form into Latest UiPath Forms - Trigger Based Attended Automation - API calls,-1bnhTl0Pag,https://www.youtube.com/watch?v=-1bnhTl0Pag,https://i.ytimg.com/vi_webp/-1bnhTl0Pag/maxresdefault.webp,2023-05-05,00:15:15,2023-18,"RPA,UiPath,UiPath Forms","rpa,uipath,uipath-forms",video,video,YouTube,youtube
30813,Harika Mudiam,UCDIBmgKBPBtNJrE0dQfnAYg,harika-mudiam,https://www.youtube.com/channel/UCDIBmgKBPBtNJrE0dQfnAYg,,Updating Forms - Complete Use Case - Step by step tutorial - UiPath Forms - Latest version 23.4.3,Ux26_WPb19U,https://www.youtube.com/watch?v=Ux26_WPb19U,https://i.ytimg.com/vi_webp/Ux26_WPb19U/maxresdefault.webp,2023-05-04,00:12:00,2023-18,"RPA,UiPath,UiPath Forms,Use Case","rpa,uipath,uipath-forms,usecase",video,video,YouTube,youtube
30801,Harika Mudiam,UCDIBmgKBPBtNJrE0dQfnAYg,harika-mudiam,https://www.youtube.com/channel/UCDIBmgKBPBtNJrE0dQfnAYg,,Trigger Based Attended Automation | UiPath Forms | Study Participation Consent Use Case |  Part 2,GSRXNuqiqD8,https://www.youtube.com/watch?v=GSRXNuqiqD8,https://i.ytimg.com/vi_webp/GSRXNuqiqD8/maxresdefault.webp,2023-05-03,00:22:52,2023-18,"RPA,UiPath,UiPath Forms","rpa,uipath,uipath-forms",video,video,YouTube,youtube
30783,Harika Mudiam,UCDIBmgKBPBtNJrE0dQfnAYg,harika-mudiam,https://www.youtube.com/channel/UCDIBmgKBPBtNJrE0dQfnAYg,,Latest UiPath Forms - Complete Use Case Demo - Step-by-step Tutorial - Part 1,fQEtT0QlnWg,https://www.youtube.com/watch?v=fQEtT0QlnWg,https://i.ytimg.com/vi/fQEtT0QlnWg/maxresdefault.jpg,2023-05-01,00:17:47,2023-18,"RPA,UiPath,UiPath Forms","rpa,uipath,uipath-forms",video,video,YouTube,youtube
30773,Harika Mudiam,UCDIBmgKBPBtNJrE0dQfnAYg,harika-mudiam,https://www.youtube.com/channel/UCDIBmgKBPBtNJrE0dQfnAYg,,Latest version UiPath Forms - New Form Experience - ver 23.4.3 - Trigger based Attended automation,Kgv2lV26How,https://www.youtube.com/watch?v=Kgv2lV26How,https://i.ytimg.com/vi_webp/Kgv2lV26How/sddefault.webp,2023-04-29,00:08:33,2023-17,"RPA,UiPath,UiPath Forms","rpa,uipath,uipath-forms",video,video,YouTube,youtube
