id,org_name,org_identifier,org_slug,org_url,person,title,platform_identifier,url,thumbnail_src,published_at,duration,year_week,tags,tags_slugs,type_name,type_slug,platform_name,platform_slug
30148,Anders Jensen,UCPdtz4gd_iYebJFYq9N8pWA,anders-jensen,https://www.youtube.com/channel/UCPdtz4gd_iYebJFYq9N8pWA,,Cloud Orchestration & Unattended Automations in OpenBots,3lmFmpROo3o,https://www.youtube.com/watch?v=3lmFmpROo3o,https://i.ytimg.com/vi/3lmFmpROo3o/maxresdefault.jpg,2023-01-30,01:14:10,2023-5,"OpenBots,RPA","openbots,rpa",video,video,YouTube,youtube
30121,Anders Jensen,UCPdtz4gd_iYebJFYq9N8pWA,anders-jensen,https://www.youtube.com/channel/UCPdtz4gd_iYebJFYq9N8pWA,,Automating Google Workspace in OpenBots,IWmt2dZD4IQ,https://www.youtube.com/watch?v=IWmt2dZD4IQ,https://i.ytimg.com/vi/IWmt2dZD4IQ/maxresdefault.jpg,2023-01-25,00:57:40,2023-4,"Google Workspace,OpenBots,RPA","google-workspace,openbots,rpa",video,video,YouTube,youtube
30070,Anders Jensen,UCPdtz4gd_iYebJFYq9N8pWA,anders-jensen,https://www.youtube.com/channel/UCPdtz4gd_iYebJFYq9N8pWA,,Automating Microsoft Office in OpenBots,Zcl7OeM4iSE,https://www.youtube.com/watch?v=Zcl7OeM4iSE,https://i.ytimg.com/vi/Zcl7OeM4iSE/maxresdefault.jpg,2023-01-17,01:16:17,2023-3,"Office 365,OpenBots,RPA","o365,openbots,rpa",video,video,YouTube,youtube
30017,Anders Jensen,UCPdtz4gd_iYebJFYq9N8pWA,anders-jensen,https://www.youtube.com/channel/UCPdtz4gd_iYebJFYq9N8pWA,,Intelligent Document Processing with OpenBots,wg2zLEKY5lM,https://www.youtube.com/watch?v=wg2zLEKY5lM,https://i.ytimg.com/vi/wg2zLEKY5lM/maxresdefault.jpg,2023-01-10,00:59:15,2023-2,"Intelligent Document Processing,OpenBots,RPA","intelligent-document-processing,openbots,rpa",video,video,YouTube,youtube
30007,Gaurav Bhargava,UCJhyQCU99DzyB4A_S1Zk5PA,gaurav-bhargava,https://www.youtube.com/channel/UCJhyQCU99DzyB4A_S1Zk5PA,,How to Install Openbots Studio: a Comprehensive Guide | How to Install and Use Openbots Studio,MXrXnhD4-gs,https://www.youtube.com/watch?v=MXrXnhD4-gs,https://i.ytimg.com/vi_webp/MXrXnhD4-gs/maxresdefault.webp,2023-01-09,00:02:32,2023-2,"OpenBots,RPA","openbots,rpa",video,video,YouTube,youtube
29985,Anders Jensen,UCPdtz4gd_iYebJFYq9N8pWA,anders-jensen,https://www.youtube.com/channel/UCPdtz4gd_iYebJFYq9N8pWA,,Get Started with OpenBots - Beginners Guide,A2Y-_LaAAZA,https://www.youtube.com/watch?v=A2Y-_LaAAZA,https://i.ytimg.com/vi/A2Y-_LaAAZA/maxresdefault.jpg,2023-01-04,00:59:00,2023-1,"OpenBots,RPA","openbots,rpa",video,video,YouTube,youtube
