id,org_name,org_identifier,org_slug,org_url,person,title,platform_identifier,url,thumbnail_src,published_at,duration,year_week,tags,tags_slugs,type_name,type_slug,platform_name,platform_slug
30361,RPA Learners,UCeGAMyKP_6NuCn42kllXwTw,rpa-learners,https://www.youtube.com/channel/UCeGAMyKP_6NuCn42kllXwTw,,Prerequisites or Configurations of Web Automation using BotCity | Opensource RPA | RPA in python,WB4oOpHqgek,https://www.youtube.com/watch?v=WB4oOpHqgek,https://i.ytimg.com/vi/WB4oOpHqgek/maxresdefault.jpg,2023-03-09,00:10:14,2023-10,"BotCity,browser,RPA","botcity,browser,rpa",video,video,YouTube,youtube
30298,RPA Learners,UCeGAMyKP_6NuCn42kllXwTw,rpa-learners,https://www.youtube.com/channel/UCeGAMyKP_6NuCn42kllXwTw,,Prerequisites and Creating First Bot using BotCity | Opensource RPA | RPA in python,K1kbNMdiNG0,https://www.youtube.com/watch?v=K1kbNMdiNG0,https://i.ytimg.com/vi/K1kbNMdiNG0/maxresdefault.jpg,2023-02-23,00:17:00,2023-8,"BotCity,RPA","botcity,rpa",video,video,YouTube,youtube
29585,RPA Learners,UCeGAMyKP_6NuCn42kllXwTw,rpa-learners,https://www.youtube.com/channel/UCeGAMyKP_6NuCn42kllXwTw,,"Introduction to RPA tool BotCity that uses Python, java or JavaScript | RPA Learners | Open Source",w0FhqYLqBkU,https://www.youtube.com/watch?v=w0FhqYLqBkU,https://i.ytimg.com/vi/w0FhqYLqBkU/maxresdefault.jpg,2022-11-13,00:10:02,2022-45,"BotCity,RPA","botcity,rpa",video,video,YouTube,youtube
