id,org_name,org_identifier,org_slug,org_url,person,title,platform_identifier,url,thumbnail_src,published_at,duration,year_week,tags,tags_slugs,type_name,type_slug,platform_name,platform_slug
30825,Tom's Tech Academy,UCstCuI_7DvHw7-KSA3Yy9PQ,tom-s-tech-academy,https://www.youtube.com/channel/UCstCuI_7DvHw7-KSA3Yy9PQ,,I order pizzas 🍕 for my party with UiPath and Chat-GPT 😎,Cc2X89pdHOk,https://www.youtube.com/watch?v=Cc2X89pdHOk,https://i.ytimg.com/vi_webp/Cc2X89pdHOk/maxresdefault.webp,2023-05-05,00:10:44,2023-18,"Artificial Intelligence,RPA,UiPath,Use Case","ai,rpa,uipath,usecase",video,video,YouTube,youtube
30809,RPAFeed,UC3f0L_fUSQe8vAQwJowJ6-g,rpafeed,https://www.youtube.com/channel/UC3f0L_fUSQe8vAQwJowJ6-g,,Bot Games 4 - Challenge 1 | AI Healthcare Challenge | #rpashorts,noe1BImWKUI,https://www.youtube.com/watch?v=noe1BImWKUI,https://i.ytimg.com/vi/noe1BImWKUI/maxresdefault.jpg,2023-05-03,00:00:36,2023-18,"Artificial Intelligence,Automation Anywhere,Challenge,RPA","ai,automation-anywhere,challenge,rpa",video,video,YouTube,youtube
30792,Harika Mudiam,UCDIBmgKBPBtNJrE0dQfnAYg,harika-mudiam,https://www.youtube.com/channel/UCDIBmgKBPBtNJrE0dQfnAYg,,CHATGPT vs Google - which is best???,Ydlq67o9r-M,https://www.youtube.com/watch?v=Ydlq67o9r-M,https://i.ytimg.com/vi_webp/Ydlq67o9r-M/sddefault.webp,2023-05-02,00:15:28,2023-18,"Artificial Intelligence,RPA","ai,rpa",video,video,YouTube,youtube
30791,Automation Rocketship,UCd10w9kdYvSVyxTVAo6vjMw,automation-rocketship,https://www.youtube.com/channel/UCd10w9kdYvSVyxTVAo6vjMw,,UiPath AI Summit 2023 - #1 AI Use Case - Efficient Product Sequencing Recommendation Model,bTKUCg3MCsA,https://www.youtube.com/watch?v=bTKUCg3MCsA,https://i.ytimg.com/vi/bTKUCg3MCsA/sddefault.jpg,2023-05-02,00:35:28,2023-18,"Artificial Intelligence,RPA,UiPath,Use Case","ai,rpa,uipath,usecase",video,video,YouTube,youtube
30804,Anders Jensen,UCPdtz4gd_iYebJFYq9N8pWA,anders-jensen,https://www.youtube.com/channel/UCPdtz4gd_iYebJFYq9N8pWA,,How to do Invoice Processing with botminds.ai,JEn5L6StcF4,https://www.youtube.com/watch?v=JEn5L6StcF4,https://i.ytimg.com/vi/JEn5L6StcF4/maxresdefault.jpg,2023-05-02,00:54:13,2023-18,"botminds.ai,Intelligent Document Processing,RPA,Use Case","botminds.ai,intelligent-document-processing,rpa,usecase",video,video,YouTube,youtube
30775,Harika Mudiam,UCDIBmgKBPBtNJrE0dQfnAYg,harika-mudiam,https://www.youtube.com/channel/UCDIBmgKBPBtNJrE0dQfnAYg,,Crash Course on OpenAI ChatGPT   Master ChatGPT in One Hour,CcfAjLtwDBY,https://www.youtube.com/watch?v=CcfAjLtwDBY,https://i.ytimg.com/vi_webp/CcfAjLtwDBY/sddefault.webp,2023-04-30,00:59:28,2023-17,"Artificial Intelligence,RPA,UiPath","ai,rpa,uipath",video,video,YouTube,youtube
30769,Harika Mudiam,UCDIBmgKBPBtNJrE0dQfnAYg,harika-mudiam,https://www.youtube.com/channel/UCDIBmgKBPBtNJrE0dQfnAYg,,Sentiment Analysis |  OpenAI API  |  ChatGPT + UiPath -  Part 2,fK_awWuuSCE,https://www.youtube.com/watch?v=fK_awWuuSCE,https://i.ytimg.com/vi/fK_awWuuSCE/maxresdefault.jpg,2023-04-29,00:15:00,2023-17,"Artificial Intelligence,RPA,UiPath","ai,rpa,uipath",video,video,YouTube,youtube
30768,Harika Mudiam,UCDIBmgKBPBtNJrE0dQfnAYg,harika-mudiam,https://www.youtube.com/channel/UCDIBmgKBPBtNJrE0dQfnAYg,,See How Chatgpt created  schedule for Uipath Interview preparation -  link in comment & description,DxSfcMeX-c0,https://www.youtube.com/watch?v=DxSfcMeX-c0,https://i.ytimg.com/vi/DxSfcMeX-c0/sd2.jpg,2023-04-29,00:01:00,2023-17,"Artificial Intelligence,RPA,UiPath","ai,rpa,uipath",video,video,YouTube,youtube
30759,Harika Mudiam,UCDIBmgKBPBtNJrE0dQfnAYg,harika-mudiam,https://www.youtube.com/channel/UCDIBmgKBPBtNJrE0dQfnAYg,,Sentiment Analysis | OpenAI API | ChatGPT + UiPath - Part 1,K80PQSWnXuw,https://www.youtube.com/watch?v=K80PQSWnXuw,https://i.ytimg.com/vi_webp/K80PQSWnXuw/maxresdefault.webp,2023-04-28,00:04:08,2023-17,"Artificial Intelligence,RPA,UiPath","ai,rpa,uipath",video,video,YouTube,youtube
30765,AUTOMATE WITH UIPATH,UCa7b3OJL6ghuCX3hCUghVTA,automate-with-uipath,https://www.youtube.com/channel/UCa7b3OJL6ghuCX3hCUghVTA,,How support role works in UiPath 08 30 23 30 07 2021 09 01 23 37 19,GxFYktwKA_o,https://www.youtube.com/watch?v=GxFYktwKA_o,https://i.ytimg.com/vi/GxFYktwKA_o/sddefault.jpg,2023-04-28,01:07:31,2023-17,"Maintainability,RPA,UiPath","maintainability,rpa,uipath",video,video,YouTube,youtube
30762,Anders Jensen,UCPdtz4gd_iYebJFYq9N8pWA,anders-jensen,https://www.youtube.com/channel/UCPdtz4gd_iYebJFYq9N8pWA,,How to Build a Search Engine for Your Documents,0wvUVUepJSU,https://www.youtube.com/watch?v=0wvUVUepJSU,https://i.ytimg.com/vi/0wvUVUepJSU/maxresdefault.jpg,2023-04-28,00:45:14,2023-17,"Artificial Intelligence,botminds.ai,lowcode,RPA,Use Case","ai,botminds.ai,lowcode,rpa,usecase",video,video,YouTube,youtube
30750,Harika Mudiam,UCDIBmgKBPBtNJrE0dQfnAYg,harika-mudiam,https://www.youtube.com/channel/UCDIBmgKBPBtNJrE0dQfnAYg,,OpenAI API - ChatGPT +  UiPath and Postman | Complete Use-Case Explained | Simple and Easy way.,7Zlo1l2T2Pg,https://www.youtube.com/watch?v=7Zlo1l2T2Pg,https://i.ytimg.com/vi_webp/7Zlo1l2T2Pg/maxresdefault.webp,2023-04-27,00:26:52,2023-17,"APIs,Artificial Intelligence,RPA,UiPath","apis,ai,rpa,uipath",video,video,YouTube,youtube
30753,Harika Mudiam,UCDIBmgKBPBtNJrE0dQfnAYg,harika-mudiam,https://www.youtube.com/channel/UCDIBmgKBPBtNJrE0dQfnAYg,,OpenAI API - CHATGPT + Uipath - learn just in 10mins..checkout video's link In 1st comment 👇,Ymra84zPkuk,https://www.youtube.com/watch?v=Ymra84zPkuk,https://i.ytimg.com/vi/Ymra84zPkuk/sd2.jpg,2023-04-27,00:01:00,2023-17,"Artificial Intelligence,RPA,UiPath","ai,rpa,uipath",video,video,YouTube,youtube
30742,UiPath Video Tutorials made by Cristian Negulescu,UCiSb0WLTgB23jT0E6NEuu7Q,uipath-video-tutorials-made-by-cristian-negulescu,https://www.youtube.com/channel/UCiSb0WLTgB23jT0E6NEuu7Q,,ChatGPT vs UiPath Automation: How do we choose what to use for each process?,Qx7KmwBz98Q,https://www.youtube.com/watch?v=Qx7KmwBz98Q,https://i.ytimg.com/vi/Qx7KmwBz98Q/maxresdefault.jpg,2023-04-26,00:04:20,2023-17,"Artificial Intelligence,RPA,UiPath","ai,rpa,uipath",video,video,YouTube,youtube
30752,Anders Jensen,UCPdtz4gd_iYebJFYq9N8pWA,anders-jensen,https://www.youtube.com/channel/UCPdtz4gd_iYebJFYq9N8pWA,,Advanced Document Processing with botminds.ai,cTZ5cliUHrk,https://www.youtube.com/watch?v=cTZ5cliUHrk,https://i.ytimg.com/vi/cTZ5cliUHrk/maxresdefault.jpg,2023-04-26,00:41:55,2023-17,"Artificial Intelligence,botminds.ai,Intelligent Document Processing,lowcode,RPA","ai,botminds.ai,intelligent-document-processing,lowcode,rpa",video,video,YouTube,youtube
30737,UiPath Video Tutorials made by Cristian Negulescu,UCiSb0WLTgB23jT0E6NEuu7Q,uipath-video-tutorials-made-by-cristian-negulescu,https://www.youtube.com/channel/UCiSb0WLTgB23jT0E6NEuu7Q,,"Lead Generation Mastery: Boost Your Business with UiPath, ChatGPT, and LinkedIn (3-minute logic)",W2nxuKlkaRY,https://www.youtube.com/watch?v=W2nxuKlkaRY,https://i.ytimg.com/vi/W2nxuKlkaRY/maxresdefault.jpg,2023-04-25,00:03:29,2023-17,"Artificial Intelligence,RPA,UiPath,Use Case","ai,rpa,uipath,usecase",video,video,YouTube,youtube
30732,Harika Mudiam,UCDIBmgKBPBtNJrE0dQfnAYg,harika-mudiam,https://www.youtube.com/channel/UCDIBmgKBPBtNJrE0dQfnAYg,,Resume Screening Explained | ChatGPT + UiPath + Document Understanding | Shortlisting Resumes Part 2,cVlMCMXVsMA,https://www.youtube.com/watch?v=cVlMCMXVsMA,https://i.ytimg.com/vi_webp/cVlMCMXVsMA/maxresdefault.webp,2023-04-25,00:17:00,2023-17,"Artificial Intelligence,document understanding,RPA,UiPath","ai,document-understanding,rpa,uipath",video,video,YouTube,youtube
30723,Harika Mudiam,UCDIBmgKBPBtNJrE0dQfnAYg,harika-mudiam,https://www.youtube.com/channel/UCDIBmgKBPBtNJrE0dQfnAYg,,Resume Screening usecase | ChatGPT + UiPath + Document Understanding | Shortlisting Resumes - Part 1,rqCzDbjESRA,https://www.youtube.com/watch?v=rqCzDbjESRA,https://i.ytimg.com/vi_webp/rqCzDbjESRA/maxresdefault.webp,2023-04-24,00:10:18,2023-17,"Artificial Intelligence,RPA,UiPath,Use Case","ai,rpa,uipath,usecase",video,video,YouTube,youtube
30719,Harika Mudiam,UCDIBmgKBPBtNJrE0dQfnAYg,harika-mudiam,https://www.youtube.com/channel/UCDIBmgKBPBtNJrE0dQfnAYg,,ChatGPT + UiPath + Document Understanding | Summarizing Resume | Simplify Hiring Process | Open AI,B9SUtHTO2Ks,https://www.youtube.com/watch?v=B9SUtHTO2Ks,https://i.ytimg.com/vi_webp/B9SUtHTO2Ks/maxresdefault.webp,2023-04-23,00:18:10,2023-16,"Artificial Intelligence,Docker,RPA,UiPath","ai,docker,rpa,uipath",video,video,YouTube,youtube
30718,Harika Mudiam,UCDIBmgKBPBtNJrE0dQfnAYg,harika-mudiam,https://www.youtube.com/channel/UCDIBmgKBPBtNJrE0dQfnAYg,,CHATGPT + Uipath... Q&A by chatGPT.... Shorts... Check out video link in comments,fhCCpAv7MvE,https://www.youtube.com/watch?v=fhCCpAv7MvE,https://i.ytimg.com/vi/fhCCpAv7MvE/sd2.jpg,2023-04-22,00:00:54,2023-16,"Artificial Intelligence,RPA,UiPath","ai,rpa,uipath",video,video,YouTube,youtube
30713,Harika Mudiam,UCDIBmgKBPBtNJrE0dQfnAYg,harika-mudiam,https://www.youtube.com/channel/UCDIBmgKBPBtNJrE0dQfnAYg,,ChatGPT + UiPath | ChatGPT answering the Questions after data extraction.,YtbjqEovDuE,https://www.youtube.com/watch?v=YtbjqEovDuE,https://i.ytimg.com/vi_webp/YtbjqEovDuE/maxresdefault.webp,2023-04-22,00:17:04,2023-16,"Artificial Intelligence,RPA,UiPath,Use Case","ai,rpa,uipath,usecase",video,video,YouTube,youtube
30703,Harika Mudiam,UCDIBmgKBPBtNJrE0dQfnAYg,harika-mudiam,https://www.youtube.com/channel/UCDIBmgKBPBtNJrE0dQfnAYg,,ChatGPT - Text Generation - let’s explore and learn together 💁,crJxnUgq7hs,https://www.youtube.com/watch?v=crJxnUgq7hs,https://i.ytimg.com/vi/crJxnUgq7hs/sddefault.jpg,2023-04-21,00:03:31,2023-16,"Artificial Intelligence,RPA,UiPath","ai,rpa,uipath",video,video,YouTube,youtube
30702,Harika Mudiam,UCDIBmgKBPBtNJrE0dQfnAYg,harika-mudiam,https://www.youtube.com/channel/UCDIBmgKBPBtNJrE0dQfnAYg,,Exploring chatGPT capabilities - Text generation - let’s learn together 😊,yEgKZg48ktQ,https://www.youtube.com/watch?v=yEgKZg48ktQ,https://i.ytimg.com/vi/yEgKZg48ktQ/sd2.jpg,2023-04-21,00:00:21,2023-16,"Artificial Intelligence,RPA,UiPath","ai,rpa,uipath",video,video,YouTube,youtube
30666,Robobix,UCgSukdk2i259Jke1HW-t39g,robobix,https://www.youtube.com/channel/UCgSukdk2i259Jke1HW-t39g,,Gmail Smtp and Imap mail activites in UiPath | UiPath Mail Message Activities | UiPath RPA Tutorials,YDF-3xWJPLc,https://www.youtube.com/watch?v=YDF-3xWJPLc,https://i.ytimg.com/vi_webp/YDF-3xWJPLc/maxresdefault.webp,2023-04-15,00:12:06,2023-15,"email automation,RPA,UiPath","email-automation,rpa,uipath",video,video,YouTube,youtube
30662,UiPath,,uipath,https://www.uipath.com/,,Gmail automation with StudioX,H0kqbpgkD0Q,https://www.youtube.com/watch?v=H0kqbpgkD0Q,https://i.ytimg.com/vi_webp/H0kqbpgkD0Q/maxresdefault.webp,2023-04-14,00:07:19,2023-15,"email automation,RPA,UiPath,UiPath Studio X","email-automation,rpa,uipath,uipath-studio-x",video,video,YouTube,youtube
30655,Anders Jensen,UCPdtz4gd_iYebJFYq9N8pWA,anders-jensen,https://www.youtube.com/channel/UCPdtz4gd_iYebJFYq9N8pWA,,NLP and Communications Mining for UiPath RPA Developers,jHAjo3jDIF8,https://www.youtube.com/watch?v=jHAjo3jDIF8,https://i.ytimg.com/vi/jHAjo3jDIF8/maxresdefault.jpg,2023-04-13,00:55:46,2023-15,"Artificial Intelligence,RPA,UiPath","ai,rpa,uipath",video,video,YouTube,youtube
30639,RPA Vanguard,UCrCNK5cllpBY-HqeyGd1VoQ,rpa-vanguard,https://www.youtube.com/channel/UCrCNK5cllpBY-HqeyGd1VoQ,,OpenAI: Tinkering with Tiktoken APIs - Build Inexpensive Prompts?,b9gWQ3coAsI,https://www.youtube.com/watch?v=b9gWQ3coAsI,https://i.ytimg.com/vi/b9gWQ3coAsI/maxresdefault.jpg,2023-04-12,00:25:14,2023-15,"Artificial Intelligence,RPA","ai,rpa",video,video,YouTube,youtube
30645,botsDNA,UCeUnm1Edt7W7CH_E3Nj3eOg,botsdna,https://www.youtube.com/channel/UCeUnm1Edt7W7CH_E3Nj3eOg,,How to Transform Unstructured Data into Structured Data with GPT-Smart Capture | UiPath | BotsDNA,3Xj2VZhaDFs,https://www.youtube.com/watch?v=3Xj2VZhaDFs,https://i.ytimg.com/vi/3Xj2VZhaDFs/maxresdefault.jpg,2023-04-12,00:09:42,2023-15,"APIs,Artificial Intelligence,RPA,UiPath","apis,ai,rpa,uipath",video,video,YouTube,youtube
30605,RPA Vanguard,UCrCNK5cllpBY-HqeyGd1VoQ,rpa-vanguard,https://www.youtube.com/channel/UCrCNK5cllpBY-HqeyGd1VoQ,,UiPath: OpenAI Integration Service Connector - Getting Started,_MHutkuEZOo,https://www.youtube.com/watch?v=_MHutkuEZOo,https://i.ytimg.com/vi/_MHutkuEZOo/maxresdefault.jpg,2023-04-05,00:34:05,2023-14,"Artificial Intelligence,RPA,UiPath","ai,rpa,uipath",video,video,YouTube,youtube
30582,Robobix,UCgSukdk2i259Jke1HW-t39g,robobix,https://www.youtube.com/channel/UCgSukdk2i259Jke1HW-t39g,,UiPath Outlook Automation - Part 1 | UiPath Outlook Mail Activities | UiPath RPA Tutorials,_Y-3ezsDeTk,https://www.youtube.com/watch?v=_Y-3ezsDeTk,https://i.ytimg.com/vi_webp/_Y-3ezsDeTk/maxresdefault.webp,2023-04-01,00:17:35,2023-13,"email automation,RPA,UiPath","email-automation,rpa,uipath",video,video,YouTube,youtube
30575,UiPath,,uipath,https://www.uipath.com/,,Clipboard AI: AI for the rest of us to free up the best in us,FouRcBqj5tA,https://www.youtube.com/watch?v=FouRcBqj5tA,https://i.ytimg.com/vi_webp/FouRcBqj5tA/maxresdefault.webp,2023-03-31,00:01:01,2023-13,"Artificial Intelligence,RPA,UiPath","ai,rpa,uipath",video,video,YouTube,youtube
30563,UiPath,,uipath,https://www.uipath.com/,,New Ask GPT Document Understanding Activity: UiPath + OpenAI integration,rcIl2usFH8E,https://www.youtube.com/watch?v=rcIl2usFH8E,https://i.ytimg.com/vi/rcIl2usFH8E/maxresdefault.jpg,2023-03-30,00:05:30,2023-13,"Artificial Intelligence,document understanding,RPA,UiPath","ai,document-understanding,rpa,uipath",video,video,YouTube,youtube
30550,UiPath Video Tutorials made by Cristian Negulescu,UCiSb0WLTgB23jT0E6NEuu7Q,uipath-video-tutorials-made-by-cristian-negulescu,https://www.youtube.com/channel/UCiSb0WLTgB23jT0E6NEuu7Q,,Maximizing UiPath Performance with ChatGPT and AI Tools,4IP3_865w5k,https://www.youtube.com/watch?v=4IP3_865w5k,https://i.ytimg.com/vi_webp/4IP3_865w5k/maxresdefault.webp,2023-03-29,00:04:40,2023-13,"Artificial Intelligence,RPA,UiPath","ai,rpa,uipath",video,video,YouTube,youtube
30541,UiPath Video Tutorials made by Cristian Negulescu,UCiSb0WLTgB23jT0E6NEuu7Q,uipath-video-tutorials-made-by-cristian-negulescu,https://www.youtube.com/channel/UCiSb0WLTgB23jT0E6NEuu7Q,,"3 minute Logic: How ChatGPT, UiPath, and LinkedIn Premium Can Help You Find the Perfect Candidate",jodBpuZIlx8,https://www.youtube.com/watch?v=jodBpuZIlx8,https://i.ytimg.com/vi_webp/jodBpuZIlx8/maxresdefault.webp,2023-03-28,00:02:53,2023-13,"Artificial Intelligence,RPA,UiPath","ai,rpa,uipath",video,video,YouTube,youtube
30543,UiPath Video Tutorials made by Cristian Negulescu,UCiSb0WLTgB23jT0E6NEuu7Q,uipath-video-tutorials-made-by-cristian-negulescu,https://www.youtube.com/channel/UCiSb0WLTgB23jT0E6NEuu7Q,,"Hiring Made Easy: How ChatGPT, UiPath, and LinkedIn Premium Can Help You Find the Perfect Candidate",LWT4lYiBZbY,https://www.youtube.com/watch?v=LWT4lYiBZbY,https://i.ytimg.com/vi_webp/LWT4lYiBZbY/maxresdefault.webp,2023-03-28,00:30:42,2023-13,"Artificial Intelligence,RPA,UiPath,Use Case","ai,rpa,uipath,usecase",video,video,YouTube,youtube
30544,Robocorp,UCmdUNLWfRA2MvXlN9c5vtNA,robocorp,https://www.youtube.com/channel/UCmdUNLWfRA2MvXlN9c5vtNA,,Tommi Talk Episode 6.5: Developments in Generative AI,nDmLexw8T2M,https://www.youtube.com/watch?v=nDmLexw8T2M,https://i.ytimg.com/vi/nDmLexw8T2M/maxresdefault.jpg,2023-03-28,00:12:08,2023-13,"Artificial Intelligence,Robocorp,RPA","ai,robocorp,rpa",video,video,YouTube,youtube
30533,K T Sessions,UCStgI3w3IYFK-q06hCtxcEQ,k-t-sessions,https://www.youtube.com/channel/UCStgI3w3IYFK-q06hCtxcEQ,,Fun Facts of chatgpt,07nWXdUMkgE,https://www.youtube.com/watch?v=07nWXdUMkgE,https://i.ytimg.com/vi/07nWXdUMkgE/maxresdefault.jpg,2023-03-27,00:00:35,2023-13,"Artificial Intelligence,RPA","ai,rpa",video,video,YouTube,youtube
30511,K T Sessions,UCStgI3w3IYFK-q06hCtxcEQ,k-t-sessions,https://www.youtube.com/channel/UCStgI3w3IYFK-q06hCtxcEQ,,FUN FACTS OF #CHATGPT | What is ChatGPT4,Y727dWNcHLI,https://www.youtube.com/watch?v=Y727dWNcHLI,https://i.ytimg.com/vi/Y727dWNcHLI/maxresdefault.jpg,2023-03-25,00:00:35,2023-12,"Artificial Intelligence,RPA","ai,rpa",video,video,YouTube,youtube
30495,Robocorp,UCmdUNLWfRA2MvXlN9c5vtNA,robocorp,https://www.youtube.com/channel/UCmdUNLWfRA2MvXlN9c5vtNA,,Tommi Talk Episode 6: Developments in Generative AI + Attended Automations,o-vzN_S_DOU,https://www.youtube.com/watch?v=o-vzN_S_DOU,https://i.ytimg.com/vi/o-vzN_S_DOU/maxresdefault.jpg,2023-03-22,00:18:10,2023-12,"Artificial Intelligence,attended,Robocorp,RPA","ai,attended,robocorp,rpa",video,video,YouTube,youtube
30487,UiPath Video Tutorials made by Cristian Negulescu,UCiSb0WLTgB23jT0E6NEuu7Q,uipath-video-tutorials-made-by-cristian-negulescu,https://www.youtube.com/channel/UCiSb0WLTgB23jT0E6NEuu7Q,,"3-minute Logic: Multilingual & Personalized LinkedIn Messaging with UiPath, ChatGPT & DeepL",P8l_FUJzfmQ,https://www.youtube.com/watch?v=P8l_FUJzfmQ,https://i.ytimg.com/vi_webp/P8l_FUJzfmQ/maxresdefault.webp,2023-03-21,00:02:50,2023-12,"Artificial Intelligence,RPA,UiPath,Use Case","ai,rpa,uipath,usecase",video,video,YouTube,youtube
30490,UiPath Video Tutorials made by Cristian Negulescu,UCiSb0WLTgB23jT0E6NEuu7Q,uipath-video-tutorials-made-by-cristian-negulescu,https://www.youtube.com/channel/UCiSb0WLTgB23jT0E6NEuu7Q,,"Multilingual & Personalized LinkedIn Messaging with UiPath, ChatGPT & DeepL",i1R9QhYwn4s,https://www.youtube.com/watch?v=i1R9QhYwn4s,https://i.ytimg.com/vi_webp/i1R9QhYwn4s/maxresdefault.webp,2023-03-21,00:28:30,2023-12,"Artificial Intelligence,RPA,UiPath,Use Case","ai,rpa,uipath,usecase",video,video,YouTube,youtube
30483,UiPath Video Tutorials made by Cristian Negulescu,UCiSb0WLTgB23jT0E6NEuu7Q,uipath-video-tutorials-made-by-cristian-negulescu,https://www.youtube.com/channel/UCiSb0WLTgB23jT0E6NEuu7Q,,"Email Marketing Driven by AI: Multilingual Automation with UiPath, ChatGPT, and DeepL Translator",kW8uBPYZfsU,https://www.youtube.com/watch?v=kW8uBPYZfsU,https://i.ytimg.com/vi_webp/kW8uBPYZfsU/maxresdefault.webp,2023-03-20,00:12:37,2023-12,"Artificial Intelligence,RPA,UiPath,Use Case","ai,rpa,uipath,usecase",video,video,YouTube,youtube
30472,UiPath Video Tutorials made by Cristian Negulescu,UCiSb0WLTgB23jT0E6NEuu7Q,uipath-video-tutorials-made-by-cristian-negulescu,https://www.youtube.com/channel/UCiSb0WLTgB23jT0E6NEuu7Q,,Revolutionizing UiPath Automation: 5 Complex Decisions Where ChatGPT Outperforms Human in the Loop,z_VaYFgGfEY,https://www.youtube.com/watch?v=z_VaYFgGfEY,https://i.ytimg.com/vi_webp/z_VaYFgGfEY/maxresdefault.webp,2023-03-17,00:14:28,2023-11,"Artificial Intelligence,control flow,RPA,UiPath","ai,control-flow,rpa,uipath",video,video,YouTube,youtube
30453,RPAFeed,UC3f0L_fUSQe8vAQwJowJ6-g,rpafeed,https://www.youtube.com/channel/UC3f0L_fUSQe8vAQwJowJ6-g,,ChatGPT and RPA Integration Use Cases | RPAFeed,Q7k7vs8k4V0,https://www.youtube.com/watch?v=Q7k7vs8k4V0,https://i.ytimg.com/vi_webp/Q7k7vs8k4V0/maxresdefault.webp,2023-03-14,00:04:32,2023-11,"Artificial Intelligence,RPA,UiPath","ai,rpa,uipath",video,video,YouTube,youtube
30434,K T Sessions,UCStgI3w3IYFK-q06hCtxcEQ,k-t-sessions,https://www.youtube.com/channel/UCStgI3w3IYFK-q06hCtxcEQ,,CONSUME CHATGPT API IN BLUEPRISM USING CODE STAGE,dVQR5TwNT5A,https://www.youtube.com/watch?v=dVQR5TwNT5A,https://i.ytimg.com/vi/dVQR5TwNT5A/sddefault.jpg,2023-03-10,00:18:00,2023-10,"Artificial Intelligence,Blue Prism,RPA","ai,blue-prism,rpa",video,video,YouTube,youtube
30364,UiPath Video Tutorials made by Cristian Negulescu,UCiSb0WLTgB23jT0E6NEuu7Q,uipath-video-tutorials-made-by-cristian-negulescu,https://www.youtube.com/channel/UCiSb0WLTgB23jT0E6NEuu7Q,,3-minute logic: Match LinkedIn Profiles using UiPath & ChatGPT,p9_C2v08dq8,https://www.youtube.com/watch?v=p9_C2v08dq8,https://i.ytimg.com/vi_webp/p9_C2v08dq8/maxresdefault.webp,2023-03-09,00:03:03,2023-10,"Artificial Intelligence,RPA,UiPath,Use Case","ai,rpa,uipath,usecase",video,video,YouTube,youtube
30355,UiPath Video Tutorials made by Cristian Negulescu,UCiSb0WLTgB23jT0E6NEuu7Q,uipath-video-tutorials-made-by-cristian-negulescu,https://www.youtube.com/channel/UCiSb0WLTgB23jT0E6NEuu7Q,,Smart Recruitment: Matching LinkedIn Profiles with Job Requirements using UiPath Robots and ChatGPT,4u57ycMQ6u0,https://www.youtube.com/watch?v=4u57ycMQ6u0,https://i.ytimg.com/vi_webp/4u57ycMQ6u0/maxresdefault.webp,2023-03-08,00:12:05,2023-10,"Artificial Intelligence,RPA,UiPath,Use Case","ai,rpa,uipath,usecase",video,video,YouTube,youtube
30360,Tutorials by Mukesh Kala,UCtZTZt9fI91Xp-PVTPBESQQ,tutorials-by-mukesh-kala,https://www.youtube.com/channel/UCtZTZt9fI91Xp-PVTPBESQQ,,GPT 3 Explained | What is GPT 3  | GPT 3 AI | Artificial Intelligence | How GPT3 Transformers Works,YJgAsjg6WUU,https://www.youtube.com/watch?v=YJgAsjg6WUU,https://i.ytimg.com/vi_webp/YJgAsjg6WUU/maxresdefault.webp,2023-03-08,00:33:56,2023-10,"Artificial Intelligence,RPA","ai,rpa",video,video,YouTube,youtube
30352,UiPath Video Tutorials made by Cristian Negulescu,UCiSb0WLTgB23jT0E6NEuu7Q,uipath-video-tutorials-made-by-cristian-negulescu,https://www.youtube.com/channel/UCiSb0WLTgB23jT0E6NEuu7Q,,Boosting Your UiPath Robots with ChatGPT 3.5: An API Integration Tutorial,Ci5mLnMZqZg,https://www.youtube.com/watch?v=Ci5mLnMZqZg,https://i.ytimg.com/vi_webp/Ci5mLnMZqZg/maxresdefault.webp,2023-03-07,00:09:44,2023-10,"APIs,Artificial Intelligence,RPA,UiPath","apis,ai,rpa,uipath",video,video,YouTube,youtube
30325,UiPath Video Tutorials made by Cristian Negulescu,UCiSb0WLTgB23jT0E6NEuu7Q,uipath-video-tutorials-made-by-cristian-negulescu,https://www.youtube.com/channel/UCiSb0WLTgB23jT0E6NEuu7Q,,AI Meets RPA: 10 Ways ChatGPT Boosts UiPath Robots,X7P_KYzauM8,https://www.youtube.com/watch?v=X7P_KYzauM8,https://i.ytimg.com/vi_webp/X7P_KYzauM8/maxresdefault.webp,2023-03-02,00:14:23,2023-9,"Artificial Intelligence,RPA,UiPath","ai,rpa,uipath",video,video,YouTube,youtube
30320,K T Sessions,UCStgI3w3IYFK-q06hCtxcEQ,k-t-sessions,https://www.youtube.com/channel/UCStgI3w3IYFK-q06hCtxcEQ,,ChatGPT Integration with Blue Prism,zYvjBmwwHeg,https://www.youtube.com/watch?v=zYvjBmwwHeg,https://i.ytimg.com/vi_webp/zYvjBmwwHeg/sddefault.webp,2023-03-01,00:10:03,2023-9,"Artificial Intelligence,Blue Prism,RPA","ai,blue-prism,rpa",video,video,YouTube,youtube
30316,Robocorp,UCmdUNLWfRA2MvXlN9c5vtNA,robocorp,https://www.youtube.com/channel/UCmdUNLWfRA2MvXlN9c5vtNA,,Coding for Success Vol.2  - Connecting Robocorp to Chat GPT,XQitrIgSlPU,https://www.youtube.com/watch?v=XQitrIgSlPU,https://i.ytimg.com/vi/XQitrIgSlPU/maxresdefault.jpg,2023-02-28,00:20:03,2023-9,"Artificial Intelligence,Robocorp,RPA","ai,robocorp,rpa",video,video,YouTube,youtube
30313,Robocorp,UCmdUNLWfRA2MvXlN9c5vtNA,robocorp,https://www.youtube.com/channel/UCmdUNLWfRA2MvXlN9c5vtNA,,Coding for Success Vol.2  - Connecting Robocorp to Chat GPT,6KJm0Ja0Ssw,https://www.youtube.com/watch?v=6KJm0Ja0Ssw,https://i.ytimg.com/vi/6KJm0Ja0Ssw/maxresdefault.jpg,2023-02-27,00:20:03,2023-9,"Artificial Intelligence,Robocorp,RPA","ai,robocorp,rpa",video,video,YouTube,youtube
30293,Tutorials by Mukesh Kala,UCtZTZt9fI91Xp-PVTPBESQQ,tutorials-by-mukesh-kala,https://www.youtube.com/channel/UCtZTZt9fI91Xp-PVTPBESQQ,,𝟵𝘁𝗵 𝗘𝗱𝗶𝘁𝗶𝗼𝗻 𝗼𝗳 𝗜𝗻𝗱𝗶𝗮 𝗦𝗺𝗮𝗿𝘁 𝗨𝘁𝗶𝗹𝗶𝘁𝘆 𝗪𝗲𝗲𝗸 (𝗜𝗦𝗨𝗪 𝟮𝟬𝟮𝟯),tuHcumJ2kuI,https://www.youtube.com/watch?v=tuHcumJ2kuI,https://i.ytimg.com/vi/tuHcumJ2kuI/sd2.jpg,2023-02-25,00:00:49,2023-8,"Artificial Intelligence,conference,RPA","ai,conference,rpa",video,video,YouTube,youtube
30288,AUTOMATE WITH UIPATH,UCa7b3OJL6ghuCX3hCUghVTA,automate-with-uipath,https://www.youtube.com/channel/UCa7b3OJL6ghuCX3hCUghVTA,,Chatgpt about automate with uipath #vajrangtalks,bR_5tSFhuT0,https://www.youtube.com/watch?v=bR_5tSFhuT0,https://i.ytimg.com/vi/bR_5tSFhuT0/sd2.jpg,2023-02-25,00:00:40,2023-8,"Artificial Intelligence,RPA,UiPath","ai,rpa,uipath",video,video,YouTube,youtube
30285,UiPath Video Tutorials made by Cristian Negulescu,UCiSb0WLTgB23jT0E6NEuu7Q,uipath-video-tutorials-made-by-cristian-negulescu,https://www.youtube.com/channel/UCiSb0WLTgB23jT0E6NEuu7Q,,Linkedin automation in multiple languages with help of UiPath Robots and ChatGPT,0QSb0ukvLPM,https://www.youtube.com/watch?v=0QSb0ukvLPM,https://i.ytimg.com/vi_webp/0QSb0ukvLPM/maxresdefault.webp,2023-02-22,00:18:26,2023-8,"Artificial Intelligence,RPA,UiPath","ai,rpa,uipath",video,video,YouTube,youtube
30287,Anders Jensen,UCPdtz4gd_iYebJFYq9N8pWA,anders-jensen,https://www.youtube.com/channel/UCPdtz4gd_iYebJFYq9N8pWA,,How to Integrate ChatGPT in Power Automate: Step-by-Step Tutorial,Lyfx3u407q8,https://www.youtube.com/watch?v=Lyfx3u407q8,https://i.ytimg.com/vi_webp/Lyfx3u407q8/maxresdefault.webp,2023-02-22,00:10:50,2023-8,"Artificial Intelligence,lowcode,Microsoft,RPA","ai,lowcode,microsoft,rpa",video,video,YouTube,youtube
30282,UiPath Video Tutorials made by Cristian Negulescu,UCiSb0WLTgB23jT0E6NEuu7Q,uipath-video-tutorials-made-by-cristian-negulescu,https://www.youtube.com/channel/UCiSb0WLTgB23jT0E6NEuu7Q,,Email Marketing Platform in multiple languages with help of ChatGPT and UiPath Robots,gNqp_TYtlmU,https://www.youtube.com/watch?v=gNqp_TYtlmU,https://i.ytimg.com/vi_webp/gNqp_TYtlmU/maxresdefault.webp,2023-02-21,00:09:51,2023-8,"Artificial Intelligence,email automation,RPA,UiPath","ai,email-automation,rpa,uipath",video,video,YouTube,youtube
30279,Anders Jensen,UCPdtz4gd_iYebJFYq9N8pWA,anders-jensen,https://www.youtube.com/channel/UCPdtz4gd_iYebJFYq9N8pWA,,How to Implement OpenAI's ChatGPT in Power Automate Desktop,QLy9nJnYme0,https://www.youtube.com/watch?v=QLy9nJnYme0,https://i.ytimg.com/vi/QLy9nJnYme0/maxresdefault.jpg,2023-02-21,00:09:33,2023-8,"Artificial Intelligence,lowcode,Microsoft,MS Power Automate Desktop,RPA","ai,lowcode,microsoft,ms-power-automate-desktop,rpa",video,video,YouTube,youtube
30276,nisarg kadam,UCX7FdmCv9UOKdlyjfGydV3w,nisarg-kadam,https://www.youtube.com/channel/UCX7FdmCv9UOKdlyjfGydV3w,,How to use ChatGPT API for free? How to integrated ChatGPT with UiPath using ChatGPT API's?,ujreoiTgUD0,https://www.youtube.com/watch?v=ujreoiTgUD0,https://i.ytimg.com/vi_webp/ujreoiTgUD0/maxresdefault.webp,2023-02-20,00:35:39,2023-8,"Artificial Intelligence,RPA,UiPath,UiPath Apps","ai,rpa,uipath,uipath-apps",video,video,YouTube,youtube
30284,Botaverse,UC9X6RP2sAa4NDeg0aznQAkA,botaverse,https://www.youtube.com/channel/UC9X6RP2sAa4NDeg0aznQAkA,,Connect MS Teams with GPT3 ( ChatGPT ) using Power Automate,MbxwX4nXEfg,https://www.youtube.com/watch?v=MbxwX4nXEfg,https://i.ytimg.com/vi/MbxwX4nXEfg/sddefault.jpg,2023-02-20,00:11:29,2023-8,"Artificial Intelligence,lowcode,Microsoft,MS Power Automate,MS Power Platform,RPA","ai,lowcode,microsoft,ms-power-automate,mspp,rpa",video,video,YouTube,youtube
30272,Anders Jensen,UCPdtz4gd_iYebJFYq9N8pWA,anders-jensen,https://www.youtube.com/channel/UCPdtz4gd_iYebJFYq9N8pWA,,Power Automate and ChatGPT: How to Create a Custom Connector,UbwPV_zG4dE,https://www.youtube.com/watch?v=UbwPV_zG4dE,https://i.ytimg.com/vi_webp/UbwPV_zG4dE/maxresdefault.webp,2023-02-20,00:16:16,2023-8,"Artificial Intelligence,lowcode,Microsoft,MS Power Automate,RPA","ai,lowcode,microsoft,ms-power-automate,rpa",video,video,YouTube,youtube
30250,UiPath Video Tutorials made by Cristian Negulescu,UCiSb0WLTgB23jT0E6NEuu7Q,uipath-video-tutorials-made-by-cristian-negulescu,https://www.youtube.com/channel/UCiSb0WLTgB23jT0E6NEuu7Q,,UiPath and ChatGPT extract Tables from PDF (use case) (PDF table) (ChatGPT prompts),7N5RaBedmjo,https://www.youtube.com/watch?v=7N5RaBedmjo,https://i.ytimg.com/vi/7N5RaBedmjo/maxresdefault.jpg,2023-02-16,00:47:04,2023-7,"Artificial Intelligence,PDF,RPA,UiPath","ai,pdf,rpa,uipath",video,video,YouTube,youtube
30251,Tutorials by Mukesh Kala,UCtZTZt9fI91Xp-PVTPBESQQ,tutorials-by-mukesh-kala,https://www.youtube.com/channel/UCtZTZt9fI91Xp-PVTPBESQQ,,𝐔𝐢𝐏𝐚𝐭𝐡 𝐀𝐈 𝐒𝐮𝐦𝐦𝐢𝐭 𝟐𝟎𝟐𝟑,rXVEwnwXBNU,https://www.youtube.com/watch?v=rXVEwnwXBNU,https://i.ytimg.com/vi/rXVEwnwXBNU/sd2.jpg,2023-02-16,00:00:31,2023-7,"Artificial Intelligence,RPA,UiPath","ai,rpa,uipath",video,video,YouTube,youtube
30252,RPA Hub,UCnSVBOMNpmC-6SxHmogmu8w,rpa-hub,https://www.youtube.com/channel/UCnSVBOMNpmC-6SxHmogmu8w,,How to Build Sentiment Analysis using Power Automate | Power Automate Tutorial,10fC9vL8mLo,https://www.youtube.com/watch?v=10fC9vL8mLo,https://i.ytimg.com/vi_webp/10fC9vL8mLo/maxresdefault.webp,2023-02-16,00:04:11,2023-7,"Artificial Intelligence,lowcode,Microsoft,Power Apps,RPA","ai,lowcode,microsoft,ms-power-apps,rpa",video,video,YouTube,youtube
30236,UiPath Video Tutorials made by Cristian Negulescu,UCiSb0WLTgB23jT0E6NEuu7Q,uipath-video-tutorials-made-by-cristian-negulescu,https://www.youtube.com/channel/UCiSb0WLTgB23jT0E6NEuu7Q,,Chatgpt answer to emails with UiPath Robots Technical details,pMY6u3bnhHM,https://www.youtube.com/watch?v=pMY6u3bnhHM,https://i.ytimg.com/vi_webp/pMY6u3bnhHM/maxresdefault.webp,2023-02-14,00:23:36,2023-7,"Artificial Intelligence,RPA,UiPath","ai,rpa,uipath",video,video,YouTube,youtube
30226,RPAFeed,UC3f0L_fUSQe8vAQwJowJ6-g,rpafeed,https://www.youtube.com/channel/UC3f0L_fUSQe8vAQwJowJ6-g,,Integrating ChatGPT with UiPath | RPAFeed,ZT54KbQlj3g,https://www.youtube.com/watch?v=ZT54KbQlj3g,https://i.ytimg.com/vi_webp/ZT54KbQlj3g/maxresdefault.webp,2023-02-13,00:06:04,2023-7,"Artificial Intelligence,RPA,UiPath","ai,rpa,uipath",video,video,YouTube,youtube
30225,UiPath Video Tutorials made by Cristian Negulescu,UCiSb0WLTgB23jT0E6NEuu7Q,uipath-video-tutorials-made-by-cristian-negulescu,https://www.youtube.com/channel/UCiSb0WLTgB23jT0E6NEuu7Q,,Chatgpt answer to emails with Uipath robots,kDIUSCBtm58,https://www.youtube.com/watch?v=kDIUSCBtm58,https://i.ytimg.com/vi_webp/kDIUSCBtm58/maxresdefault.webp,2023-02-12,00:12:31,2023-6,"Airtable,email automation,RPA,UiPath","airtable,email-automation,rpa,uipath",video,video,YouTube,youtube
30224,Anders Jensen,UCPdtz4gd_iYebJFYq9N8pWA,anders-jensen,https://www.youtube.com/channel/UCPdtz4gd_iYebJFYq9N8pWA,,The Power of ChatGPT in Power Automate Desktop Development,faCjxIc-vqQ,https://www.youtube.com/watch?v=faCjxIc-vqQ,https://i.ytimg.com/vi_webp/faCjxIc-vqQ/maxresdefault.webp,2023-02-12,00:26:12,2023-6,"Artificial Intelligence,lowcode,Microsoft,MS Power Automate Desktop,RPA","ai,lowcode,microsoft,ms-power-automate-desktop,rpa",video,video,YouTube,youtube
30220,RPAFeed,UC3f0L_fUSQe8vAQwJowJ6-g,rpafeed,https://www.youtube.com/channel/UC3f0L_fUSQe8vAQwJowJ6-g,,ChatGPT and UiPath Integration 💬 🤖 #RPAShorts,jixnfU65ofw,https://www.youtube.com/watch?v=jixnfU65ofw,https://i.ytimg.com/vi/jixnfU65ofw/sd2.jpg,2023-02-11,00:00:17,2023-6,"Artificial Intelligence,RPA,UiPath","ai,rpa,uipath",video,video,YouTube,youtube
30205,botsDNA,UCeUnm1Edt7W7CH_E3Nj3eOg,botsdna,https://www.youtube.com/channel/UCeUnm1Edt7W7CH_E3Nj3eOg,,Say Goodbye to Tedious Email Writing with ChatGPT and UiPath,_by9kEye1CU,https://www.youtube.com/watch?v=_by9kEye1CU,https://i.ytimg.com/vi_webp/_by9kEye1CU/sddefault.webp,2023-02-09,00:04:45,2023-6,"Artificial Intelligence,RPA,UiPath","ai,rpa,uipath",video,video,YouTube,youtube
30211,AutoBot by Rahul,UCdrTm1crX3NRkv_KWgmytcA,autobot-by-rahul,https://www.youtube.com/channel/UCdrTm1crX3NRkv_KWgmytcA,,ChatGPT integration with UiPath & Postman | Google search Vs ChatGPT,oe8T5ZSEVEU,https://www.youtube.com/watch?v=oe8T5ZSEVEU,https://i.ytimg.com/vi/oe8T5ZSEVEU/maxresdefault.jpg,2023-02-09,00:30:12,2023-6,"Artificial Intelligence,RPA,UiPath","ai,rpa,uipath",video,video,YouTube,youtube
30202,Tom's Tech Academy,UCstCuI_7DvHw7-KSA3Yy9PQ,tom-s-tech-academy,https://www.youtube.com/channel/UCstCuI_7DvHw7-KSA3Yy9PQ,,UiPath AI Center | Make your UiPath RPA Bots Smarter with AI,YXY4e59pYCg,https://www.youtube.com/watch?v=YXY4e59pYCg,https://i.ytimg.com/vi/YXY4e59pYCg/maxresdefault.jpg,2023-02-08,00:19:22,2023-6,"Artificial Intelligence,RPA,UiPath,UiPath AI Center","ai,rpa,uipath,uipath-ai-center",video,video,YouTube,youtube
30192,botsDNA,UCeUnm1Edt7W7CH_E3Nj3eOg,botsdna,https://www.youtube.com/channel/UCeUnm1Edt7W7CH_E3Nj3eOg,,ChatGPT writing YouTube comments #botsdna #technology #ai,wpkVaM6CpUg,https://www.youtube.com/watch?v=wpkVaM6CpUg,https://i.ytimg.com/vi/wpkVaM6CpUg/sd2.jpg,2023-02-07,00:00:15,2023-6,"Artificial Intelligence,RPA,UiPath","ai,rpa,uipath",video,video,YouTube,youtube
30193,botsDNA,UCeUnm1Edt7W7CH_E3Nj3eOg,botsdna,https://www.youtube.com/channel/UCeUnm1Edt7W7CH_E3Nj3eOg,,Effortlessly Build Regex Expressions in UiPath with ChatGPT's Expert Help,H0NKAsLyff0,https://www.youtube.com/watch?v=H0NKAsLyff0,https://i.ytimg.com/vi_webp/H0NKAsLyff0/sddefault.webp,2023-02-07,00:01:03,2023-6,"Artificial Intelligence,regex,RPA,UiPath","ai,regex,rpa,uipath",video,video,YouTube,youtube
30178,nisarg kadam,UCX7FdmCv9UOKdlyjfGydV3w,nisarg-kadam,https://www.youtube.com/channel/UCX7FdmCv9UOKdlyjfGydV3w,,Six Life saving tricks for UiPath RPA developers using ChatGPT | ChatGPT helps UiPath RPA Developers,6rg6o69AKsI,https://www.youtube.com/watch?v=6rg6o69AKsI,https://i.ytimg.com/vi_webp/6rg6o69AKsI/maxresdefault.webp,2023-02-06,00:12:04,2023-6,"Artificial Intelligence,RPA,UiPath","ai,rpa,uipath",video,video,YouTube,youtube
30188,nisarg kadam,UCX7FdmCv9UOKdlyjfGydV3w,nisarg-kadam,https://www.youtube.com/channel/UCX7FdmCv9UOKdlyjfGydV3w,,Why software engineers are scared of ChatGPT? #chatgpt #openai,xJhXntKTBXs,https://www.youtube.com/watch?v=xJhXntKTBXs,https://i.ytimg.com/vi/xJhXntKTBXs/sd2.jpg,2023-02-06,00:00:28,2023-6,"Artificial Intelligence,RPA","ai,rpa",video,video,YouTube,youtube
30184,botsDNA,UCeUnm1Edt7W7CH_E3Nj3eOg,botsdna,https://www.youtube.com/channel/UCeUnm1Edt7W7CH_E3Nj3eOg,,Automating Gender Updates with ChatGPT and UiPath,FIcNnLVpX0s,https://www.youtube.com/watch?v=FIcNnLVpX0s,https://i.ytimg.com/vi_webp/FIcNnLVpX0s/sddefault.webp,2023-02-06,00:00:31,2023-6,"Artificial Intelligence,RPA,UiPath","ai,rpa,uipath",video,video,YouTube,youtube
30167,UiPath Video Tutorials made by Cristian Negulescu,UCiSb0WLTgB23jT0E6NEuu7Q,uipath-video-tutorials-made-by-cristian-negulescu,https://www.youtube.com/channel/UCiSb0WLTgB23jT0E6NEuu7Q,,Explain very fast how to use ChatGPT inside of UiPath Robots (5-minute video),fIjV9G7hR2M,https://www.youtube.com/watch?v=fIjV9G7hR2M,https://i.ytimg.com/vi_webp/fIjV9G7hR2M/maxresdefault.webp,2023-02-03,00:05:20,2023-5,"Artificial Intelligence,RPA,UiPath","ai,rpa,uipath",video,video,YouTube,youtube
30172,Reboot the work - Uipath,UCb_s0ySmdX17oZpcIpQrrzw,reboot-the-work-uipath,https://www.youtube.com/channel/UCb_s0ySmdX17oZpcIpQrrzw,,Uipath Tutorial | Production Support (Ramp Up) Activities,iBb6r_bmXKE,https://www.youtube.com/watch?v=iBb6r_bmXKE,https://i.ytimg.com/vi/iBb6r_bmXKE/maxresdefault.jpg,2023-02-03,00:16:19,2023-5,"logging,Maintainability,RPA,UiPath","logging,maintainability,rpa,uipath",video,video,YouTube,youtube
30171,botsDNA,UCeUnm1Edt7W7CH_E3Nj3eOg,botsdna,https://www.youtube.com/channel/UCeUnm1Edt7W7CH_E3Nj3eOg,,Maximize Your YouTube Engagement with ChatGPT: Write Perfect Comments in UiPath,1SNlqtvLG2Y,https://www.youtube.com/watch?v=1SNlqtvLG2Y,https://i.ytimg.com/vi_webp/1SNlqtvLG2Y/sddefault.webp,2023-02-03,00:06:47,2023-5,"Artificial Intelligence,RPA,UiPath","ai,rpa,uipath",video,video,YouTube,youtube
30151,RPAFeed,UC3f0L_fUSQe8vAQwJowJ6-g,rpafeed,https://www.youtube.com/channel/UC3f0L_fUSQe8vAQwJowJ6-g,,Integrating ChatGPT with A360 | Open API + A360,BeKIwLGpWwc,https://www.youtube.com/watch?v=BeKIwLGpWwc,https://i.ytimg.com/vi_webp/BeKIwLGpWwc/maxresdefault.webp,2023-01-31,00:10:55,2023-5,"Artificial Intelligence,Automation Anywhere,RPA","ai,automation-anywhere,rpa",video,video,YouTube,youtube
30156,botsDNA,UCeUnm1Edt7W7CH_E3Nj3eOg,botsdna,https://www.youtube.com/channel/UCeUnm1Edt7W7CH_E3Nj3eOg,,"Revolutionize Your Work Process with Google, ChatGPT, UiPath and Instant HTML Web",LxIKtaYUG4s,https://www.youtube.com/watch?v=LxIKtaYUG4s,https://i.ytimg.com/vi/LxIKtaYUG4s/hqdefault.jpg,2023-01-31,00:12:24,2023-5,"Artificial Intelligence,RPA,UiPath","ai,rpa,uipath",video,video,YouTube,youtube
30150,Automation Rocketship,UCd10w9kdYvSVyxTVAo6vjMw,automation-rocketship,https://www.youtube.com/channel/UCd10w9kdYvSVyxTVAo6vjMw,,UiPath AI Center - Introduction #shorts #enterpriseRPA,VHhJWLj50dg,https://www.youtube.com/watch?v=VHhJWLj50dg,https://i.ytimg.com/vi/VHhJWLj50dg/sd2.jpg,2023-01-31,00:00:37,2023-5,"RPA,UiPath,UiPath AI Center","rpa,uipath,uipath-ai-center",video,video,YouTube,youtube
30139,UiPath Video Tutorials made by Cristian Negulescu,UCiSb0WLTgB23jT0E6NEuu7Q,uipath-video-tutorials-made-by-cristian-negulescu,https://www.youtube.com/channel/UCiSb0WLTgB23jT0E6NEuu7Q,,4 Use-case of UiPath Robots use ChatGPT to analyze data and make decisions (chatGPT prompts),Z9Q5DE1Ukv8,https://www.youtube.com/watch?v=Z9Q5DE1Ukv8,https://i.ytimg.com/vi_webp/Z9Q5DE1Ukv8/maxresdefault.webp,2023-01-30,00:27:27,2023-5,"Artificial Intelligence,RPA,UiPath,Use Case","ai,rpa,uipath,usecase",video,video,YouTube,youtube
30143,Automate with Rakesh,UCqxVW50cODphM0YHvA34NjQ,automate-with-rakesh,https://www.youtube.com/channel/UCqxVW50cODphM0YHvA34NjQ,,Multiline Reponse From ChatGPT Intergrated in UiPath,o2E76C9KqVc,https://www.youtube.com/watch?v=o2E76C9KqVc,https://i.ytimg.com/vi/o2E76C9KqVc/maxresdefault.jpg,2023-01-30,00:02:20,2023-5,"Artificial Intelligence,RPA,UiPath","ai,rpa,uipath",video,video,YouTube,youtube
30135,Automate with Rakesh,UCqxVW50cODphM0YHvA34NjQ,automate-with-rakesh,https://www.youtube.com/channel/UCqxVW50cODphM0YHvA34NjQ,,#shorts Multiline Response from ChatGPT in UiPath,3WznLfnLZY8,https://www.youtube.com/watch?v=3WznLfnLZY8,https://i.ytimg.com/vi/3WznLfnLZY8/sd2.jpg,2023-01-29,00:00:26,2023-4,"Artificial Intelligence,RPA,UiPath","ai,rpa,uipath",video,video,YouTube,youtube
30133,RPA Hub,UCnSVBOMNpmC-6SxHmogmu8w,rpa-hub,https://www.youtube.com/channel/UCnSVBOMNpmC-6SxHmogmu8w,,Power Automate Integration with Open AI | Integrate ChatGPT into Power Automate,XKiK8VkdEAc,https://www.youtube.com/watch?v=XKiK8VkdEAc,https://i.ytimg.com/vi_webp/XKiK8VkdEAc/maxresdefault.webp,2023-01-28,00:11:40,2023-4,"Artificial Intelligence,lowcode,Microsoft,MS Power Automate Desktop,RPA","ai,lowcode,microsoft,ms-power-automate-desktop,rpa",video,video,YouTube,youtube
30122,UiPath Video Tutorials made by Cristian Negulescu,UCiSb0WLTgB23jT0E6NEuu7Q,uipath-video-tutorials-made-by-cristian-negulescu,https://www.youtube.com/channel/UCiSb0WLTgB23jT0E6NEuu7Q,,Use ChatGPT via API inside of UiPath Robots (extract specific data from answer),2yvswXwvk2U,https://www.youtube.com/watch?v=2yvswXwvk2U,https://i.ytimg.com/vi_webp/2yvswXwvk2U/maxresdefault.webp,2023-01-26,00:24:24,2023-4,"APIs,Artificial Intelligence,RPA,UiPath","apis,ai,rpa,uipath",video,video,YouTube,youtube
30124,Tutorials by Mukesh Kala,UCtZTZt9fI91Xp-PVTPBESQQ,tutorials-by-mukesh-kala,https://www.youtube.com/channel/UCtZTZt9fI91Xp-PVTPBESQQ,,🔴 30.   [Hindi] : Send Email with Attachments from UiPath | Send SMTP Mail Message | RPA | हिन्दी,VYXhi0yO6Xw,https://www.youtube.com/watch?v=VYXhi0yO6Xw,https://i.ytimg.com/vi_webp/VYXhi0yO6Xw/maxresdefault.webp,2023-01-26,00:26:29,2023-4,"email automation,RPA,UiPath","email-automation,rpa,uipath",video,video,YouTube,youtube
30116,Automate with Rakesh,UCqxVW50cODphM0YHvA34NjQ,automate-with-rakesh,https://www.youtube.com/channel/UCqxVW50cODphM0YHvA34NjQ,,#shorts ChatGPT & UiPath Integration WoW Answers!,3-363mv89dw,https://www.youtube.com/watch?v=3-363mv89dw,https://i.ytimg.com/vi/3-363mv89dw/sd2.jpg,2023-01-25,00:00:49,2023-4,"Artificial Intelligence,RPA,UiPath","ai,rpa,uipath",video,video,YouTube,youtube
30106,Tutorials by Mukesh Kala,UCtZTZt9fI91Xp-PVTPBESQQ,tutorials-by-mukesh-kala,https://www.youtube.com/channel/UCtZTZt9fI91Xp-PVTPBESQQ,,UiPath Integration with Open AI  | RPA with Open AI |  Use Case  Building | ChatGPT  | RPA API 2023-01-23 12:04,HIePjxzTuEk,https://www.youtube.com/watch?v=HIePjxzTuEk,https://i.ytimg.com/vi_webp/HIePjxzTuEk/maxresdefault.webp,2023-01-23,00:58:26,2023-4,"Artificial Intelligence,RPA,UiPath","ai,rpa,uipath",video,video,YouTube,youtube
30101,Act Automate (Mahmoud TV),UCgmw5KA88D6jS8lPBzEXFgA,act-automate-mahmoud-tv,https://www.youtube.com/channel/UCgmw5KA88D6jS8lPBzEXFgA,,Integrate ChatGPT into Power Automate Desktop | Invoke Web Service | ChatGPT API in Power Automate,OvAVc3rhn4w,https://www.youtube.com/watch?v=OvAVc3rhn4w,https://i.ytimg.com/vi/OvAVc3rhn4w/maxresdefault.jpg,2023-01-23,00:11:04,2023-4,"Artificial Intelligence,lowcode,Microsoft,MS Power Automate Desktop,RPA","ai,lowcode,microsoft,ms-power-automate-desktop,rpa",video,video,YouTube,youtube
30097,Act Automate (Mahmoud TV),UCgmw5KA88D6jS8lPBzEXFgA,act-automate-mahmoud-tv,https://www.youtube.com/channel/UCgmw5KA88D6jS8lPBzEXFgA,,ChatGPT API in Power Automate Desktop - OpenAI,11YkpLW8dj4,https://www.youtube.com/watch?v=11YkpLW8dj4,https://i.ytimg.com/vi/11YkpLW8dj4/sd2.jpg,2023-01-22,00:01:00,2023-3,"Artificial Intelligence,lowcode,Microsoft,MS Power Automate Desktop,RPA","ai,lowcode,microsoft,ms-power-automate-desktop,rpa",video,video,YouTube,youtube
30082,Tutorials by Mukesh Kala,UCtZTZt9fI91Xp-PVTPBESQQ,tutorials-by-mukesh-kala,https://www.youtube.com/channel/UCtZTZt9fI91Xp-PVTPBESQQ,,🔴 29.   [Hindi] : Save Email Attachments from UiPath | Move IMAP Mail Message | RPA | हिन्दी,lkicKCNs17Y,https://www.youtube.com/watch?v=lkicKCNs17Y,https://i.ytimg.com/vi_webp/lkicKCNs17Y/maxresdefault.webp,2023-01-19,00:27:07,2023-3,"email automation,files,RPA,UiPath","email-automation,files,rpa,uipath",video,video,YouTube,youtube
30085,nisarg kadam,UCX7FdmCv9UOKdlyjfGydV3w,nisarg-kadam,https://www.youtube.com/channel/UCX7FdmCv9UOKdlyjfGydV3w,,What is UiPath AI Unit? How is AI Unit License Consumed? What products we can use with AI Unit?,wpPRc7ocDr8,https://www.youtube.com/watch?v=wpPRc7ocDr8,https://i.ytimg.com/vi/wpPRc7ocDr8/sd2.jpg,2023-01-19,00:00:58,2023-3,"RPA,UiPath,UiPath AI Center","rpa,uipath,uipath-ai-center",video,video,YouTube,youtube
30080,Harika Mudiam,UCDIBmgKBPBtNJrE0dQfnAYg,harika-mudiam,https://www.youtube.com/channel/UCDIBmgKBPBtNJrE0dQfnAYg,,Scenario based questions in Robocorp | Gmail Automation |  Part 3,YmiGwU8xZ7o,https://www.youtube.com/watch?v=YmiGwU8xZ7o,https://i.ytimg.com/vi_webp/YmiGwU8xZ7o/maxresdefault.webp,2023-01-19,00:18:10,2023-3,"email automation,Robocorp,RPA","email-automation,robocorp,rpa",video,video,YouTube,youtube
30063,Harika Mudiam,UCDIBmgKBPBtNJrE0dQfnAYg,harika-mudiam,https://www.youtube.com/channel/UCDIBmgKBPBtNJrE0dQfnAYg,,"Send Attachment, Multiple Attachemnts and Images in Mail   Robocorp   Part 2",9e3idJC8HLM,https://www.youtube.com/watch?v=9e3idJC8HLM,https://i.ytimg.com/vi_webp/9e3idJC8HLM/maxresdefault.webp,2023-01-17,00:09:57,2023-3,"email automation,Robocorp,RPA","email-automation,robocorp,rpa",video,video,YouTube,youtube
30048,Act Automate (Mahmoud TV),UCgmw5KA88D6jS8lPBzEXFgA,act-automate-mahmoud-tv,https://www.youtube.com/channel/UCgmw5KA88D6jS8lPBzEXFgA,,ChatGPT API in UiPath - OpenAI,gpQP4tIyXJo,https://www.youtube.com/watch?v=gpQP4tIyXJo,https://i.ytimg.com/vi/gpQP4tIyXJo/sd2.jpg,2023-01-14,00:01:00,2023-2,"Artificial Intelligence,RPA,UiPath","ai,rpa,uipath",video,video,YouTube,youtube
30043,Harika Mudiam,UCDIBmgKBPBtNJrE0dQfnAYg,harika-mudiam,https://www.youtube.com/channel/UCDIBmgKBPBtNJrE0dQfnAYg,,Send Mail using Robocorp  - Part 1,Ko13B_xkepY,https://www.youtube.com/watch?v=Ko13B_xkepY,https://i.ytimg.com/vi_webp/Ko13B_xkepY/maxresdefault.webp,2023-01-13,00:11:52,2023-2,"email automation,Robocorp,RPA","email-automation,robocorp,rpa",video,video,YouTube,youtube
30034,Tutorials by Mukesh Kala,UCtZTZt9fI91Xp-PVTPBESQQ,tutorials-by-mukesh-kala,https://www.youtube.com/channel/UCtZTZt9fI91Xp-PVTPBESQQ,,🔴 28.   [Hindi] : Configure and Read Emails from UiPath | Get IMAP Mail Message | RPA | हिन्दी,J1srQKx6ZRs,https://www.youtube.com/watch?v=J1srQKx6ZRs,https://i.ytimg.com/vi/J1srQKx6ZRs/maxresdefault.jpg,2023-01-12,00:34:44,2023-2,"email automation,RPA,UiPath","email-automation,rpa,uipath",video,video,YouTube,youtube
30022,Harika Mudiam,UCDIBmgKBPBtNJrE0dQfnAYg,harika-mudiam,https://www.youtube.com/channel/UCDIBmgKBPBtNJrE0dQfnAYg,,Send GMail using UiPath 'Send SMTP Mail Message',gQP7uZ8_0IA,https://www.youtube.com/watch?v=gQP7uZ8_0IA,https://i.ytimg.com/vi_webp/gQP7uZ8_0IA/maxresdefault.webp,2023-01-11,00:26:13,2023-2,"email automation,RPA,UiPath","email-automation,rpa,uipath",video,video,YouTube,youtube
30345,Automate with Rakesh,UCqxVW50cODphM0YHvA34NjQ,automate-with-rakesh,https://www.youtube.com/channel/UCqxVW50cODphM0YHvA34NjQ,,How To Use Chat GPT by Open AI For Beginners Guide,1GMjsmxX90Q,https://www.youtube.com/watch?v=1GMjsmxX90Q,https://i.ytimg.com/vi/1GMjsmxX90Q/maxresdefault.jpg,2023-01-08,00:02:12,2023-1,"Artificial Intelligence,RPA","ai,rpa",video,video,YouTube,youtube
30340,Harika Mudiam,UCDIBmgKBPBtNJrE0dQfnAYg,harika-mudiam,https://www.youtube.com/channel/UCDIBmgKBPBtNJrE0dQfnAYg,,Employee Onboarding Use Case - Part 1,lEgWcwosTVs,https://www.youtube.com/watch?v=lEgWcwosTVs,https://i.ytimg.com/vi_webp/lEgWcwosTVs/maxresdefault.webp,2023-01-07,00:17:15,2023-1,"email automation,RPA,UiPath,Use Case","email-automation,rpa,uipath,usecase",video,video,YouTube,youtube
29982,Reboot the work - Uipath,UCb_s0ySmdX17oZpcIpQrrzw,reboot-the-work-uipath,https://www.youtube.com/channel/UCb_s0ySmdX17oZpcIpQrrzw,,Uipath Tutorial | English Language Classifier - Initialization Setting up the AI Model,vN_qSA0Xr_4,https://www.youtube.com/watch?v=vN_qSA0Xr_4,https://i.ytimg.com/vi_webp/vN_qSA0Xr_4/maxresdefault.webp,2023-01-03,00:16:07,2023-1,"Artificial Intelligence,ML,RPA,UiPath","ai,ml,rpa,uipath",video,video,YouTube,youtube
29974,AutoBot by Rahul,UCdrTm1crX3NRkv_KWgmytcA,autobot-by-rahul,https://www.youtube.com/channel/UCdrTm1crX3NRkv_KWgmytcA,,UiPath -Insert Chart & Get Chart activity | How to generate charts & send via email?| Practical Demo,-IoKHvOwfV4,https://www.youtube.com/watch?v=-IoKHvOwfV4,https://i.ytimg.com/vi/-IoKHvOwfV4/maxresdefault.jpg,2023-01-03,00:10:05,2023-1,"email automation,Excel,RPA,UiPath","email-automation,excel,rpa,uipath",video,video,YouTube,youtube
29960,Reboot the work - Uipath,UCb_s0ySmdX17oZpcIpQrrzw,reboot-the-work-uipath,https://www.youtube.com/channel/UCb_s0ySmdX17oZpcIpQrrzw,,Uipath Tutorial | SentimentAnalysis (Initialization Setting up the AI Model),0rpmB6mrTdg,https://www.youtube.com/watch?v=0rpmB6mrTdg,https://i.ytimg.com/vi_webp/0rpmB6mrTdg/maxresdefault.webp,2022-12-31,00:06:57,2022-52,"Artificial Intelligence,RPA,UiPath","ai,rpa,uipath",video,video,YouTube,youtube
29945,Reboot the work - Uipath,UCb_s0ySmdX17oZpcIpQrrzw,reboot-the-work-uipath,https://www.youtube.com/channel/UCb_s0ySmdX17oZpcIpQrrzw,,Uipath Tutorial | Uipath AI Center,GnPs38m9rdA,https://www.youtube.com/watch?v=GnPs38m9rdA,https://i.ytimg.com/vi_webp/GnPs38m9rdA/maxresdefault.webp,2022-12-29,00:08:49,2022-52,"RPA,UiPath,UiPath AI Center","rpa,uipath,uipath-ai-center",video,video,YouTube,youtube
29933,Anders Jensen,UCPdtz4gd_iYebJFYq9N8pWA,anders-jensen,https://www.youtube.com/channel/UCPdtz4gd_iYebJFYq9N8pWA,,I Implemented AI Builder in UiPath - You Should too!!,lCdyhDa0ORE,https://www.youtube.com/watch?v=lCdyhDa0ORE,https://i.ytimg.com/vi_webp/lCdyhDa0ORE/maxresdefault.webp,2022-12-27,00:19:50,2022-52,"AI Builder,RPA,UiPath","ai-builder,rpa,uipath",video,video,YouTube,youtube
29770,UiPath Video Tutorials made by Cristian Negulescu,UCiSb0WLTgB23jT0E6NEuu7Q,uipath-video-tutorials-made-by-cristian-negulescu,https://www.youtube.com/channel/UCiSb0WLTgB23jT0E6NEuu7Q,,How ChatGPT OpenAI can help UiPath Developers to build workflows,cPQsX6dGCKI,https://www.youtube.com/watch?v=cPQsX6dGCKI,https://i.ytimg.com/vi/cPQsX6dGCKI/maxresdefault.jpg,2022-12-15,00:18:00,2022-50,"Artificial Intelligence,RPA,UiPath","ai,rpa,uipath",video,video,YouTube,youtube
29705,RPA Vanguard,UCrCNK5cllpBY-HqeyGd1VoQ,rpa-vanguard,https://www.youtube.com/channel/UCrCNK5cllpBY-HqeyGd1VoQ,,UiPath Tutorial - Testing the Integration Service Pipeline - Part 3D,vH3D-jyAzSA,https://www.youtube.com/watch?v=vH3D-jyAzSA,https://i.ytimg.com/vi_webp/vH3D-jyAzSA/maxresdefault.webp,2022-11-30,00:08:52,2022-48,"email automation,RPA,UiPath,UiPath Integration Service","email-automation,rpa,uipath,uipath-integration-service",video,video,YouTube,youtube
29657,Tutorials by Mukesh Kala,UCtZTZt9fI91Xp-PVTPBESQQ,tutorials-by-mukesh-kala,https://www.youtube.com/channel/UCtZTZt9fI91Xp-PVTPBESQQ,,UiPath | How to use Get IMAP Mail Messages |  Server Address & Settings | Download Email attachments,nGjEynJL-ts,https://www.youtube.com/watch?v=nGjEynJL-ts,https://i.ytimg.com/vi_webp/nGjEynJL-ts/maxresdefault.webp,2022-11-21,00:40:51,2022-47,"email automation,RPA,UiPath","email-automation,rpa,uipath",video,video,YouTube,youtube
29650,RPA Jargon Buster,UCY9qt6YwZOJwH-oWHzidGeQ,rpa-jargon-buster,https://www.youtube.com/channel/UCY9qt6YwZOJwH-oWHzidGeQ,,Leveraging AI in SME Marketing Function,lw-rf9qlzW8,https://www.youtube.com/watch?v=lw-rf9qlzW8,https://i.ytimg.com/vi/lw-rf9qlzW8/maxresdefault.jpg,2022-11-20,00:37:55,2022-46,"Artificial Intelligence,RPA","ai,rpa",video,video,YouTube,youtube
29649,Anders Jensen,UCPdtz4gd_iYebJFYq9N8pWA,anders-jensen,https://www.youtube.com/channel/UCPdtz4gd_iYebJFYq9N8pWA,,How to Get Started with Microsoft Power Automate Desktop,_7YkqephDxg,https://www.youtube.com/watch?v=_7YkqephDxg,https://i.ytimg.com/vi/_7YkqephDxg/maxresdefault.jpg,2022-11-20,02:19:10,2022-46,"browser,control flow,datatypes,email automation,lowcode,Microsoft,MS Power Automate Desktop,recording,RPA","browser,control-flow,datatypes,email-automation,lowcode,microsoft,ms-power-automate-desktop,recording,rpa",video,video,YouTube,youtube
29643,Tom's Tech Academy,UCstCuI_7DvHw7-KSA3Yy9PQ,tom-s-tech-academy,https://www.youtube.com/channel/UCstCuI_7DvHw7-KSA3Yy9PQ,,Tutorial | How to send email with Robocorp | RPA Framework,onZ85EmTHeg,https://www.youtube.com/watch?v=onZ85EmTHeg,https://i.ytimg.com/vi_webp/onZ85EmTHeg/maxresdefault.webp,2022-11-19,00:03:53,2022-46,"email automation,Robocorp,RPA","email-automation,robocorp,rpa",video,video,YouTube,youtube
29631,RPA Jargon Buster,UCY9qt6YwZOJwH-oWHzidGeQ,rpa-jargon-buster,https://www.youtube.com/channel/UCY9qt6YwZOJwH-oWHzidGeQ,,Short: Fine line between Personification and Data Privacy,eHAhzCtAl-Q,https://www.youtube.com/watch?v=eHAhzCtAl-Q,https://i.ytimg.com/vi/eHAhzCtAl-Q/maxresdefault.jpg,2022-11-17,00:03:40,2022-46,"Artificial Intelligence,data privacy,RPA","ai,data-privacy,rpa",video,video,YouTube,youtube
29622,RPA Jargon Buster,UCY9qt6YwZOJwH-oWHzidGeQ,rpa-jargon-buster,https://www.youtube.com/channel/UCY9qt6YwZOJwH-oWHzidGeQ,,Short: AI Ethics is often an afterthought,lEoEdc0Mc4s,https://www.youtube.com/watch?v=lEoEdc0Mc4s,https://i.ytimg.com/vi/lEoEdc0Mc4s/maxresdefault.jpg,2022-11-16,00:01:56,2022-46,"Artificial Intelligence,interview,RPA","ai,interview,rpa",video,video,YouTube,youtube
29618,Harika Mudiam,UCDIBmgKBPBtNJrE0dQfnAYg,harika-mudiam,https://www.youtube.com/channel/UCDIBmgKBPBtNJrE0dQfnAYg,,Google Settings to Automate Gmail   Mail Automation UiPath -  Part 2,JelHvor6bJ0,https://www.youtube.com/watch?v=JelHvor6bJ0,https://i.ytimg.com/vi_webp/JelHvor6bJ0/maxresdefault.webp,2022-11-16,00:17:11,2022-46,"email automation,RPA,UiPath","email-automation,rpa,uipath",video,video,YouTube,youtube
29617,RPA Vanguard,UCrCNK5cllpBY-HqeyGd1VoQ,rpa-vanguard,https://www.youtube.com/channel/UCrCNK5cllpBY-HqeyGd1VoQ,,UiPath Tutorial - Integration Service Router Automation - Part 3C 2022-11-16 05:04,uRaOhlr9_Pk,https://www.youtube.com/watch?v=uRaOhlr9_Pk,https://i.ytimg.com/vi_webp/uRaOhlr9_Pk/maxresdefault.webp,2022-11-15,00:22:44,2022-46,"email automation,RPA,UiPath,Use Case","email-automation,rpa,uipath,usecase",video,video,YouTube,youtube
29613,RPA Jargon Buster,UCY9qt6YwZOJwH-oWHzidGeQ,rpa-jargon-buster,https://www.youtube.com/channel/UCY9qt6YwZOJwH-oWHzidGeQ,,Short: AI is in a paranoia phase,GczagabOnnc,https://www.youtube.com/watch?v=GczagabOnnc,https://i.ytimg.com/vi/GczagabOnnc/maxresdefault.jpg,2022-11-15,00:02:44,2022-46,"Artificial Intelligence,RPA","ai,rpa",video,video,YouTube,youtube
29600,RPA Jargon Buster,UCY9qt6YwZOJwH-oWHzidGeQ,rpa-jargon-buster,https://www.youtube.com/channel/UCY9qt6YwZOJwH-oWHzidGeQ,,Short: Getting to know Katie King (What makes you tick?),AUnnJwWk4gE,https://www.youtube.com/watch?v=AUnnJwWk4gE,https://i.ytimg.com/vi/AUnnJwWk4gE/maxresdefault.jpg,2022-11-14,00:00:51,2022-46,"Airtable,interview,RPA","airtable,interview,rpa",video,video,YouTube,youtube
29603,Harika Mudiam,UCDIBmgKBPBtNJrE0dQfnAYg,harika-mudiam,https://www.youtube.com/channel/UCDIBmgKBPBtNJrE0dQfnAYg,,Automate Gmail Using IMAP in UiPath - Get IMAP Mail Message - UiPath Mail Automation - Part1,Q32FeMYpG5w,https://www.youtube.com/watch?v=Q32FeMYpG5w,https://i.ytimg.com/vi_webp/Q32FeMYpG5w/sddefault.webp,2022-11-14,00:09:09,2022-46,"email automation,RPA,UiPath","email-automation,rpa,uipath",video,video,YouTube,youtube
29537,nisarg kadam,UCX7FdmCv9UOKdlyjfGydV3w,nisarg-kadam,https://www.youtube.com/channel/UCX7FdmCv9UOKdlyjfGydV3w,,Face Detection using Python Open CV and UiPath AI Center | Which one is better?,7cPKz_nfeD4,https://www.youtube.com/watch?v=7cPKz_nfeD4,https://i.ytimg.com/vi_webp/7cPKz_nfeD4/maxresdefault.webp,2022-11-09,00:20:47,2022-45,"Python,RPA,UiPath,UiPath AI Center","python,rpa,uipath,uipath-ai-center",video,video,YouTube,youtube
29525,Automate with Piyush,UCNNQUk0imKD6c9YMoumzhEg,automate-with-piyush,https://www.youtube.com/channel/UCNNQUk0imKD6c9YMoumzhEg,,L27 - PDF Automation,bQx4Q01NEqk,https://www.youtube.com/watch?v=bQx4Q01NEqk,https://i.ytimg.com/vi/bQx4Q01NEqk/maxresdefault.jpg,2022-11-07,01:00:42,2022-45,"Agarwal2022TrainingHindi,RPA,UiPath","agarwal-2022-training-hindi,rpa,uipath",video,video,YouTube,youtube
29523,Automate with Piyush,UCNNQUk0imKD6c9YMoumzhEg,automate-with-piyush,https://www.youtube.com/channel/UCNNQUk0imKD6c9YMoumzhEg,,L26 -  Email & Word Automation,dmmNZrNFgJ8,https://www.youtube.com/watch?v=dmmNZrNFgJ8,https://i.ytimg.com/vi/dmmNZrNFgJ8/maxresdefault.jpg,2022-11-07,00:59:06,2022-45,"Agarwal2022TrainingHindi,RPA,UiPath","agarwal-2022-training-hindi,rpa,uipath",video,video,YouTube,youtube
29526,Automate with Piyush,UCNNQUk0imKD6c9YMoumzhEg,automate-with-piyush,https://www.youtube.com/channel/UCNNQUk0imKD6c9YMoumzhEg,,L25 - Email Automation,myNmjDUOj1Y,https://www.youtube.com/watch?v=myNmjDUOj1Y,https://i.ytimg.com/vi/myNmjDUOj1Y/maxresdefault.jpg,2022-11-07,00:57:58,2022-45,"Agarwal2022TrainingHindi,RPA,UiPath","agarwal-2022-training-hindi,rpa,uipath",video,video,YouTube,youtube
29521,Automate with Piyush,UCNNQUk0imKD6c9YMoumzhEg,automate-with-piyush,https://www.youtube.com/channel/UCNNQUk0imKD6c9YMoumzhEg,,L24 - Dictionaries,llzA_bJbS-Q,https://www.youtube.com/watch?v=llzA_bJbS-Q,https://i.ytimg.com/vi/llzA_bJbS-Q/maxresdefault.jpg,2022-11-07,00:55:44,2022-45,"Agarwal2022TrainingHindi,RPA,UiPath","agarwal-2022-training-hindi,rpa,uipath",video,video,YouTube,youtube
29522,Automate with Piyush,UCNNQUk0imKD6c9YMoumzhEg,automate-with-piyush,https://www.youtube.com/channel/UCNNQUk0imKD6c9YMoumzhEg,,L23 - Lists & Collections,070_w3yZF3Q,https://www.youtube.com/watch?v=070_w3yZF3Q,https://i.ytimg.com/vi/070_w3yZF3Q/maxresdefault.jpg,2022-11-07,00:34:33,2022-45,"Agarwal2022TrainingHindi,RPA,UiPath","agarwal-2022-training-hindi,rpa,uipath",video,video,YouTube,youtube
29520,Automate with Piyush,UCNNQUk0imKD6c9YMoumzhEg,automate-with-piyush,https://www.youtube.com/channel/UCNNQUk0imKD6c9YMoumzhEg,,L22 - Data Manipulation,PGl-N1cdlR0,https://www.youtube.com/watch?v=PGl-N1cdlR0,https://i.ytimg.com/vi/PGl-N1cdlR0/maxresdefault.jpg,2022-11-07,00:52:07,2022-45,"Agarwal2022TrainingHindi,RPA,UiPath","agarwal-2022-training-hindi,rpa,uipath",video,video,YouTube,youtube
29524,Automate with Piyush,UCNNQUk0imKD6c9YMoumzhEg,automate-with-piyush,https://www.youtube.com/channel/UCNNQUk0imKD6c9YMoumzhEg,,L21 - Pattern Based Extraction,TgcnGZxhpHc,https://www.youtube.com/watch?v=TgcnGZxhpHc,https://i.ytimg.com/vi/TgcnGZxhpHc/sddefault.jpg?sqp=-oaymwEmCIAFEOAD8quKqQMa8AEB-AH-CYAC0AWKAgwIABABGGUgXyhYMA8=&rs=AOn4CLC01Kpj2WoeH4hEpJjy82-S8URIZA,2022-11-07,00:51:35,2022-45,"Agarwal2022TrainingHindi,RPA,UiPath","agarwal-2022-training-hindi,rpa,uipath",video,video,YouTube,youtube
29501,Automate with Piyush,UCNNQUk0imKD6c9YMoumzhEg,automate-with-piyush,https://www.youtube.com/channel/UCNNQUk0imKD6c9YMoumzhEg,,L20 - RPA Challenge 1,5AdEYAGHcbY,https://www.youtube.com/watch?v=5AdEYAGHcbY,https://i.ytimg.com/vi/5AdEYAGHcbY/maxresdefault.jpg,2022-11-06,00:35:20,2022-44,"Agarwal2022TrainingHindi,RPA,UiPath","agarwal-2022-training-hindi,rpa,uipath",video,video,YouTube,youtube
29506,Automate with Piyush,UCNNQUk0imKD6c9YMoumzhEg,automate-with-piyush,https://www.youtube.com/channel/UCNNQUk0imKD6c9YMoumzhEg,,L19 - UI Automation: Modern Design,OuUJhxFN3Kw,https://www.youtube.com/watch?v=OuUJhxFN3Kw,https://i.ytimg.com/vi/OuUJhxFN3Kw/maxresdefault.jpg,2022-11-06,00:57:09,2022-44,"Agarwal2022TrainingHindi,RPA,UiPath","agarwal-2022-training-hindi,rpa,uipath",video,video,YouTube,youtube
29508,Automate with Piyush,UCNNQUk0imKD6c9YMoumzhEg,automate-with-piyush,https://www.youtube.com/channel/UCNNQUk0imKD6c9YMoumzhEg,,L18 - Revision,tFgQhe8FBZU,https://www.youtube.com/watch?v=tFgQhe8FBZU,https://i.ytimg.com/vi/tFgQhe8FBZU/maxresdefault.jpg,2022-11-06,00:57:03,2022-44,"Agarwal2022TrainingHindi,RPA,UiPath","agarwal-2022-training-hindi,rpa,uipath",video,video,YouTube,youtube
29507,Automate with Piyush,UCNNQUk0imKD6c9YMoumzhEg,automate-with-piyush,https://www.youtube.com/channel/UCNNQUk0imKD6c9YMoumzhEg,,L17 - UI Automation : Selectors,f3WD5QBr2ug,https://www.youtube.com/watch?v=f3WD5QBr2ug,https://i.ytimg.com/vi/f3WD5QBr2ug/sddefault.jpg?sqp=-oaymwEmCIAFEOAD8quKqQMa8AEB-AH-CYAC0AWKAgwIABABGGUgZShlMA8=&rs=AOn4CLDBz2ZbcZTQdbtb8B0ZYHHpYUj5bw,2022-11-06,01:02:44,2022-44,"Agarwal2022TrainingHindi,RPA,UiPath","agarwal-2022-training-hindi,rpa,uipath",video,video,YouTube,youtube
29500,Automate with Piyush,UCNNQUk0imKD6c9YMoumzhEg,automate-with-piyush,https://www.youtube.com/channel/UCNNQUk0imKD6c9YMoumzhEg,,L16 - UI Automation: Recorders,JqhLD65d8lI,https://www.youtube.com/watch?v=JqhLD65d8lI,https://i.ytimg.com/vi/JqhLD65d8lI/maxresdefault.jpg,2022-11-06,00:45:57,2022-44,"Agarwal2022TrainingHindi,RPA,UiPath","agarwal-2022-training-hindi,rpa,uipath",video,video,YouTube,youtube
29499,Automate with Piyush,UCNNQUk0imKD6c9YMoumzhEg,automate-with-piyush,https://www.youtube.com/channel/UCNNQUk0imKD6c9YMoumzhEg,,L15 - UI Automation: Part 3,T0ANnNIz9iM,https://www.youtube.com/watch?v=T0ANnNIz9iM,https://i.ytimg.com/vi/T0ANnNIz9iM/maxresdefault.jpg,2022-11-06,00:59:22,2022-44,"Agarwal2022TrainingHindi,RPA,UiPath","agarwal-2022-training-hindi,rpa,uipath",video,video,YouTube,youtube
29504,Automate with Piyush,UCNNQUk0imKD6c9YMoumzhEg,automate-with-piyush,https://www.youtube.com/channel/UCNNQUk0imKD6c9YMoumzhEg,,L14 - UI Automation :Part 2,va1kJ0L4ma8,https://www.youtube.com/watch?v=va1kJ0L4ma8,https://i.ytimg.com/vi/va1kJ0L4ma8/maxresdefault.jpg,2022-11-06,00:42:14,2022-44,"Agarwal2022TrainingHindi,RPA,UiPath","agarwal-2022-training-hindi,rpa,uipath",video,video,YouTube,youtube
29502,Automate with Piyush,UCNNQUk0imKD6c9YMoumzhEg,automate-with-piyush,https://www.youtube.com/channel/UCNNQUk0imKD6c9YMoumzhEg,,L13 - User Interface Automation,_CV9DmRfHho,https://www.youtube.com/watch?v=_CV9DmRfHho,https://i.ytimg.com/vi/_CV9DmRfHho/sddefault.jpg?sqp=-oaymwEmCIAFEOAD8quKqQMa8AEB-AH-CYAC0AWKAgwIABABGCsgSSh_MA8=&rs=AOn4CLDz3zkGR_ILKsBIRSd951bKkQQUvA,2022-11-06,00:54:52,2022-44,"Agarwal2022TrainingHindi,RPA,UiPath","agarwal-2022-training-hindi,rpa,uipath",video,video,YouTube,youtube
29505,Automate with Piyush,UCNNQUk0imKD6c9YMoumzhEg,automate-with-piyush,https://www.youtube.com/channel/UCNNQUk0imKD6c9YMoumzhEg,,L12  - Practice Bot Development (Excel Modern),rK7_mFPiCKQ,https://www.youtube.com/watch?v=rK7_mFPiCKQ,https://i.ytimg.com/vi/rK7_mFPiCKQ/maxresdefault.jpg,2022-11-06,00:32:11,2022-44,"Agarwal2022TrainingHindi,RPA,UiPath","agarwal-2022-training-hindi,rpa,uipath",video,video,YouTube,youtube
29503,Automate with Piyush,UCNNQUk0imKD6c9YMoumzhEg,automate-with-piyush,https://www.youtube.com/channel/UCNNQUk0imKD6c9YMoumzhEg,,L11 - Excel Automation (Modern Design),amUJPlKT5yA,https://www.youtube.com/watch?v=amUJPlKT5yA,https://i.ytimg.com/vi/amUJPlKT5yA/sddefault.jpg?sqp=-oaymwEmCIAFEOAD8quKqQMa8AEB-AH-CYAC0AWKAgwIABABGBkgTCh_MA8=&rs=AOn4CLDah_rBlOtKEtC2vzUZ3qR5kExnzA,2022-11-06,01:01:23,2022-44,"Agarwal2022TrainingHindi,RPA,UiPath","agarwal-2022-training-hindi,rpa,uipath",video,video,YouTube,youtube
29496,Anders Jensen,UCPdtz4gd_iYebJFYq9N8pWA,anders-jensen,https://www.youtube.com/channel/UCPdtz4gd_iYebJFYq9N8pWA,,Advanced Invoice Processing with AI Builder in Power Automate Desktop,UH8jQTz-PMk,https://www.youtube.com/watch?v=UH8jQTz-PMk,https://i.ytimg.com/vi/UH8jQTz-PMk/maxresdefault.jpg,2022-11-06,00:19:14,2022-44,"AI Builder,lowcode,Microsoft,MS Power Automate Desktop,RPA","ai-builder,lowcode,microsoft,ms-power-automate-desktop,rpa",video,video,YouTube,youtube
29519,Automate with Piyush,UCNNQUk0imKD6c9YMoumzhEg,automate-with-piyush,https://www.youtube.com/channel/UCNNQUk0imKD6c9YMoumzhEg,,L30 - Debugging,qkbHo9Jo374,https://www.youtube.com/watch?v=qkbHo9Jo374,https://i.ytimg.com/vi/qkbHo9Jo374/sddefault.jpg?sqp=-oaymwEmCIAFEOAD8quKqQMa8AEB-AH-CYAC0AWKAgwIABABGCwgSih_MA8=&rs=AOn4CLATeT6DkemHYir8OC6eVZ5uwSEvkw,2022-11-05,00:44:40,2022-44,"Agarwal2022TrainingHindi,RPA,UiPath","agarwal-2022-training-hindi,rpa,uipath",video,video,YouTube,youtube
29517,Automate with Piyush,UCNNQUk0imKD6c9YMoumzhEg,automate-with-piyush,https://www.youtube.com/channel/UCNNQUk0imKD6c9YMoumzhEg,,L29 - Exception Handling : Part 2,uU_CRg_cQ5s,https://www.youtube.com/watch?v=uU_CRg_cQ5s,https://i.ytimg.com/vi/uU_CRg_cQ5s/maxresdefault.jpg,2022-11-05,00:42:03,2022-44,"Agarwal2022TrainingHindi,RPA,UiPath","agarwal-2022-training-hindi,rpa,uipath",video,video,YouTube,youtube
29518,Automate with Piyush,UCNNQUk0imKD6c9YMoumzhEg,automate-with-piyush,https://www.youtube.com/channel/UCNNQUk0imKD6c9YMoumzhEg,,L28 - Exception Handling : Part 1,VefsMXt2Phs,https://www.youtube.com/watch?v=VefsMXt2Phs,https://i.ytimg.com/vi/VefsMXt2Phs/maxresdefault.jpg,2022-11-05,00:30:05,2022-44,"Agarwal2022TrainingHindi,RPA,UiPath","agarwal-2022-training-hindi,rpa,uipath",video,video,YouTube,youtube
29483,Automate with Piyush,UCNNQUk0imKD6c9YMoumzhEg,automate-with-piyush,https://www.youtube.com/channel/UCNNQUk0imKD6c9YMoumzhEg,,L10 - Practice Bot Development,_JLenp9eDRM,https://www.youtube.com/watch?v=_JLenp9eDRM,https://i.ytimg.com/vi/_JLenp9eDRM/maxresdefault.jpg,2022-11-05,00:50:30,2022-44,"Agarwal2022TrainingHindi,RPA,UiPath","agarwal-2022-training-hindi,rpa,uipath",video,video,YouTube,youtube
29490,Automate with Piyush,UCNNQUk0imKD6c9YMoumzhEg,automate-with-piyush,https://www.youtube.com/channel/UCNNQUk0imKD6c9YMoumzhEg,,L9 - Practice Bot Development,xZzV8ahKN4M,https://www.youtube.com/watch?v=xZzV8ahKN4M,https://i.ytimg.com/vi/xZzV8ahKN4M/sddefault.jpg?sqp=-oaymwEmCIAFEOAD8quKqQMa8AEB-AH-CYAC0AWKAgwIABABGCQgUih_MA8=&rs=AOn4CLA-w61mDiX05i9LCjHZg82EvTFnDQ,2022-11-05,00:47:16,2022-44,"Agarwal2022TrainingHindi,RPA,UiPath","agarwal-2022-training-hindi,rpa,uipath",video,video,YouTube,youtube
29486,Automate with Piyush,UCNNQUk0imKD6c9YMoumzhEg,automate-with-piyush,https://www.youtube.com/channel/UCNNQUk0imKD6c9YMoumzhEg,,L8 - Excel Automation Part: 2,8witb56PdLk,https://www.youtube.com/watch?v=8witb56PdLk,https://i.ytimg.com/vi/8witb56PdLk/maxresdefault.jpg,2022-11-05,00:48:30,2022-44,"Agarwal2022TrainingHindi,RPA,UiPath","agarwal-2022-training-hindi,rpa,uipath",video,video,YouTube,youtube
29493,Automate with Piyush,UCNNQUk0imKD6c9YMoumzhEg,automate-with-piyush,https://www.youtube.com/channel/UCNNQUk0imKD6c9YMoumzhEg,,L7 - Excel Automation,7vA1EsLcc-w,https://www.youtube.com/watch?v=7vA1EsLcc-w,https://i.ytimg.com/vi/7vA1EsLcc-w/sddefault.jpg?sqp=-oaymwEmCIAFEOAD8quKqQMa8AEB-AH-CYAC0AWKAgwIABABGBcgSyh_MA8=&rs=AOn4CLC1do_sG_SAB8jrPjvioIIm1M3qBw,2022-11-05,01:00:20,2022-44,"Agarwal2022TrainingHindi,RPA,UiPath","agarwal-2022-training-hindi,rpa,uipath",video,video,YouTube,youtube
29489,Automate with Piyush,UCNNQUk0imKD6c9YMoumzhEg,automate-with-piyush,https://www.youtube.com/channel/UCNNQUk0imKD6c9YMoumzhEg,,L6 - Walkthrough Data Tables: Part 2,NyGLHOT4zYE,https://www.youtube.com/watch?v=NyGLHOT4zYE,https://i.ytimg.com/vi/NyGLHOT4zYE/maxresdefault.jpg,2022-11-05,00:51:54,2022-44,"Agarwal2022TrainingHindi,RPA,UiPath","agarwal-2022-training-hindi,rpa,uipath",video,video,YouTube,youtube
29484,Automate with Piyush,UCNNQUk0imKD6c9YMoumzhEg,automate-with-piyush,https://www.youtube.com/channel/UCNNQUk0imKD6c9YMoumzhEg,,L5 - Walkthrough Data Tables,P_eB6DMV0pA,https://www.youtube.com/watch?v=P_eB6DMV0pA,https://i.ytimg.com/vi/P_eB6DMV0pA/maxresdefault.jpg,2022-11-05,00:51:35,2022-44,"Agarwal2022TrainingHindi,RPA,UiPath","agarwal-2022-training-hindi,rpa,uipath",video,video,YouTube,youtube
29488,Automate with Piyush,UCNNQUk0imKD6c9YMoumzhEg,automate-with-piyush,https://www.youtube.com/channel/UCNNQUk0imKD6c9YMoumzhEg,,L4 - Build your first bot,Y_sV1ZLkM90,https://www.youtube.com/watch?v=Y_sV1ZLkM90,https://i.ytimg.com/vi/Y_sV1ZLkM90/maxresdefault.jpg,2022-11-05,00:53:08,2022-44,"Agarwal2022TrainingHindi,RPA,UiPath","agarwal-2022-training-hindi,rpa,uipath",video,video,YouTube,youtube
29491,Automate with Piyush,UCNNQUk0imKD6c9YMoumzhEg,automate-with-piyush,https://www.youtube.com/channel/UCNNQUk0imKD6c9YMoumzhEg,,L3 - Conditionals and Loops,flnSvdZsK2c,https://www.youtube.com/watch?v=flnSvdZsK2c,https://i.ytimg.com/vi/flnSvdZsK2c/maxresdefault.jpg,2022-11-05,00:58:42,2022-44,"Agarwal2022TrainingHindi,RPA,UiPath","agarwal-2022-training-hindi,rpa,uipath",video,video,YouTube,youtube
29487,Automate with Piyush,UCNNQUk0imKD6c9YMoumzhEg,automate-with-piyush,https://www.youtube.com/channel/UCNNQUk0imKD6c9YMoumzhEg,,"L2 - Variables, Arguments and Operators",JIUtIg7SvJM,https://www.youtube.com/watch?v=JIUtIg7SvJM,https://i.ytimg.com/vi/JIUtIg7SvJM/maxresdefault.jpg,2022-11-05,01:00:07,2022-44,"Agarwal2022TrainingHindi,RPA,UiPath","agarwal-2022-training-hindi,rpa,uipath",video,video,YouTube,youtube
29485,Automate with Piyush,UCNNQUk0imKD6c9YMoumzhEg,automate-with-piyush,https://www.youtube.com/channel/UCNNQUk0imKD6c9YMoumzhEg,,L1 - Introduction to RPA,QU-EPIGoPFI,https://www.youtube.com/watch?v=QU-EPIGoPFI,https://i.ytimg.com/vi/QU-EPIGoPFI/maxresdefault.jpg,2022-11-05,01:37:57,2022-44,"Agarwal2022TrainingHindi,RPA,UiPath","agarwal-2022-training-hindi,rpa,uipath",video,video,YouTube,youtube
29466,Automate with Rakesh,UCqxVW50cODphM0YHvA34NjQ,automate-with-rakesh,https://www.youtube.com/channel/UCqxVW50cODphM0YHvA34NjQ,,UiPath Advance Certification | Test 60 Email Activities UiPath | UiARD Certification Preparation,3qFaQqraW3w,https://www.youtube.com/watch?v=3qFaQqraW3w,https://i.ytimg.com/vi/3qFaQqraW3w/maxresdefault.jpg,2022-11-02,00:06:07,2022-44,"email automation,RPA,UiPath","email-automation,rpa,uipath",video,video,YouTube,youtube
29465,RPA Vanguard,UCrCNK5cllpBY-HqeyGd1VoQ,rpa-vanguard,https://www.youtube.com/channel/UCrCNK5cllpBY-HqeyGd1VoQ,,UiPath Tutorial - Multi-Entry Advanced Banking Automation - Part 3B 2022-11-02 04:03,dZMQpfNHrLY,https://www.youtube.com/watch?v=dZMQpfNHrLY,https://i.ytimg.com/vi/dZMQpfNHrLY/maxresdefault.jpg,2022-11-01,00:19:08,2022-44,"email automation,RPA,UiPath,Use Case","email-automation,rpa,uipath,usecase",video,video,YouTube,youtube
29829,AUTOMATE WITH UIPATH,UCa7b3OJL6ghuCX3hCUghVTA,automate-with-uipath,https://www.youtube.com/channel/UCa7b3OJL6ghuCX3hCUghVTA,,Amazing Activies of Emails in UiPath PART 6,yGtOCS0x6vw,https://www.youtube.com/watch?v=yGtOCS0x6vw,https://i.ytimg.com/vi/yGtOCS0x6vw/sd2.jpg?sqp=-oaymwEoCIAFEOAD8quKqQMcGADwAQH4Ac4FgALQBYoCDAgAEAEYESBjKHIwDw==&rs=AOn4CLCkByf2TjnXouaNXlvQqQSuTyztmg,2022-11-01,00:00:22,2022-44,"email automation,MS Graph,RPA,UiPath","email-automation,ms-graph,rpa,uipath",video,video,YouTube,youtube
29448,AUTOMATE WITH UIPATH 🎆,UCa7b3OJL6ghuCX3hCUghVTA,automate-with-uipath,https://www.youtube.com/channel/UCa7b3OJL6ghuCX3hCUghVTA,,Amazing Activies of Emails in UiPath PART 5,BRFN7qYfMak,https://www.youtube.com/watch?v=BRFN7qYfMak,https://i.ytimg.com/vi/BRFN7qYfMak/sd2.jpg?sqp=-oaymwEoCIAFEOAD8quKqQMcGADwAQH4Ac4FgALQBYoCDAgAEAEYESBjKHIwDw==&rs=AOn4CLDFnGodCwxAmxFwVJdgoykAYFkmxw,2022-10-31,00:00:26,2022-44,"email automation,RPA,UiPath","email-automation,rpa,uipath",video,video,YouTube,youtube
29419,AUTOMATE WITH UIPATH 🎆,UCa7b3OJL6ghuCX3hCUghVTA,automate-with-uipath,https://www.youtube.com/channel/UCa7b3OJL6ghuCX3hCUghVTA,,Amazing Activies of Emails in UiPath PART 4,b1pwKklEaoo,https://www.youtube.com/watch?v=b1pwKklEaoo,https://i.ytimg.com/vi/b1pwKklEaoo/sd2.jpg?sqp=-oaymwEoCIAFEOAD8quKqQMcGADwAQH4Ac4FgALQBYoCDAgAEAEYESBjKHIwDw==&rs=AOn4CLB8b0g0VwxPJCuqLwBhSq25gRriHg,2022-10-30,00:00:26,2022-43,"email automation,RPA,UiPath","email-automation,rpa,uipath",video,video,YouTube,youtube
29568,Reboot the work - Uipath,UCb_s0ySmdX17oZpcIpQrrzw,reboot-the-work-uipath,https://www.youtube.com/channel/UCb_s0ySmdX17oZpcIpQrrzw,,Uipath Tutorial | Email Automation using UiPath (Part - II),h6viAlj7pjI,https://www.youtube.com/watch?v=h6viAlj7pjI,https://i.ytimg.com/vi/h6viAlj7pjI/maxresdefault.jpg,2022-10-29,00:11:05,2022-43,"email automation,RPA,UiPath","email-automation,rpa,uipath",video,video,YouTube,youtube
29416,AUTOMATE WITH UIPATH 🎆,UCa7b3OJL6ghuCX3hCUghVTA,automate-with-uipath,https://www.youtube.com/channel/UCa7b3OJL6ghuCX3hCUghVTA,,Amazing Activies of Emails in UiPath PART 3,h9nL0DlrJEM,https://www.youtube.com/watch?v=h9nL0DlrJEM,https://i.ytimg.com/vi/h9nL0DlrJEM/sd2.jpg?sqp=-oaymwEoCIAFEOAD8quKqQMcGADwAQH4Ac4FgALQBYoCDAgAEAEYESBjKHIwDw==&rs=AOn4CLBF3Wq4npX_rUdcnh-fPhSXfTxKjQ,2022-10-29,00:00:26,2022-43,"email automation,RPA,UiPath","email-automation,rpa,uipath",video,video,YouTube,youtube
29567,Reboot the work - Uipath,UCb_s0ySmdX17oZpcIpQrrzw,reboot-the-work-uipath,https://www.youtube.com/channel/UCb_s0ySmdX17oZpcIpQrrzw,,Uipath Tutorial | Email Automation using UiPath (Part - I),4Tu4-cwuKqY,https://www.youtube.com/watch?v=4Tu4-cwuKqY,https://i.ytimg.com/vi/4Tu4-cwuKqY/maxresdefault.jpg,2022-10-27,00:17:43,2022-43,"email automation,RPA,UiPath","email-automation,rpa,uipath",video,video,YouTube,youtube
29402,AUTOMATE WITH UIPATH 🎆,UCa7b3OJL6ghuCX3hCUghVTA,automate-with-uipath,https://www.youtube.com/channel/UCa7b3OJL6ghuCX3hCUghVTA,,Amazing Activies of Emails in UiPath PART 1,gNf6-J1wCoE,https://www.youtube.com/watch?v=gNf6-J1wCoE,https://i.ytimg.com/vi/gNf6-J1wCoE/sd2.jpg?sqp=-oaymwEoCIAFEOAD8quKqQMcGADwAQH4Ac4FgALQBYoCDAgAEAEYESBjKHIwDw==&rs=AOn4CLCaE-x7lmTgsDmzVZ2kkJYoAKYN2A,2022-10-27,00:00:26,2022-43,"email automation,RPA,UiPath","email-automation,rpa,uipath",video,video,YouTube,youtube
29398,AUTOMATE WITH UIPATH 🎆,UCa7b3OJL6ghuCX3hCUghVTA,automate-with-uipath,https://www.youtube.com/channel/UCa7b3OJL6ghuCX3hCUghVTA,,Amazing Activies of Emails in UiPath PART 2,VAjZrhiHgkY,https://www.youtube.com/watch?v=VAjZrhiHgkY,https://i.ytimg.com/vi/VAjZrhiHgkY/sd2.jpg?sqp=-oaymwEoCIAFEOAD8quKqQMcGADwAQH4Ac4FgALQBYoCDAgAEAEYESBjKHIwDw==&rs=AOn4CLDUgwo6dQESxdUT_Hx7EOcVdbm8Kg,2022-10-27,00:00:26,2022-43,"email automation,RPA,UiPath","email-automation,rpa,uipath",video,video,YouTube,youtube
29397,AUTOMATE WITH UIPATH 🎆,UCa7b3OJL6ghuCX3hCUghVTA,automate-with-uipath,https://www.youtube.com/channel/UCa7b3OJL6ghuCX3hCUghVTA,,Must Learn Key rules for Email Automations in UiPAth Part 2,gCAPqp-wBgw,https://www.youtube.com/watch?v=gCAPqp-wBgw,https://i.ytimg.com/vi/gCAPqp-wBgw/sd2.jpg?sqp=-oaymwEoCIAFEOAD8quKqQMcGADwAQH4Ac4FgALQBYoCDAgAEAEYESBjKHIwDw==&rs=AOn4CLDaOUe62YMirI5BkHrbWoMOSLKCwA,2022-10-26,00:00:26,2022-43,"email automation,RPA,UiPath","email-automation,rpa,uipath",video,video,YouTube,youtube
29381,AUTOMATE WITH UIPATH 🎆,UCa7b3OJL6ghuCX3hCUghVTA,automate-with-uipath,https://www.youtube.com/channel/UCa7b3OJL6ghuCX3hCUghVTA,,Must Learn Key rules for Email Automations in UiPAth Part 1,N_xQTiHqjUs,https://www.youtube.com/watch?v=N_xQTiHqjUs,https://i.ytimg.com/vi/N_xQTiHqjUs/sd2.jpg?sqp=-oaymwEoCIAFEOAD8quKqQMcGADwAQH4Ac4FgALQBYoCDAgAEAEYESBjKHIwDw==&rs=AOn4CLBdXVzzqnNz1On6OECRepBmZJrVrA,2022-10-25,00:00:26,2022-43,"email automation,RPA,UiPath","email-automation,rpa,uipath",video,video,YouTube,youtube
29351,Robot ICT,UC9G5RiiDSaku7kY-38SN1kg,robot-ict,https://www.youtube.com/channel/UC9G5RiiDSaku7kY-38SN1kg,,RPA Fridays #33 - UiPath: Edit Config.xlsx without Excel,aC3k0kixUvI,https://www.youtube.com/watch?v=aC3k0kixUvI,https://i.ytimg.com/vi_webp/aC3k0kixUvI/maxresdefault.webp,2022-10-21,00:14:48,2022-42,"Excel,Maintainability,RPA,UiPath","excel,maintainability,rpa,uipath",video,video,YouTube,youtube
29278,Automate with Piyush,UCNNQUk0imKD6c9YMoumzhEg,automate-with-piyush,https://www.youtube.com/channel/UCNNQUk0imKD6c9YMoumzhEg,,UiPath - Outlook App Passwords,sNkkRFiQ_Tc,https://www.youtube.com/watch?v=sNkkRFiQ_Tc,https://i.ytimg.com/vi/sNkkRFiQ_Tc/maxresdefault.jpg,2022-10-16,00:03:40,2022-41,"email automation,RPA,UiPath","email-automation,rpa,uipath",video,video,YouTube,youtube
29241,Marcelo Cruz,UCZiebEnHb2xPokSLdCasVNQ,marcelo-cruz,https://www.youtube.com/channel/UCZiebEnHb2xPokSLdCasVNQ,,Power Automate Desktop - Outlook Automation (Full Tutorial),T6R89iP0SOI,https://www.youtube.com/watch?v=T6R89iP0SOI,https://i.ytimg.com/vi_webp/T6R89iP0SOI/maxresdefault.webp,2022-10-11,00:15:43,2022-41,"email automation,lowcode,MS Power Automate Desktop,RPA","email-automation,lowcode,ms-power-automate-desktop,rpa",video,video,YouTube,youtube
29190,Anders Jensen,UCPdtz4gd_iYebJFYq9N8pWA,anders-jensen,https://www.youtube.com/channel/UCPdtz4gd_iYebJFYq9N8pWA,,Outlook Emails in Power Automate Desktop - Full Tutorial,x5l7Ow7s5Lo,https://www.youtube.com/watch?v=x5l7Ow7s5Lo,https://i.ytimg.com/vi_webp/x5l7Ow7s5Lo/maxresdefault.webp,2022-10-04,00:33:10,2022-40,"email automation,lowcode,Microsoft,MS Power Automate Desktop,RPA","email-automation,lowcode,microsoft,ms-power-automate-desktop,rpa",video,video,YouTube,youtube
29173,Tom's Tech Academy,UCstCuI_7DvHw7-KSA3Yy9PQ,tom-s-tech-academy,https://www.youtube.com/channel/UCstCuI_7DvHw7-KSA3Yy9PQ,,How to Create and Save / Email screenshots in UiPath Studio X,Ub9zcA_t8O4,https://www.youtube.com/watch?v=Ub9zcA_t8O4,https://i.ytimg.com/vi_webp/Ub9zcA_t8O4/maxresdefault.webp,2022-10-01,00:04:53,2022-39,"email automation,Error Handling,RPA,UiPath,UiPath Studio X","email-automation,errorhandling,rpa,uipath,uipath-studio-x",video,video,YouTube,youtube
29101,Tom's Tech Academy,UCstCuI_7DvHw7-KSA3Yy9PQ,tom-s-tech-academy,https://www.youtube.com/channel/UCstCuI_7DvHw7-KSA3Yy9PQ,,How to send reminder emails with UiPath Studio X,2FlGplWRYVQ,https://www.youtube.com/watch?v=2FlGplWRYVQ,https://i.ytimg.com/vi_webp/2FlGplWRYVQ/maxresdefault.webp,2022-09-23,00:07:21,2022-38,"email automation,RPA,UiPath,UiPath Studio X","email-automation,rpa,uipath,uipath-studio-x",video,video,YouTube,youtube
29099,Tom's Tech Academy,UCstCuI_7DvHw7-KSA3Yy9PQ,tom-s-tech-academy,https://www.youtube.com/channel/UCstCuI_7DvHw7-KSA3Yy9PQ,,How to send emails with dynamic values in UiPath Studio X,s3Bi1XPgRPo,https://www.youtube.com/watch?v=s3Bi1XPgRPo,https://i.ytimg.com/vi/s3Bi1XPgRPo/maxresdefault.jpg,2022-09-23,00:04:58,2022-38,"email automation,RPA,UiPath,UiPath Studio X","email-automation,rpa,uipath,uipath-studio-x",video,video,YouTube,youtube
29094,Tom's Tech Academy,UCstCuI_7DvHw7-KSA3Yy9PQ,tom-s-tech-academy,https://www.youtube.com/channel/UCstCuI_7DvHw7-KSA3Yy9PQ,,How to Loop through emails and read mail in UiPath Studio X,_saPQu6ZaVE,https://www.youtube.com/watch?v=_saPQu6ZaVE,https://i.ytimg.com/vi_webp/_saPQu6ZaVE/maxresdefault.webp,2022-09-22,00:04:09,2022-38,"email automation,RPA,UiPath,UiPath Studio X","email-automation,rpa,uipath,uipath-studio-x",video,video,YouTube,youtube
24948,AUTOMATE WITH UIPATH,UCa7b3OJL6ghuCX3hCUghVTA,automate-with-uipath,https://www.youtube.com/channel/UCa7b3OJL6ghuCX3hCUghVTA,,How to convert uipath legacy projects to uipath cross platform or modern projects,Xu9UhyPeD5M,https://www.youtube.com/watch?v=Xu9UhyPeD5M,https://i.ytimg.com/vi/Xu9UhyPeD5M/sd2.jpg?sqp=-oaymwEoCIAFEOAD8quKqQMcGADwAQH4Ac4FgAKACooCDAgAEAEYZSBlKGUwDw==&rs=AOn4CLDMNdCKPw_w9RpiU4hHm6EYIofJWA,2022-09-07,00:01:00,2022-36,"Maintainability,RPA,UiPath,UiPath Studio","maintainability,rpa,uipath,uipath-studio",video,video,YouTube,youtube
4193,nisarg kadam,UCX7FdmCv9UOKdlyjfGydV3w,nisarg-kadam,https://www.youtube.com/channel/UCX7FdmCv9UOKdlyjfGydV3w,,The Month of AI Day 1 | Introduction to AI?  What is Machine Learning? How to use AI Center UiPath?,DjoZSrmEYgI,https://www.youtube.com/watch?v=DjoZSrmEYgI,https://i.ytimg.com/vi_webp/DjoZSrmEYgI/maxresdefault.webp,2022-08-12,02:04:55,2022-32,"ML,RPA,UiPath,UiPath AI Center","ml,rpa,uipath,uipath-ai-center",video,video,YouTube,youtube
4195,nisarg kadam,UCX7FdmCv9UOKdlyjfGydV3w,nisarg-kadam,https://www.youtube.com/channel/UCX7FdmCv9UOKdlyjfGydV3w,,The Month of AI Day 3 | Profit prediction using UiPath Apps and AI Center | Ticker Routing of Emails,Pnse2Pyi5sQ,https://www.youtube.com/watch?v=Pnse2Pyi5sQ,https://i.ytimg.com/vi/Pnse2Pyi5sQ/maxresdefault.jpg,2022-08-12,02:06:30,2022-32,"RPA,UiPath,UiPath AI Center,UiPath Apps","rpa,uipath,uipath-ai-center,uipath-apps",video,video,YouTube,youtube
4184,Marcelo Cruz,UCZiebEnHb2xPokSLdCasVNQ,marcelo-cruz,https://www.youtube.com/channel/UCZiebEnHb2xPokSLdCasVNQ,,"UiPath Studio Web - How to Get, Reply and Send Outlook Emails",yzErSuccsmo,https://www.youtube.com/watch?v=yzErSuccsmo,https://i.ytimg.com/vi_webp/yzErSuccsmo/maxresdefault.webp,2022-08-09,00:09:49,2022-32,"email automation,RPA,UiPath,UiPath Studio Web","email-automation,rpa,uipath,uipath-studio-web",video,video,YouTube,youtube
29060,Robocorp,UCmdUNLWfRA2MvXlN9c5vtNA,robocorp,https://www.youtube.com/channel/UCmdUNLWfRA2MvXlN9c5vtNA,,Tommi Talk Episode 2: Airtable,ZjMMRevW3II,https://www.youtube.com/watch?v=ZjMMRevW3II,https://i.ytimg.com/vi/ZjMMRevW3II/hqdefault.jpg,2022-07-29,00:04:00,2022-30,"Airtable,Robocorp,RPA","airtable,robocorp,rpa",video,video,YouTube,youtube
4133,Automate with Rakesh,UCqxVW50cODphM0YHvA34NjQ,automate-with-rakesh,https://www.youtube.com/channel/UCqxVW50cODphM0YHvA34NjQ,,UiPath Email : How to Move Emails From Inbox to a Folder,G6nmih0LCV4,https://www.youtube.com/watch?v=G6nmih0LCV4,https://i.ytimg.com/vi_webp/G6nmih0LCV4/maxresdefault.webp,2022-07-28,00:06:59,2022-30,"email automation,RPA,UiPath","email-automation,rpa,uipath",video,video,YouTube,youtube
4134,Automate with Rakesh,UCqxVW50cODphM0YHvA34NjQ,automate-with-rakesh,https://www.youtube.com/channel/UCqxVW50cODphM0YHvA34NjQ,,UiPath Gmail API Automation,61MEFrcBAjE,https://www.youtube.com/watch?v=61MEFrcBAjE,https://i.ytimg.com/vi_webp/61MEFrcBAjE/maxresdefault.webp,2022-07-28,00:00:15,2022-30,"APIs,email automation,RPA,UiPath","apis,email-automation,rpa,uipath",video,video,YouTube,youtube
4132,Automate with Rakesh,UCqxVW50cODphM0YHvA34NjQ,automate-with-rakesh,https://www.youtube.com/channel/UCqxVW50cODphM0YHvA34NjQ,,UiPath Email : How to Read Emails from Sent Folder,eGrHaG6UUmQ,https://www.youtube.com/watch?v=eGrHaG6UUmQ,https://i.ytimg.com/vi_webp/eGrHaG6UUmQ/maxresdefault.webp,2022-07-28,00:03:14,2022-30,"email automation,RPA,UiPath","email-automation,rpa,uipath",video,video,YouTube,youtube
4126,Automate with Rakesh,UCqxVW50cODphM0YHvA34NjQ,automate-with-rakesh,https://www.youtube.com/channel/UCqxVW50cODphM0YHvA34NjQ,,UiPath Email Activities: How to Read Email Body from Specific Sender,_pwpiG2uJP8,https://www.youtube.com/watch?v=_pwpiG2uJP8,https://i.ytimg.com/vi_webp/_pwpiG2uJP8/maxresdefault.webp,2022-07-27,00:05:52,2022-30,"email automation,RPA,UiPath","email-automation,rpa,uipath",video,video,YouTube,youtube
4122,Automate with Rakesh,UCqxVW50cODphM0YHvA34NjQ,automate-with-rakesh,https://www.youtube.com/channel/UCqxVW50cODphM0YHvA34NjQ,,UiPath Read Email Body | UiPath Read Email Subject | UiPath Read Email From or Sender,0X_qZttEsWE,https://www.youtube.com/watch?v=0X_qZttEsWE,https://i.ytimg.com/vi/0X_qZttEsWE/hqdefault.jpg,2022-07-26,00:13:40,2022-30,"email automation,RPA,UiPath","email-automation,rpa,uipath",video,video,YouTube,youtube
4109,Automate with Rakesh,UCqxVW50cODphM0YHvA34NjQ,automate-with-rakesh,https://www.youtube.com/channel/UCqxVW50cODphM0YHvA34NjQ,,API | UiPath Gmail API Error 403 | Request had Insufficient Authentication Scopes [403],lxjv2EASIW0,https://www.youtube.com/watch?v=lxjv2EASIW0,https://i.ytimg.com/vi_webp/lxjv2EASIW0/maxresdefault.webp,2022-07-23,00:04:04,2022-29,"APIs,email automation,RPA,UiPath","apis,email-automation,rpa,uipath",video,video,YouTube,youtube
4112,Automate with Rakesh,UCqxVW50cODphM0YHvA34NjQ,automate-with-rakesh,https://www.youtube.com/channel/UCqxVW50cODphM0YHvA34NjQ,,API | UiPath Gmail API | UiPath Email Automation,O9dVTI1n3qM,https://www.youtube.com/watch?v=O9dVTI1n3qM,https://i.ytimg.com/vi/O9dVTI1n3qM/hqdefault.jpg,2022-07-23,00:22:04,2022-29,"email automation,RPA,UiPath,UiPath Apps","email-automation,rpa,uipath,uipath-apps",video,video,YouTube,youtube
4110,Automate with Rakesh,UCqxVW50cODphM0YHvA34NjQ,automate-with-rakesh,https://www.youtube.com/channel/UCqxVW50cODphM0YHvA34NjQ,,API | UiPath Gmail API | UiPath Email Automation,GL35DudQmVM,https://www.youtube.com/watch?v=GL35DudQmVM,https://i.ytimg.com/vi_webp/GL35DudQmVM/maxresdefault.webp,2022-07-23,00:00:42,2022-29,"APIs,email automation,RPA,UiPath","apis,email-automation,rpa,uipath",video,video,YouTube,youtube
2404,2AutomateAnything,UCu3OKpci_B0tWulz6u95gaw,2automateanything,https://www.youtube.com/channel/UCu3OKpci_B0tWulz6u95gaw,,EmailAutomation,5RccyYw7748,https://www.youtube.com/watch?v=5RccyYw7748,https://i.ytimg.com/vi_webp/5RccyYw7748/maxresdefault.webp,2021-05-06,00:26:00,2021-18,"email automation,RPA,UiPath","email-automation,rpa,uipath",video,video,YouTube,youtube
