id,org_name,org_identifier,org_slug,org_url,person,title,platform_identifier,url,thumbnail_src,published_at,duration,year_week,tags,tags_slugs,type_name,type_slug,platform_name,platform_slug
30619,UiPath,,uipath,https://www.uipath.com/,,UiPath Certified Professional Program Guide 2023,g7lKWANiv6w,https://www.youtube.com/watch?v=g7lKWANiv6w,https://i.ytimg.com/vi_webp/g7lKWANiv6w/maxresdefault.webp,2023-04-07,00:03:54,2023-14,"Certification,RPA,UiPath","certification,rpa,uipath",video,video,YouTube,youtube
30615,UiPath,,uipath,https://www.uipath.com/,,UiPath Certified Professional 2023: Boost your career and transform society,5_JqUJbLq7o,https://www.youtube.com/watch?v=5_JqUJbLq7o,https://i.ytimg.com/vi_webp/5_JqUJbLq7o/maxresdefault.webp,2023-04-06,00:02:02,2023-14,"Certification,RPA,UiPath","certification,rpa,uipath",video,video,YouTube,youtube
30617,MyLittleBot,UC1GrxxJJLp3jK5MhcXVJ4RA,mylittlebot,https://www.youtube.com/channel/UC1GrxxJJLp3jK5MhcXVJ4RA,,UiPath Automation Business Analyst Certification (UiABA)||  Exam preparation + 100% on practice exam,nk6deNX3LFY,https://www.youtube.com/watch?v=nk6deNX3LFY,https://i.ytimg.com/vi/nk6deNX3LFY/maxresdefault.jpg,2023-04-06,00:50:50,2023-14,"Certification,RPA,UiPath","certification,rpa,uipath",video,video,YouTube,youtube
30611,MyLittleBot,UC1GrxxJJLp3jK5MhcXVJ4RA,mylittlebot,https://www.youtube.com/channel/UC1GrxxJJLp3jK5MhcXVJ4RA,,Certification UiPath UiABA Automation Business Analyst | Guide complet + 100% au test d'entraînement,-t190CnisZY,https://www.youtube.com/watch?v=-t190CnisZY,https://i.ytimg.com/vi_webp/-t190CnisZY/maxresdefault.webp,2023-04-05,01:00:36,2023-14,"Certification,RPA,UiPath","certification,rpa,uipath",video,video,YouTube,youtube
30098,Automate with Rakesh,UCqxVW50cODphM0YHvA34NjQ,automate-with-rakesh,https://www.youtube.com/channel/UCqxVW50cODphM0YHvA34NjQ,,#shorts UiPath Certification,OMmKuSk69Lo,https://www.youtube.com/watch?v=OMmKuSk69Lo,https://i.ytimg.com/vi/OMmKuSk69Lo/sd2.jpg,2023-01-22,00:00:57,2023-3,"Certification,learning,RPA,UiPath","certification,learning,rpa,uipath",video,video,YouTube,youtube
29587,Automate with Rakesh,UCqxVW50cODphM0YHvA34NjQ,automate-with-rakesh,https://www.youtube.com/channel/UCqxVW50cODphM0YHvA34NjQ,,"UiPath Advance Certification Playlist is Complete and Ready, Check it out!",crdzdMJRu1Y,https://www.youtube.com/watch?v=crdzdMJRu1Y,https://i.ytimg.com/vi/crdzdMJRu1Y/maxresdefault.jpg,2022-11-13,00:01:00,2022-45,"Certification,RPA,UiPath","certification,rpa,uipath",video,video,YouTube,youtube
29551,Automate with Rakesh,UCqxVW50cODphM0YHvA34NjQ,automate-with-rakesh,https://www.youtube.com/channel/UCqxVW50cODphM0YHvA34NjQ,,UiPath Advance Certification | Video70 Few Last Advises for UiPath Advance Certification Exam,0KJ3NIQweR0,https://www.youtube.com/watch?v=0KJ3NIQweR0,https://i.ytimg.com/vi/0KJ3NIQweR0/maxresdefault.jpg,2022-11-12,00:08:45,2022-45,"Certification,RPA","certification,rpa",video,video,YouTube,youtube
27630,CODE GUN,UCStgI3w3IYFK-q06hCtxcEQ,code-gun,https://www.youtube.com/channel/UCStgI3w3IYFK-q06hCtxcEQ,,Blue Prism Professional Developer Dumps 2022,4CehDRFXaLk,https://www.youtube.com/watch?v=4CehDRFXaLk,https://i.ytimg.com/vi_webp/4CehDRFXaLk/maxresdefault.webp,2022-09-17,00:11:12,2022-37,"Blue Prism,Certification,RPA","blue-prism,certification,rpa",video,video,YouTube,youtube
27610,Automate with Rakesh,UCqxVW50cODphM0YHvA34NjQ,automate-with-rakesh,https://www.youtube.com/channel/UCqxVW50cODphM0YHvA34NjQ,,UiPath Advance Certification | Topic 12 UIPATH CONTINUE ON ERROR | UiARD Certification Preparation,kRqghWK9d3I,https://www.youtube.com/watch?v=kRqghWK9d3I,https://i.ytimg.com/vi/kRqghWK9d3I/maxresdefault.jpg,2022-09-15,00:10:53,2022-37,"Certification,Error Handling,exceptions,RPA,UiPath","certification,errorhandling,exceptions,rpa,uipath",video,video,YouTube,youtube
27603,CODE GUN,UCStgI3w3IYFK-q06hCtxcEQ,code-gun,https://www.youtube.com/channel/UCStgI3w3IYFK-q06hCtxcEQ,,Blue Prism Certification Guide,ZJu8TfHlkXU,https://www.youtube.com/watch?v=ZJu8TfHlkXU,https://i.ytimg.com/vi/ZJu8TfHlkXU/sddefault.jpg?v=63218f57,2022-09-14,00:11:30,2022-37,"Blue Prism,Certification,RPA","blue-prism,certification,rpa",video,video,YouTube,youtube
27597,Automate with Rakesh,UCqxVW50cODphM0YHvA34NjQ,automate-with-rakesh,https://www.youtube.com/channel/UCqxVW50cODphM0YHvA34NjQ,,UiPath Advance Certification | Topic 10 UiPath MERGE AND JOIN DATA TABLE | UiARD Certification Prep.,rGJqgRoUolM,https://www.youtube.com/watch?v=rGJqgRoUolM,https://i.ytimg.com/vi/rGJqgRoUolM/maxresdefault.jpg,2022-09-13,00:15:27,2022-37,"Certification,DataTable,RPA,UiPath","certification,datatable,rpa,uipath",video,video,YouTube,youtube
27588,Automate with Rakesh,UCqxVW50cODphM0YHvA34NjQ,automate-with-rakesh,https://www.youtube.com/channel/UCqxVW50cODphM0YHvA34NjQ,,UiPath Advance Certification | Topic 9 UiPath Initialize Data Types| UiARD Certification Preparation,fvoG5tVjgsc,https://www.youtube.com/watch?v=fvoG5tVjgsc,https://i.ytimg.com/vi/fvoG5tVjgsc/maxresdefault.jpg,2022-09-12,00:12:10,2022-37,"Certification,DataTable,RPA,UiPath","certification,datatable,rpa,uipath",video,video,YouTube,youtube
26428,Automate with Rakesh,UCqxVW50cODphM0YHvA34NjQ,automate-with-rakesh,https://www.youtube.com/channel/UCqxVW50cODphM0YHvA34NjQ,,UiPath Advance Certification | Topic 8 UIPATH ACTIVITY PROPERTIES | UiARD Certification Preparation,AhwbgLuJrss,https://www.youtube.com/watch?v=AhwbgLuJrss,https://i.ytimg.com/vi_webp/AhwbgLuJrss/maxresdefault.webp,2022-09-11,00:07:34,2022-36,"Certification,RPA,UiPath","certification,rpa,uipath",video,video,YouTube,youtube
26424,Automate with Rakesh,UCqxVW50cODphM0YHvA34NjQ,automate-with-rakesh,https://www.youtube.com/channel/UCqxVW50cODphM0YHvA34NjQ,,UiPath Advance Certification | Topic 7 UIPATH FULL & PARTIAL SELECTOR  | UiARD Certification,24mMcSmKwEY,https://www.youtube.com/watch?v=24mMcSmKwEY,https://i.ytimg.com/vi_webp/24mMcSmKwEY/maxresdefault.webp,2022-09-10,00:09:33,2022-36,"Certification,RPA,UiPath","certification,rpa,uipath",video,video,YouTube,youtube
25053,Automate with Rakesh,UCqxVW50cODphM0YHvA34NjQ,automate-with-rakesh,https://www.youtube.com/channel/UCqxVW50cODphM0YHvA34NjQ,,UiPath Advance Certification | Topic 6 UIPATH INVOKE CODE | UiARD Certification Preparation,QCf5YsxUzJ0,https://www.youtube.com/watch?v=QCf5YsxUzJ0,https://i.ytimg.com/vi_webp/QCf5YsxUzJ0/maxresdefault.webp,2022-09-09,00:11:05,2022-36,"Certification,RPA,UiPath","certification,rpa,uipath",video,video,YouTube,youtube
24946,Automate with Rakesh,UCqxVW50cODphM0YHvA34NjQ,automate-with-rakesh,https://www.youtube.com/channel/UCqxVW50cODphM0YHvA34NjQ,,UiPath Advance Certification | Topic 4 UIPATH WAIT FOR READY | UiARD Certification Preparation,ePjSK_a0uBg,https://www.youtube.com/watch?v=ePjSK_a0uBg,https://i.ytimg.com/vi_webp/ePjSK_a0uBg/maxresdefault.webp,2022-09-07,00:08:53,2022-36,"Certification,RPA,UiPath","certification,rpa,uipath",video,video,YouTube,youtube
24935,Automate with Rakesh,UCqxVW50cODphM0YHvA34NjQ,automate-with-rakesh,https://www.youtube.com/channel/UCqxVW50cODphM0YHvA34NjQ,,UiPath Advance Certification | Topic 3 UIPATH INVOKE METHOD | UiARD Certification Preparation,UJG3WKWP24o,https://www.youtube.com/watch?v=UJG3WKWP24o,https://i.ytimg.com/vi_webp/UJG3WKWP24o/maxresdefault.webp,2022-09-06,00:19:37,2022-36,"Certification,RPA,UiPath","certification,rpa,uipath",video,video,YouTube,youtube
24930,Automate with Rakesh,UCqxVW50cODphM0YHvA34NjQ,automate-with-rakesh,https://www.youtube.com/channel/UCqxVW50cODphM0YHvA34NjQ,,UiPath Advance Certification | Topic - 2 INPUT METHODS | UiARD Certification Preparation,1rHnNQU8MnY,https://www.youtube.com/watch?v=1rHnNQU8MnY,https://i.ytimg.com/vi/1rHnNQU8MnY/maxresdefault.jpg,2022-09-05,00:10:39,2022-36,"Certification,RPA,UiPath","certification,rpa,uipath",video,video,YouTube,youtube
26155,RPAFeed,UC3f0L_fUSQe8vAQwJowJ6-g,rpafeed,https://www.youtube.com/channel/UC3f0L_fUSQe8vAQwJowJ6-g,,Get Your RPA Certification for Free | Automation 360,JkD-twLQb_8,https://www.youtube.com/watch?v=JkD-twLQb_8,https://i.ytimg.com/vi_webp/JkD-twLQb_8/maxresdefault.webp,2022-07-20,00:05:55,2022-29,"Automation Anywhere,Certification,RPA","automation-anywhere,certification,rpa",video,video,YouTube,youtube
