id,org_name,org_identifier,org_slug,org_url,person,title,platform_identifier,url,thumbnail_src,published_at,duration,year_week,tags,tags_slugs,type_name,type_slug,platform_name,platform_slug
30695,Tutorials by Mukesh Kala,UCtZTZt9fI91Xp-PVTPBESQQ,tutorials-by-mukesh-kala,https://www.youtube.com/channel/UCtZTZt9fI91Xp-PVTPBESQQ,,UiPath 2023.4 Updates | Recording in UiPath | UiPath New Features #shorts,PB6lKEAhhg0,https://www.youtube.com/watch?v=PB6lKEAhhg0,https://i.ytimg.com/vi/PB6lKEAhhg0/sd2.jpg,2023-04-20,00:00:59,2023-16,"recording,RPA,UiPath","recording,rpa,uipath",video,video,YouTube,youtube
30640,yellowgreys,UCdfnDEVCZ6SGP-PA-KS97ng,yellowgreys,https://www.youtube.com/channel/UCdfnDEVCZ6SGP-PA-KS97ng,,UiPath | Automate your Workflows: UiPath Image Recording | English | Yellowgreys - YouTube,oOl1HNguZQA,https://www.youtube.com/watch?v=oOl1HNguZQA,https://i.ytimg.com/vi_webp/oOl1HNguZQA/maxresdefault.webp,2023-04-12,00:03:24,2023-15,"recording,RPA,UiPath","recording,rpa,uipath",video,video,YouTube,youtube
30631,yellowgreys,UCdfnDEVCZ6SGP-PA-KS97ng,yellowgreys,https://www.youtube.com/channel/UCdfnDEVCZ6SGP-PA-KS97ng,,UiPath | Automate your Workflows: UiPath Web Recording | English | Yellowgreys - YouTube,j2UWKHqqc98,https://www.youtube.com/watch?v=j2UWKHqqc98,https://i.ytimg.com/vi/j2UWKHqqc98/maxresdefault.jpg,2023-04-11,00:02:53,2023-15,"browser,recording,RPA,UiPath","browser,recording,rpa,uipath",video,video,YouTube,youtube
30625,yellowgreys,UCdfnDEVCZ6SGP-PA-KS97ng,yellowgreys,https://www.youtube.com/channel/UCdfnDEVCZ6SGP-PA-KS97ng,,UiPath | Automate your Workflows: UiPath Manual Recording | English | Yellowgreys - YouTube,Qub2yoAv030,https://www.youtube.com/watch?v=Qub2yoAv030,https://i.ytimg.com/vi_webp/Qub2yoAv030/maxresdefault.webp,2023-04-10,00:04:39,2023-15,"recording,RPA,UiPath,UiPath Studio","recording,rpa,uipath,uipath-studio",video,video,YouTube,youtube
30623,yellowgreys,UCdfnDEVCZ6SGP-PA-KS97ng,yellowgreys,https://www.youtube.com/channel/UCdfnDEVCZ6SGP-PA-KS97ng,,UiPath | Automate your Workflows: UiPath Desktop Recording | English | Yellowgreys - YouTube,-HvHRkxyJ08,https://www.youtube.com/watch?v=-HvHRkxyJ08,https://i.ytimg.com/vi_webp/-HvHRkxyJ08/maxresdefault.webp,2023-04-09,00:06:55,2023-14,"recording,RPA,UiPath,UiPath Studio","recording,rpa,uipath,uipath-studio",video,video,YouTube,youtube
30606,yellowgreys,UCdfnDEVCZ6SGP-PA-KS97ng,yellowgreys,https://www.youtube.com/channel/UCdfnDEVCZ6SGP-PA-KS97ng,,UiPath | Automate your Workflows: UiPath Basic Recording Tutorial | English | Yellowgreys - YouTube,I_DkkTu7fTo,https://www.youtube.com/watch?v=I_DkkTu7fTo,https://i.ytimg.com/vi_webp/I_DkkTu7fTo/maxresdefault.webp,2023-04-05,00:07:30,2023-14,"recording,RPA,UiPath,UiPath Studio","recording,rpa,uipath,uipath-studio",video,video,YouTube,youtube
30346,Tutorials by Mukesh Kala,UCtZTZt9fI91Xp-PVTPBESQQ,tutorials-by-mukesh-kala,https://www.youtube.com/channel/UCtZTZt9fI91Xp-PVTPBESQQ,,UiPath | Job Recording in Orchestrator | Video and Screenshots | 2023 UiPath New Update | Robots,LTYgZMnfYSY,https://www.youtube.com/watch?v=LTYgZMnfYSY,https://i.ytimg.com/vi/LTYgZMnfYSY/maxresdefault.jpg,2023-03-06,00:18:23,2023-10,"recording,RPA,UiPath Orchestrator","recording,rpa,uipath-orchestrator",video,video,YouTube,youtube
30009,Daniel Christian,UC2v4TcvO4rdDdfqd6rUR5yg,daniel-christian,https://www.youtube.com/channel/UC2v4TcvO4rdDdfqd6rUR5yg,,Power Automate Desktop Recorder,nr_RNYWDIxM,https://www.youtube.com/watch?v=nr_RNYWDIxM,https://i.ytimg.com/vi/nr_RNYWDIxM/maxresdefault.jpg,2023-01-09,00:23:20,2023-2,"lowcode,Microsoft,MS Power Automate Desktop,recording,RPA","lowcode,microsoft,ms-power-automate-desktop,recording,rpa",video,video,YouTube,youtube
29649,Anders Jensen,UCPdtz4gd_iYebJFYq9N8pWA,anders-jensen,https://www.youtube.com/channel/UCPdtz4gd_iYebJFYq9N8pWA,,How to Get Started with Microsoft Power Automate Desktop,_7YkqephDxg,https://www.youtube.com/watch?v=_7YkqephDxg,https://i.ytimg.com/vi/_7YkqephDxg/maxresdefault.jpg,2022-11-20,02:19:10,2022-46,"browser,control flow,datatypes,email automation,lowcode,Microsoft,MS Power Automate Desktop,recording,RPA","browser,control-flow,datatypes,email-automation,lowcode,microsoft,ms-power-automate-desktop,recording,rpa",video,video,YouTube,youtube
29575,Reboot the work - Uipath,UCb_s0ySmdX17oZpcIpQrrzw,reboot-the-work-uipath,https://www.youtube.com/channel/UCb_s0ySmdX17oZpcIpQrrzw,,"Uipath Tutorial | Web, Image Recording and Native Citrix using UiPath",m0781802gqw,https://www.youtube.com/watch?v=m0781802gqw,https://i.ytimg.com/vi_webp/m0781802gqw/maxresdefault.webp,2022-11-05,00:09:13,2022-44,"recording,RPA,UiPath","recording,rpa,uipath",video,video,YouTube,youtube
29574,Reboot the work - Uipath,UCb_s0ySmdX17oZpcIpQrrzw,reboot-the-work-uipath,https://www.youtube.com/channel/UCb_s0ySmdX17oZpcIpQrrzw,,Uipath Tutorial | Desktop Recording using UiPath,NyWSJ8RFoKc,https://www.youtube.com/watch?v=NyWSJ8RFoKc,https://i.ytimg.com/vi/NyWSJ8RFoKc/maxresdefault.jpg,2022-11-04,00:12:59,2022-44,"recording,RPA,UiPath","recording,rpa,uipath",video,video,YouTube,youtube
29573,Reboot the work - Uipath,UCb_s0ySmdX17oZpcIpQrrzw,reboot-the-work-uipath,https://www.youtube.com/channel/UCb_s0ySmdX17oZpcIpQrrzw,,Uipath Tutorial | Basic Recording using UiPath,rEZ0v4W9NpY,https://www.youtube.com/watch?v=rEZ0v4W9NpY,https://i.ytimg.com/vi/rEZ0v4W9NpY/maxresdefault.jpg,2022-11-03,00:19:02,2022-44,"recording,RPA,UiPath","recording,rpa,uipath",video,video,YouTube,youtube
