id,org_name,org_identifier,org_slug,org_url,person,title,platform_identifier,url,thumbnail_src,published_at,duration,year_week,tags,tags_slugs,type_name,type_slug,platform_name,platform_slug
29800,Anders Jensen,UCPdtz4gd_iYebJFYq9N8pWA,anders-jensen,https://www.youtube.com/channel/UCPdtz4gd_iYebJFYq9N8pWA,,How to Use the UiPath Attended Framework 😎😍 Full Tutorial,GwflwUTS5Po,https://www.youtube.com/watch?v=GwflwUTS5Po,https://i.ytimg.com/vi_webp/GwflwUTS5Po/maxresdefault.webp,2022-12-21,00:27:34,2022-51,"Code Templates,RPA,UiPath","code-templates,rpa,uipath",video,video,YouTube,youtube
29117,AUTOMATE WITH UIPATH,UCa7b3OJL6ghuCX3hCUghVTA,automate-with-uipath,https://www.youtube.com/channel/UCa7b3OJL6ghuCX3hCUghVTA,,Perfect Templates for projects Designing,5S1kZbHhg-0,https://www.youtube.com/watch?v=5S1kZbHhg-0,https://i.ytimg.com/vi/5S1kZbHhg-0/maxresdefault.jpg,2022-09-25,00:00:30,2022-38,"Code Templates,RPA,UiPath","code-templates,rpa,uipath",video,video,YouTube,youtube
27593,UiPath with Jeppe,UCs8A4UTIVWDtq_NGccJUBUw,uipath-with-jeppe,https://www.youtube.com/channel/UCs8A4UTIVWDtq_NGccJUBUw,,UiPath Attended Framework 2.0 - Overview,qD2HguOhNek,https://www.youtube.com/watch?v=qD2HguOhNek,https://i.ytimg.com/vi/qD2HguOhNek/maxresdefault.jpg,2022-09-12,00:22:47,2022-37,"Code Templates,RPA,UiPath","code-templates,rpa,uipath",video,video,YouTube,youtube
29081,Robocorp,UCmdUNLWfRA2MvXlN9c5vtNA,robocorp,https://www.youtube.com/channel/UCmdUNLWfRA2MvXlN9c5vtNA,,Create your own Robot Framework Library with Python,gutNvX3L-e4,https://www.youtube.com/watch?v=gutNvX3L-e4,https://i.ytimg.com/vi/gutNvX3L-e4/hqdefault.jpg,2022-08-25,00:57:18,2022-34,"Code Templates,Python,Robocorp,RPA","code-templates,python,robocorp,rpa",video,video,YouTube,youtube
