id,org_name,org_identifier,org_slug,org_url,person,title,platform_identifier,url,thumbnail_src,published_at,duration,year_week,tags,tags_slugs,type_name,type_slug,platform_name,platform_slug
30595,Anders Jensen,UCPdtz4gd_iYebJFYq9N8pWA,anders-jensen,https://www.youtube.com/channel/UCPdtz4gd_iYebJFYq9N8pWA,,What is RPA?,gKOvQ06ZkXk,https://www.youtube.com/watch?v=gKOvQ06ZkXk,https://i.ytimg.com/vi/gKOvQ06ZkXk/sd2.jpg,2023-04-03,00:00:46,2023-14,"OpenRPA,RPA","openrpa,rpa",video,video,YouTube,youtube
30001,Marcelo Cruz,UCZiebEnHb2xPokSLdCasVNQ,marcelo-cruz,https://www.youtube.com/channel/UCZiebEnHb2xPokSLdCasVNQ,,How To Read and Write Excel on OpenRPA,TNH2WCUvAJ8,https://www.youtube.com/watch?v=TNH2WCUvAJ8,https://i.ytimg.com/vi_webp/TNH2WCUvAJ8/maxresdefault.webp,2023-01-05,00:07:51,2023-1,"Excel,OpenRPA,RPA","excel,openrpa,rpa",video,video,YouTube,youtube
29981,Marcelo Cruz,UCZiebEnHb2xPokSLdCasVNQ,marcelo-cruz,https://www.youtube.com/channel/UCZiebEnHb2xPokSLdCasVNQ,,WEB SCRAPING on OpenRPA - Full Tutorial,U84dpoK7Qvw,https://www.youtube.com/watch?v=U84dpoK7Qvw,https://i.ytimg.com/vi_webp/U84dpoK7Qvw/sddefault.webp,2023-01-03,00:32:25,2023-1,"OpenRPA,RPA,scraping","openrpa,rpa,scraping",video,video,YouTube,youtube
29796,Marcelo Cruz,UCZiebEnHb2xPokSLdCasVNQ,marcelo-cruz,https://www.youtube.com/channel/UCZiebEnHb2xPokSLdCasVNQ,,How To Open/Close Application and Browser in OpenRPA,yNy9UlF_NCQ,https://www.youtube.com/watch?v=yNy9UlF_NCQ,https://i.ytimg.com/vi_webp/yNy9UlF_NCQ/maxresdefault.webp,2022-12-20,00:05:46,2022-51,"OpenRPA,RPA","openrpa,rpa",video,video,YouTube,youtube
