id,org_name,org_identifier,org_slug,org_url,person,title,platform_identifier,url,thumbnail_src,published_at,duration,year_week,tags,tags_slugs,type_name,type_slug,platform_name,platform_slug
30822,UiPath Video Tutorials made by Cristian Negulescu,UCiSb0WLTgB23jT0E6NEuu7Q,uipath-video-tutorials-made-by-cristian-negulescu,https://www.youtube.com/channel/UCiSb0WLTgB23jT0E6NEuu7Q,,GSheet example in UiPath: Using GSheet as a Database Managed by UiPath Robots and Humans,PCgnhJmiqU8,https://www.youtube.com/watch?v=PCgnhJmiqU8,https://i.ytimg.com/vi_webp/PCgnhJmiqU8/maxresdefault.webp,2023-05-05,00:14:10,2023-18,"Google Sheets,RPA,UiPath","google-sheets,rpa,uipath",video,video,YouTube,youtube
30795,UiPath Video Tutorials made by Cristian Negulescu,UCiSb0WLTgB23jT0E6NEuu7Q,uipath-video-tutorials-made-by-cristian-negulescu,https://www.youtube.com/channel/UCiSb0WLTgB23jT0E6NEuu7Q,,Automate Your Data Management: Using GSheet as a Database Managed by UiPath Robots and Humans,OUujRK19FOI,https://www.youtube.com/watch?v=OUujRK19FOI,https://i.ytimg.com/vi/OUujRK19FOI/maxresdefault.jpg,2023-05-02,00:16:06,2023-18,"Google Sheets,RPA,UiPath","google-sheets,rpa,uipath",video,video,YouTube,youtube
30697,UiPath,,uipath,https://www.uipath.com/,,Automate Google Sheets with UiPath StudioX,J0jQo0Bhqmk,https://www.youtube.com/watch?v=J0jQo0Bhqmk,https://i.ytimg.com/vi_webp/J0jQo0Bhqmk/maxresdefault.webp,2023-04-20,00:06:33,2023-16,"Google Sheets,RPA,UiPath,UiPath Studio X","google-sheets,rpa,uipath,uipath-studio-x",video,video,YouTube,youtube
30138,AutoBot by Rahul,UCdrTm1crX3NRkv_KWgmytcA,autobot-by-rahul,https://www.youtube.com/channel/UCdrTm1crX3NRkv_KWgmytcA,,UiPath- Google Spreadsheet automation | Google Workspace package | Integrate UiPath to Workspace,k3xXwC2Ne_I,https://www.youtube.com/watch?v=k3xXwC2Ne_I,https://i.ytimg.com/vi/k3xXwC2Ne_I/maxresdefault.jpg,2023-01-30,00:20:36,2023-5,"Google Sheets,RPA,UiPath","google-sheets,rpa,uipath",video,video,YouTube,youtube
