id,org_name,org_identifier,org_slug,org_url,person,title,platform_identifier,url,thumbnail_src,published_at,duration,year_week,tags,tags_slugs,type_name,type_slug,platform_name,platform_slug
30208,Automate with Rakesh,UCqxVW50cODphM0YHvA34NjQ,automate-with-rakesh,https://www.youtube.com/channel/UCqxVW50cODphM0YHvA34NjQ,,UIPath Json to Data Table with Complex Type JSON,wJYRRoHim3o,https://www.youtube.com/watch?v=wJYRRoHim3o,https://i.ytimg.com/vi/wJYRRoHim3o/maxresdefault.jpg,2023-02-09,00:15:41,2023-6,"DataTable,datatypes,JSON,RPA,UiPath","datatable,datatypes,json,rpa,uipath",video,video,YouTube,youtube
30196,Automate with Rakesh,UCqxVW50cODphM0YHvA34NjQ,automate-with-rakesh,https://www.youtube.com/channel/UCqxVW50cODphM0YHvA34NjQ,,#shorts Complex Json To a Data Table Tricks in UiPath,jQ9BZ6hLvzw,https://www.youtube.com/watch?v=jQ9BZ6hLvzw,https://i.ytimg.com/vi/jQ9BZ6hLvzw/sd2.jpg,2023-02-08,00:00:44,2023-6,"DataTable,datatypes,JSON,RPA,UiPath","datatable,datatypes,json,rpa,uipath",video,video,YouTube,youtube
30111,Reboot the work - Uipath,UCb_s0ySmdX17oZpcIpQrrzw,reboot-the-work-uipath,https://www.youtube.com/channel/UCb_s0ySmdX17oZpcIpQrrzw,,Uipath Tutorial | API Automation - Extract data using Deserialize JSON Array (Part - III),OUuXNvd1zME,https://www.youtube.com/watch?v=OUuXNvd1zME,https://i.ytimg.com/vi_webp/OUuXNvd1zME/maxresdefault.webp,2023-01-24,00:14:15,2023-4,"datatypes,JSON,RPA,UiPath","datatypes,json,rpa,uipath",video,video,YouTube,youtube
24855,UiPath Video Tutorials made by Cristian Negulescu,UCiSb0WLTgB23jT0E6NEuu7Q,uipath-video-tutorials-made-by-cristian-negulescu,https://www.youtube.com/channel/UCiSb0WLTgB23jT0E6NEuu7Q,,Ultimate guide for JSON to DataTable | UiPath Free Code | Multiple Use cases,07qnWe9bf6k,https://www.youtube.com/watch?v=07qnWe9bf6k,https://i.ytimg.com/vi/07qnWe9bf6k/maxresdefault.jpg,2022-09-04,00:29:12,2022-35,"DataTable,datatypes,JSON,RPA,UiPath","datatable,datatypes,json,rpa,uipath",video,video,YouTube,youtube
4210,UiPath Video Tutorials made by Cristian Negulescu,UCiSb0WLTgB23jT0E6NEuu7Q,uipath-video-tutorials-made-by-cristian-negulescu,https://www.youtube.com/channel/UCiSb0WLTgB23jT0E6NEuu7Q,,UiPath extracts Datatable from  a complex JSON file | JSON to Datatable,fFXvWco5nDw,https://www.youtube.com/watch?v=fFXvWco5nDw,https://i.ytimg.com/vi_webp/fFXvWco5nDw/maxresdefault.webp,2022-08-16,00:15:33,2022-33,"datatypes,JSON,RPA,UiPath","datatypes,json,rpa,uipath",video,video,YouTube,youtube
4200,CODE GUN,UCStgI3w3IYFK-q06hCtxcEQ,code-gun,https://www.youtube.com/channel/UCStgI3w3IYFK-q06hCtxcEQ,,EXTRACT RESPONSE DATA WITH JSON PATH | Web API Services (Part 4),82gYMxhl8eE,https://www.youtube.com/watch?v=82gYMxhl8eE,https://i.ytimg.com/vi_webp/82gYMxhl8eE/maxresdefault.webp,2022-08-14,00:16:42,2022-32,"Blue Prism,datatypes,JSON,RPA","blue-prism,datatypes,json,rpa",video,video,YouTube,youtube
4187,Automate with Rakesh,UCqxVW50cODphM0YHvA34NjQ,automate-with-rakesh,https://www.youtube.com/channel/UCqxVW50cODphM0YHvA34NjQ,,UiPath Data table to Json | UiPath Data table to Json Array | UiPath Serialize Json,ShcPt5Cj1cY,https://www.youtube.com/watch?v=ShcPt5Cj1cY,https://i.ytimg.com/vi_webp/ShcPt5Cj1cY/maxresdefault.webp,2022-08-10,00:06:50,2022-32,"datatypes,JSON,RPA,UiPath","datatypes,json,rpa,uipath",video,video,YouTube,youtube
4186,Automate with Rakesh,UCqxVW50cODphM0YHvA34NjQ,automate-with-rakesh,https://www.youtube.com/channel/UCqxVW50cODphM0YHvA34NjQ,,UiPath Json Serialize | JSON Serialization in UiPath | UiPath Tutorial,iOG9Eob-sW4,https://www.youtube.com/watch?v=iOG9Eob-sW4,https://i.ytimg.com/vi_webp/iOG9Eob-sW4/maxresdefault.webp,2022-08-09,00:09:10,2022-32,"datatypes,JSON,RPA,UiPath","datatypes,json,rpa,uipath",video,video,YouTube,youtube
26237,RPAFeed,UC3f0L_fUSQe8vAQwJowJ6-g,rpafeed,https://www.youtube.com/channel/UC3f0L_fUSQe8vAQwJowJ6-g,,How to use JSON Package in A360? | JSON Package in A360,rC8q4QMbUGI,https://www.youtube.com/watch?v=rC8q4QMbUGI,https://i.ytimg.com/vi_webp/rC8q4QMbUGI/maxresdefault.webp,2022-08-05,00:06:17,2022-31,"Automation Anywhere,JSON,RPA","automation-anywhere,json,rpa",video,video,YouTube,youtube
4169,Automate with Rakesh,UCqxVW50cODphM0YHvA34NjQ,automate-with-rakesh,https://www.youtube.com/channel/UCqxVW50cODphM0YHvA34NjQ,,UiPath Json Object | UiPath Json Array | UiPath JSon to Dictionary,pWxUs40WY0U,https://www.youtube.com/watch?v=pWxUs40WY0U,https://i.ytimg.com/vi_webp/pWxUs40WY0U/maxresdefault.webp,2022-08-04,00:00:15,2022-31,"datatypes,JSON,RPA,UiPath","datatypes,json,rpa,uipath",video,video,YouTube,youtube
4168,Automate with Rakesh,UCqxVW50cODphM0YHvA34NjQ,automate-with-rakesh,https://www.youtube.com/channel/UCqxVW50cODphM0YHvA34NjQ,,Uipath JSON Object | UiPath Json Array | Difference between Json Array and Json object,GGt2TJnZpAU,https://www.youtube.com/watch?v=GGt2TJnZpAU,https://i.ytimg.com/vi/GGt2TJnZpAU/hqdefault.jpg,2022-08-04,00:07:41,2022-31,"datatypes,JSON,RPA,UiPath","datatypes,json,rpa,uipath",video,video,YouTube,youtube
4170,Automate with Rakesh,UCqxVW50cODphM0YHvA34NjQ,automate-with-rakesh,https://www.youtube.com/channel/UCqxVW50cODphM0YHvA34NjQ,,UiPath Json to Dictionary: How to Convert Json to Dictionary in UiPath,zGY1EP8HUMA,https://www.youtube.com/watch?v=zGY1EP8HUMA,https://i.ytimg.com/vi/zGY1EP8HUMA/hqdefault.jpg,2022-08-04,00:08:35,2022-31,"datatypes,JSON,RPA,UiPath","datatypes,json,rpa,uipath",video,video,YouTube,youtube
4162,Automate with Rakesh,UCqxVW50cODphM0YHvA34NjQ,automate-with-rakesh,https://www.youtube.com/channel/UCqxVW50cODphM0YHvA34NjQ,,UiPath Json to DataTable,A3oBcGTMng8,https://www.youtube.com/watch?v=A3oBcGTMng8,https://i.ytimg.com/vi/A3oBcGTMng8/hqdefault.jpg,2022-08-03,00:20:47,2022-31,"datatypes,JSON,RPA,UiPath","datatypes,json,rpa,uipath",video,video,YouTube,youtube
4164,Automate with Rakesh,UCqxVW50cODphM0YHvA34NjQ,automate-with-rakesh,https://www.youtube.com/channel/UCqxVW50cODphM0YHvA34NjQ,,UiPath Json,q-IFXIfR3Xw,https://www.youtube.com/watch?v=q-IFXIfR3Xw,https://i.ytimg.com/vi_webp/q-IFXIfR3Xw/maxresdefault.webp,2022-08-03,00:00:15,2022-31,"datatypes,JSON,RPA,UiPath","datatypes,json,rpa,uipath",video,video,YouTube,youtube
4163,Automate with Rakesh,UCqxVW50cODphM0YHvA34NjQ,automate-with-rakesh,https://www.youtube.com/channel/UCqxVW50cODphM0YHvA34NjQ,,UiPath JSON Package,ifBUMboL9Pg,https://www.youtube.com/watch?v=ifBUMboL9Pg,https://i.ytimg.com/vi_webp/ifBUMboL9Pg/maxresdefault.webp,2022-08-03,00:03:48,2022-31,"datatypes,JSON,RPA,UiPath","datatypes,json,rpa,uipath",video,video,YouTube,youtube
4158,Automate with Rakesh,UCqxVW50cODphM0YHvA34NjQ,automate-with-rakesh,https://www.youtube.com/channel/UCqxVW50cODphM0YHvA34NjQ,,UiPath Json Array | Deserialize Json Array UiPath | UiPath Json deserialize | UiPath Tutorial,MUbzG6xHubU,https://www.youtube.com/watch?v=MUbzG6xHubU,https://i.ytimg.com/vi_webp/MUbzG6xHubU/maxresdefault.webp,2022-08-02,00:28:48,2022-31,"datatypes,JSON,RPA,UiPath","datatypes,json,rpa,uipath",video,video,YouTube,youtube
4150,Automate with Rakesh,UCqxVW50cODphM0YHvA34NjQ,automate-with-rakesh,https://www.youtube.com/channel/UCqxVW50cODphM0YHvA34NjQ,,UiPath Json Deserialize | UiPath Json |UiPath Json Parsing | UiPath Tutorial,yj-js_QIB0E,https://www.youtube.com/watch?v=yj-js_QIB0E,https://i.ytimg.com/vi_webp/yj-js_QIB0E/maxresdefault.webp,2022-08-01,00:22:24,2022-31,"datatypes,JSON,RPA,UiPath","datatypes,json,rpa,uipath",video,video,YouTube,youtube
4153,Anders Jensen,UCPdtz4gd_iYebJFYq9N8pWA,anders-jensen,https://www.youtube.com/channel/UCPdtz4gd_iYebJFYq9N8pWA,,Advanced API Web Scraping with UiPath - Full Tutorial,oXiNNhUVl9I,https://www.youtube.com/watch?v=oXiNNhUVl9I,https://i.ytimg.com/vi/oXiNNhUVl9I/hqdefault.jpg?v=62e77c9a,2022-08-01,01:05:00,2022-31,"APIs,JSON,RPA,scraping,UiPath","apis,json,rpa,scraping,uipath",video,video,YouTube,youtube
3580,Harika Mudiam,UCDIBmgKBPBtNJrE0dQfnAYg,harika-mudiam,https://www.youtube.com/channel/UCDIBmgKBPBtNJrE0dQfnAYg,,How to fetch the Values from JSON using Deserialize JSON & Deserialize JSON Array Activities - Part3,n78TWh9cSIQ,https://www.youtube.com/watch?v=n78TWh9cSIQ,https://i.ytimg.com/vi/n78TWh9cSIQ/hqdefault.jpg,2022-03-07,00:41:00,2022-10,"JSON,RPA,UiPath","json,rpa,uipath",video,video,YouTube,youtube
2614,Automations Squad,UCeEf52SqTKz6DRHd3wWIXvQ,automations-squad,https://www.youtube.com/channel/UCeEf52SqTKz6DRHd3wWIXvQ,,UiPath: JSON to Dictionary/DataTable & Vice Versa,pHHuckmRp8w,https://www.youtube.com/watch?v=pHHuckmRp8w,https://i.ytimg.com/vi/pHHuckmRp8w/hqdefault.jpg,2021-06-09,00:26:27,2021-23,"APIs,DataTable,datatypes,JSON,RPA,UiPath","apis,datatable,datatypes,json,rpa,uipath",video,video,YouTube,youtube
2502,UiPath - Mahmoud TV,UCgmw5KA88D6jS8lPBzEXFgA,uipath-mahmoud-tv,https://www.youtube.com/channel/UCgmw5KA88D6jS8lPBzEXFgA,,UiPath | Convert DataTable To JSON | How to convert datatable to JSON | JSON in UiPath | JSON String,VRorDTDbRcg,https://www.youtube.com/watch?v=VRorDTDbRcg,https://i.ytimg.com/vi/VRorDTDbRcg/hqdefault.jpg,2021-05-23,00:02:52,2021-20,"DataTable,datatypes,JSON,RPA,UiPath","datatable,datatypes,json,rpa,uipath",video,video,YouTube,youtube
