id,org_name,org_identifier,org_slug,org_url,person,title,platform_identifier,url,thumbnail_src,published_at,duration,year_week,tags,tags_slugs,type_name,type_slug,platform_name,platform_slug
30493,RPAFeed,UC3f0L_fUSQe8vAQwJowJ6-g,rpafeed,https://www.youtube.com/channel/UC3f0L_fUSQe8vAQwJowJ6-g,,Create CI/CD Pipeline in Automation Anywhere,fGyLUMSGTsU,https://www.youtube.com/watch?v=fGyLUMSGTsU,https://i.ytimg.com/vi/fGyLUMSGTsU/sd2.jpg,2023-03-22,00:00:29,2023-12,"Automation Anywhere,RPA,sourcecode management","automation-anywhere,rpa,sourcecode-management",video,video,YouTube,youtube
29222,Automate with Rakesh,UCqxVW50cODphM0YHvA34NjQ,automate-with-rakesh,https://www.youtube.com/channel/UCqxVW50cODphM0YHvA34NjQ,,UiPath Advance Certification | Topic 36 UiPath GIT Source Control | UiARD Certification Preparation,waJF5IFHFTk,https://www.youtube.com/watch?v=waJF5IFHFTk,https://i.ytimg.com/vi_webp/waJF5IFHFTk/maxresdefault.webp,2022-10-09,00:06:20,2022-40,"RPA,sourcecode management,UiPath","rpa,sourcecode-management,uipath",video,video,YouTube,youtube
3908,Automate with Rakesh,UCqxVW50cODphM0YHvA34NjQ,automate-with-rakesh,https://www.youtube.com/channel/UCqxVW50cODphM0YHvA34NjQ,,What Happens when you Click on Git Commit and Push,UxAEUS6YjKU,https://www.youtube.com/watch?v=UxAEUS6YjKU,https://i.ytimg.com/vi_webp/UxAEUS6YjKU/maxresdefault.webp,2022-06-06,00:08:00,2022-23,"RPA,sourcecode management,UiPath,UiPath Studio","rpa,sourcecode-management,uipath,uipath-studio",video,video,YouTube,youtube
