id,org_name,org_identifier,org_slug,org_url,person,title,platform_identifier,url,thumbnail_src,published_at,duration,year_week,tags,tags_slugs,type_name,type_slug,platform_name,platform_slug
3543,RPABOTSWORLD,UCVY20joO2BAIgq9rOu99Nug,rpabotsworld,https://www.youtube.com/channel/UCVY20joO2BAIgq9rOu99Nug,,Ultimate CI/CD pipelines using UiPath GitHub Actions and PowerShell | Part 1,NpPcMf-IpsM,https://www.youtube.com/watch?v=NpPcMf-IpsM,https://i.ytimg.com/vi_webp/NpPcMf-IpsM/maxresdefault.webp,2022-02-27,00:19:50,2022-8,"CI/CD,RPA,UiPath","cicd,rpa,uipath",video,video,YouTube,youtube
3545,RPABOTSWORLD,UCVY20joO2BAIgq9rOu99Nug,rpabotsworld,https://www.youtube.com/channel/UCVY20joO2BAIgq9rOu99Nug,,Ultimate CI/CD pipelines using UiPath GitHub Actions and PowerShell | Part 2,TQD8c9gZIVE,https://www.youtube.com/watch?v=TQD8c9gZIVE,https://i.ytimg.com/vi_webp/TQD8c9gZIVE/maxresdefault.webp,2022-02-27,00:30:35,2022-8,"CI/CD,RPA,UiPath","cicd,rpa,uipath",video,video,YouTube,youtube
