id,org_name,org_identifier,org_slug,org_url,person,title,platform_identifier,url,thumbnail_src,published_at,duration,year_week,tags,tags_slugs,type_name,type_slug,platform_name,platform_slug
30833,Robocorp,UCmdUNLWfRA2MvXlN9c5vtNA,robocorp,https://www.youtube.com/channel/UCmdUNLWfRA2MvXlN9c5vtNA,,Emerson x Robocorp: A Journey to Modern Intelligent Automation,6uDiQgLOkpQ,https://www.youtube.com/watch?v=6uDiQgLOkpQ,https://i.ytimg.com/vi/6uDiQgLOkpQ/maxresdefault.jpg,2023-05-05,00:59:19,2023-18,"Robocorp,RPA","robocorp,rpa",video,video,YouTube,youtube
30774,Robocorp,UCmdUNLWfRA2MvXlN9c5vtNA,robocorp,https://www.youtube.com/channel/UCmdUNLWfRA2MvXlN9c5vtNA,,Coding for Success Episode 4: Why and How to Test Your RPA Robots,8fiaHwJNANs,https://www.youtube.com/watch?v=8fiaHwJNANs,https://i.ytimg.com/vi/8fiaHwJNANs/maxresdefault.jpg,2023-04-29,00:13:52,2023-17,"Robocorp,RPA,testing","robocorp,rpa,testing",video,video,YouTube,youtube
30688,Robocorp,UCmdUNLWfRA2MvXlN9c5vtNA,robocorp,https://www.youtube.com/channel/UCmdUNLWfRA2MvXlN9c5vtNA,,"Tommi Talk Episode 7: The All New Robocorp Control Room. New UI, Even More Control",ydjyNf8H6Ko,https://www.youtube.com/watch?v=ydjyNf8H6Ko,https://i.ytimg.com/vi/ydjyNf8H6Ko/maxresdefault.jpg,2023-04-19,00:12:39,2023-16,"Control Room,Robocorp,RPA","control-room,robocorp,rpa",video,video,YouTube,youtube
30692,Robocorp,UCmdUNLWfRA2MvXlN9c5vtNA,robocorp,https://www.youtube.com/channel/UCmdUNLWfRA2MvXlN9c5vtNA,,Product Hour Live - April 2023 Edition,Cpiia6dhT7U,https://www.youtube.com/watch?v=Cpiia6dhT7U,https://i.ytimg.com/vi/Cpiia6dhT7U/maxresdefault.jpg,2023-04-19,01:06:52,2023-16,"Robocorp,RPA","robocorp,rpa",video,video,YouTube,youtube
30691,Robocorp,UCmdUNLWfRA2MvXlN9c5vtNA,robocorp,https://www.youtube.com/channel/UCmdUNLWfRA2MvXlN9c5vtNA,,Product Hour Live - April 2023 Edition,3Nft3N85rM8,https://www.youtube.com/watch?v=3Nft3N85rM8,https://i.ytimg.com/vi/3Nft3N85rM8/maxresdefault.jpg,2023-04-19,01:02:40,2023-16,"Robocorp,RPA","robocorp,rpa",video,video,YouTube,youtube
30552,Robocorp,UCmdUNLWfRA2MvXlN9c5vtNA,robocorp,https://www.youtube.com/channel/UCmdUNLWfRA2MvXlN9c5vtNA,,Robocorp Announces Video Streaming for Unattended Bots,_kevv1KtGyQ,https://www.youtube.com/watch?v=_kevv1KtGyQ,https://i.ytimg.com/vi/_kevv1KtGyQ/maxresdefault.jpg,2023-03-29,00:01:57,2023-13,"Robocorp,RPA","robocorp,rpa",video,video,YouTube,youtube
30553,Robocorp,UCmdUNLWfRA2MvXlN9c5vtNA,robocorp,https://www.youtube.com/channel/UCmdUNLWfRA2MvXlN9c5vtNA,,Coding for Success Vol. 2  - Planning for Your Next Automation Project,Kw1tnitcgQI,https://www.youtube.com/watch?v=Kw1tnitcgQI,https://i.ytimg.com/vi/Kw1tnitcgQI/maxresdefault.jpg,2023-03-29,00:06:51,2023-13,"Robocorp,RPA,Solution Design","robocorp,rpa,solution-design",video,video,YouTube,youtube
30544,Robocorp,UCmdUNLWfRA2MvXlN9c5vtNA,robocorp,https://www.youtube.com/channel/UCmdUNLWfRA2MvXlN9c5vtNA,,Tommi Talk Episode 6.5: Developments in Generative AI,nDmLexw8T2M,https://www.youtube.com/watch?v=nDmLexw8T2M,https://i.ytimg.com/vi/nDmLexw8T2M/maxresdefault.jpg,2023-03-28,00:12:08,2023-13,"Artificial Intelligence,Robocorp,RPA","ai,robocorp,rpa",video,video,YouTube,youtube
30495,Robocorp,UCmdUNLWfRA2MvXlN9c5vtNA,robocorp,https://www.youtube.com/channel/UCmdUNLWfRA2MvXlN9c5vtNA,,Tommi Talk Episode 6: Developments in Generative AI + Attended Automations,o-vzN_S_DOU,https://www.youtube.com/watch?v=o-vzN_S_DOU,https://i.ytimg.com/vi/o-vzN_S_DOU/maxresdefault.jpg,2023-03-22,00:18:10,2023-12,"Artificial Intelligence,attended,Robocorp,RPA","ai,attended,robocorp,rpa",video,video,YouTube,youtube
30322,Robocorp,UCmdUNLWfRA2MvXlN9c5vtNA,robocorp,https://www.youtube.com/channel/UCmdUNLWfRA2MvXlN9c5vtNA,,Robocorp's Product Hour with Tejus Venkatesh - First Edition,W2RxhrQwBHc,https://www.youtube.com/watch?v=W2RxhrQwBHc,https://i.ytimg.com/vi/W2RxhrQwBHc/maxresdefault.jpg,2023-03-01,00:57:33,2023-9,"Robocorp,RPA","robocorp,rpa",video,video,YouTube,youtube
30316,Robocorp,UCmdUNLWfRA2MvXlN9c5vtNA,robocorp,https://www.youtube.com/channel/UCmdUNLWfRA2MvXlN9c5vtNA,,Coding for Success Vol.2  - Connecting Robocorp to Chat GPT,XQitrIgSlPU,https://www.youtube.com/watch?v=XQitrIgSlPU,https://i.ytimg.com/vi/XQitrIgSlPU/maxresdefault.jpg,2023-02-28,00:20:03,2023-9,"Artificial Intelligence,Robocorp,RPA","ai,robocorp,rpa",video,video,YouTube,youtube
30313,Robocorp,UCmdUNLWfRA2MvXlN9c5vtNA,robocorp,https://www.youtube.com/channel/UCmdUNLWfRA2MvXlN9c5vtNA,,Coding for Success Vol.2  - Connecting Robocorp to Chat GPT,6KJm0Ja0Ssw,https://www.youtube.com/watch?v=6KJm0Ja0Ssw,https://i.ytimg.com/vi/6KJm0Ja0Ssw/maxresdefault.jpg,2023-02-27,00:20:03,2023-9,"Artificial Intelligence,Robocorp,RPA","ai,robocorp,rpa",video,video,YouTube,youtube
30299,Robocorp,UCmdUNLWfRA2MvXlN9c5vtNA,robocorp,https://www.youtube.com/channel/UCmdUNLWfRA2MvXlN9c5vtNA,,Tommi Talk Episode 5: New Robocorp Features,_Y3HM5ytMF0,https://www.youtube.com/watch?v=_Y3HM5ytMF0,https://i.ytimg.com/vi/_Y3HM5ytMF0/maxresdefault.jpg,2023-02-23,00:16:29,2023-8,"Robocorp,RPA","robocorp,rpa",video,video,YouTube,youtube
30126,Robocorp,UCmdUNLWfRA2MvXlN9c5vtNA,robocorp,https://www.youtube.com/channel/UCmdUNLWfRA2MvXlN9c5vtNA,,Coding for Success Vol.1  - Reading Robocorp Documentation Pages,rGop7UZ7oRU,https://www.youtube.com/watch?v=rGop7UZ7oRU,https://i.ytimg.com/vi/rGop7UZ7oRU/maxresdefault.jpg,2023-01-26,00:14:14,2023-4,"Robocorp,RPA","robocorp,rpa",video,video,YouTube,youtube
30115,Robocorp,UCmdUNLWfRA2MvXlN9c5vtNA,robocorp,https://www.youtube.com/channel/UCmdUNLWfRA2MvXlN9c5vtNA,,Welcome to Robocorp’s Coding for Success Series!,2FwvhQsGrnI,https://www.youtube.com/watch?v=2FwvhQsGrnI,https://i.ytimg.com/vi/2FwvhQsGrnI/maxresdefault.jpg,2023-01-24,00:01:01,2023-4,"Robocorp,RPA","robocorp,rpa",video,video,YouTube,youtube
30086,Robocorp,UCmdUNLWfRA2MvXlN9c5vtNA,robocorp,https://www.youtube.com/channel/UCmdUNLWfRA2MvXlN9c5vtNA,,Robocorp and Beyond Ep. 7 - The Evolution of RPA Within the Partner Ecosystem,KFw4BY-ykZ0,https://www.youtube.com/watch?v=KFw4BY-ykZ0,https://i.ytimg.com/vi/KFw4BY-ykZ0/maxresdefault.jpg,2023-01-19,00:49:56,2023-3,"Robocorp,RPA","robocorp,rpa",video,video,YouTube,youtube
30080,Harika Mudiam,UCDIBmgKBPBtNJrE0dQfnAYg,harika-mudiam,https://www.youtube.com/channel/UCDIBmgKBPBtNJrE0dQfnAYg,,Scenario based questions in Robocorp | Gmail Automation |  Part 3,YmiGwU8xZ7o,https://www.youtube.com/watch?v=YmiGwU8xZ7o,https://i.ytimg.com/vi_webp/YmiGwU8xZ7o/maxresdefault.webp,2023-01-19,00:18:10,2023-3,"email automation,Robocorp,RPA","email-automation,robocorp,rpa",video,video,YouTube,youtube
30063,Harika Mudiam,UCDIBmgKBPBtNJrE0dQfnAYg,harika-mudiam,https://www.youtube.com/channel/UCDIBmgKBPBtNJrE0dQfnAYg,,"Send Attachment, Multiple Attachemnts and Images in Mail   Robocorp   Part 2",9e3idJC8HLM,https://www.youtube.com/watch?v=9e3idJC8HLM,https://i.ytimg.com/vi_webp/9e3idJC8HLM/maxresdefault.webp,2023-01-17,00:09:57,2023-3,"email automation,Robocorp,RPA","email-automation,robocorp,rpa",video,video,YouTube,youtube
30043,Harika Mudiam,UCDIBmgKBPBtNJrE0dQfnAYg,harika-mudiam,https://www.youtube.com/channel/UCDIBmgKBPBtNJrE0dQfnAYg,,Send Mail using Robocorp  - Part 1,Ko13B_xkepY,https://www.youtube.com/watch?v=Ko13B_xkepY,https://i.ytimg.com/vi_webp/Ko13B_xkepY/maxresdefault.webp,2023-01-13,00:11:52,2023-2,"email automation,Robocorp,RPA","email-automation,robocorp,rpa",video,video,YouTube,youtube
29993,Robocorp,UCmdUNLWfRA2MvXlN9c5vtNA,robocorp,https://www.youtube.com/channel/UCmdUNLWfRA2MvXlN9c5vtNA,,Robocorp and Beyond Ep. 6 - RPA Trends for 2023 + ChatGPT w/ Tom Taulli,CRkHnunJAJY,https://www.youtube.com/watch?v=CRkHnunJAJY,https://i.ytimg.com/vi/CRkHnunJAJY/maxresdefault.jpg,2023-01-05,00:46:29,2023-1,"Robocorp,RPA","robocorp,rpa",video,video,YouTube,youtube
29793,Robocorp,UCmdUNLWfRA2MvXlN9c5vtNA,robocorp,https://www.youtube.com/channel/UCmdUNLWfRA2MvXlN9c5vtNA,,Robocorp and Beyond Ep. 5 - IDP + RPA - Benefits of Base64.ai & Robocorp,OfNxQAKSQaA,https://www.youtube.com/watch?v=OfNxQAKSQaA,https://i.ytimg.com/vi/OfNxQAKSQaA/maxresdefault.jpg,2022-12-20,00:30:16,2022-51,"Robocorp,RPA","robocorp,rpa",video,video,YouTube,youtube
29719,Harika Mudiam,UCDIBmgKBPBtNJrE0dQfnAYg,harika-mudiam,https://www.youtube.com/channel/UCDIBmgKBPBtNJrE0dQfnAYg,,How to Export results to PDF  - What is Teardown  -  Part 7,J05i01-r0zg,https://www.youtube.com/watch?v=J05i01-r0zg,https://i.ytimg.com/vi/J05i01-r0zg/maxresdefault.jpg,2022-12-02,00:12:37,2022-48,"PDF,Robocorp,RPA","pdf,robocorp,rpa",video,video,YouTube,youtube
29667,Harika Mudiam,UCDIBmgKBPBtNJrE0dQfnAYg,harika-mudiam,https://www.youtube.com/channel/UCDIBmgKBPBtNJrE0dQfnAYg,,How to take screenshot using Robocorp - Level 1 Certification - Part 6,23EwHQqn074,https://www.youtube.com/watch?v=23EwHQqn074,https://i.ytimg.com/vi/23EwHQqn074/maxresdefault.jpg,2022-11-23,00:12:21,2022-47,"debugging,Robocorp,RPA","debugging,robocorp,rpa",video,video,YouTube,youtube
29660,Harika Mudiam,UCDIBmgKBPBtNJrE0dQfnAYg,harika-mudiam,https://www.youtube.com/channel/UCDIBmgKBPBtNJrE0dQfnAYg,,How to Fill Form Dynamically for each record in Excel file - Level 1 Certification - Part 5,J5SlH6firoM,https://www.youtube.com/watch?v=J5SlH6firoM,https://i.ytimg.com/vi_webp/J5SlH6firoM/maxresdefault.webp,2022-11-22,00:14:11,2022-47,"Excel,Robocorp,RPA","excel,robocorp,rpa",video,video,YouTube,youtube
29659,Harika Mudiam,UCDIBmgKBPBtNJrE0dQfnAYg,harika-mudiam,https://www.youtube.com/channel/UCDIBmgKBPBtNJrE0dQfnAYg,,"Select From List By Index, Value & Label in Robocorp | Fill a Web Form in RoboCorp - Level 1 Part 4",v06il7h1rCs,https://www.youtube.com/watch?v=v06il7h1rCs,https://i.ytimg.com/vi_webp/v06il7h1rCs/maxresdefault.webp,2022-11-21,00:17:24,2022-47,"Robocorp,RPA,selectors","robocorp,rpa,selectors",video,video,YouTube,youtube
29643,Tom's Tech Academy,UCstCuI_7DvHw7-KSA3Yy9PQ,tom-s-tech-academy,https://www.youtube.com/channel/UCstCuI_7DvHw7-KSA3Yy9PQ,,Tutorial | How to send email with Robocorp | RPA Framework,onZ85EmTHeg,https://www.youtube.com/watch?v=onZ85EmTHeg,https://i.ytimg.com/vi_webp/onZ85EmTHeg/maxresdefault.webp,2022-11-19,00:03:53,2022-46,"email automation,Robocorp,RPA","email-automation,robocorp,rpa",video,video,YouTube,youtube
29614,Robocorp,UCmdUNLWfRA2MvXlN9c5vtNA,robocorp,https://www.youtube.com/channel/UCmdUNLWfRA2MvXlN9c5vtNA,,Tommi Talk Episode 4: Bot Speeds Exposed,exI9TB2exBM,https://www.youtube.com/watch?v=exI9TB2exBM,https://i.ytimg.com/vi_webp/exI9TB2exBM/maxresdefault.webp,2022-11-15,00:12:27,2022-46,"Robocorp,RPA","robocorp,rpa",video,video,YouTube,youtube
29606,Tom's Tech Academy,UCstCuI_7DvHw7-KSA3Yy9PQ,tom-s-tech-academy,https://www.youtube.com/channel/UCstCuI_7DvHw7-KSA3Yy9PQ,,Robocorp Beginners Tutorial - Getting Started with Robocorp RPA,RO-jiWj0VK8,https://www.youtube.com/watch?v=RO-jiWj0VK8,https://i.ytimg.com/vi_webp/RO-jiWj0VK8/maxresdefault.webp,2022-11-14,00:12:14,2022-46,"Robocorp,RPA","robocorp,rpa",video,video,YouTube,youtube
29492,Tom's Tech Academy,UCstCuI_7DvHw7-KSA3Yy9PQ,tom-s-tech-academy,https://www.youtube.com/channel/UCstCuI_7DvHw7-KSA3Yy9PQ,,Robocorp Tutorial: Create PDF File based on Excel,tuLbrZvOhR4,https://www.youtube.com/watch?v=tuLbrZvOhR4,https://i.ytimg.com/vi_webp/tuLbrZvOhR4/maxresdefault.webp,2022-11-05,00:06:55,2022-44,"Excel,PDF,Robocorp,RPA","excel,pdf,robocorp,rpa",video,video,YouTube,youtube
29479,Tom's Tech Academy,UCstCuI_7DvHw7-KSA3Yy9PQ,tom-s-tech-academy,https://www.youtube.com/channel/UCstCuI_7DvHw7-KSA3Yy9PQ,,Creating a Robocorp RPA Bot Project with Python,GaMs3h2VoiE,https://www.youtube.com/watch?v=GaMs3h2VoiE,https://i.ytimg.com/vi/GaMs3h2VoiE/maxresdefault.jpg,2022-11-04,00:02:57,2022-44,"Python,Robocorp,RPA","python,robocorp,rpa",video,video,YouTube,youtube
29323,Tom's Tech Academy,UCstCuI_7DvHw7-KSA3Yy9PQ,tom-s-tech-academy,https://www.youtube.com/channel/UCstCuI_7DvHw7-KSA3Yy9PQ,,Robocorp Tutorial - How to Loop through each row in an Excel file?,0UHPKid1UlU,https://www.youtube.com/watch?v=0UHPKid1UlU,https://i.ytimg.com/vi/0UHPKid1UlU/maxresdefault.jpg,2022-10-19,00:13:32,2022-42,"control flow,Excel,Robocorp,RPA","control-flow,excel,robocorp,rpa",video,video,YouTube,youtube
29150,Robocorp,UCmdUNLWfRA2MvXlN9c5vtNA,robocorp,https://www.youtube.com/channel/UCmdUNLWfRA2MvXlN9c5vtNA,,Mastering Hyperautomation with Gen2 RPA,uJXXDbr_Hig,https://www.youtube.com/watch?v=uJXXDbr_Hig,https://i.ytimg.com/vi_webp/uJXXDbr_Hig/maxresdefault.webp,2022-09-28,00:19:20,2022-39,"Robocorp,RPA","robocorp,rpa",video,video,YouTube,youtube
27661,Robocorp,UCmdUNLWfRA2MvXlN9c5vtNA,robocorp,https://www.youtube.com/channel/UCmdUNLWfRA2MvXlN9c5vtNA,,Robocorp and Beyond Ep. 3 - Let’s Get Real About Citizen Development with Shail Khiyara,9tvSUKXUnAE,https://www.youtube.com/watch?v=9tvSUKXUnAE,https://i.ytimg.com/vi/9tvSUKXUnAE/maxresdefault.jpg,2022-09-21,00:20:59,2022-38,"Citizen Development,Robocorp,RPA","citizen-development,robocorp,rpa",video,video,YouTube,youtube
27659,Robocorp,UCmdUNLWfRA2MvXlN9c5vtNA,robocorp,https://www.youtube.com/channel/UCmdUNLWfRA2MvXlN9c5vtNA,,Koding with Kari - Robocorp Gen1 Bot Conversion Tool Tutorial,6H1XNdcH4w0,https://www.youtube.com/watch?v=6H1XNdcH4w0,https://i.ytimg.com/vi_webp/6H1XNdcH4w0/maxresdefault.webp,2022-09-20,00:45:25,2022-38,"Blue Prism,Robocorp,RPA","blue-prism,robocorp,rpa",video,video,YouTube,youtube
27658,Robocorp,UCmdUNLWfRA2MvXlN9c5vtNA,robocorp,https://www.youtube.com/channel/UCmdUNLWfRA2MvXlN9c5vtNA,,Koding with Kari - Gen1 Bot Conversion Tool Overview - Robocorp Automation Studio,Ilg4N61uQtw,https://www.youtube.com/watch?v=Ilg4N61uQtw,https://i.ytimg.com/vi/Ilg4N61uQtw/hqdefault.jpg,2022-09-07,00:04:16,2022-36,"Robocorp,RPA","robocorp,rpa",video,video,YouTube,youtube
24936,Tom's Tech Academy,UCstCuI_7DvHw7-KSA3Yy9PQ,tom-s-tech-academy,https://www.youtube.com/channel/UCstCuI_7DvHw7-KSA3Yy9PQ,,Create Digital Art with Robocorp Automation Studio RPA +AI,c5BFHfYEGJc,https://www.youtube.com/watch?v=c5BFHfYEGJc,https://i.ytimg.com/vi_webp/c5BFHfYEGJc/maxresdefault.webp,2022-09-06,00:06:55,2022-36,"Robocorp,RPA","robocorp,rpa",video,video,YouTube,youtube
29081,Robocorp,UCmdUNLWfRA2MvXlN9c5vtNA,robocorp,https://www.youtube.com/channel/UCmdUNLWfRA2MvXlN9c5vtNA,,Create your own Robot Framework Library with Python,gutNvX3L-e4,https://www.youtube.com/watch?v=gutNvX3L-e4,https://i.ytimg.com/vi/gutNvX3L-e4/hqdefault.jpg,2022-08-25,00:57:18,2022-34,"Code Templates,Python,Robocorp,RPA","code-templates,python,robocorp,rpa",video,video,YouTube,youtube
29080,Robocorp,UCmdUNLWfRA2MvXlN9c5vtNA,robocorp,https://www.youtube.com/channel/UCmdUNLWfRA2MvXlN9c5vtNA,,Tommi Talk Episode 3 - Automation Studio,PLbThmj-5v0,https://www.youtube.com/watch?v=PLbThmj-5v0,https://i.ytimg.com/vi_webp/PLbThmj-5v0/maxresdefault.webp,2022-08-23,00:05:36,2022-34,"Robocorp,RPA","robocorp,rpa",video,video,YouTube,youtube
29079,Robocorp,UCmdUNLWfRA2MvXlN9c5vtNA,robocorp,https://www.youtube.com/channel/UCmdUNLWfRA2MvXlN9c5vtNA,,Robocorp Introduces Automation Studio - the RPA Editor for Coders and Citizen Developers,7rePLMQFf_A,https://www.youtube.com/watch?v=7rePLMQFf_A,https://i.ytimg.com/vi_webp/7rePLMQFf_A/sddefault.webp,2022-08-22,00:02:28,2022-34,"Robocorp,RPA","robocorp,rpa",video,video,YouTube,youtube
4235,Tom's Tech Academy,UCstCuI_7DvHw7-KSA3Yy9PQ,tom-s-tech-academy,https://www.youtube.com/channel/UCstCuI_7DvHw7-KSA3Yy9PQ,,Try Except Keyword in Robocorp Automation Studio,kEU7JxfmgDo,https://www.youtube.com/watch?v=kEU7JxfmgDo,https://i.ytimg.com/vi_webp/kEU7JxfmgDo/maxresdefault.webp,2022-08-20,00:03:32,2022-33,"exceptions,Robocorp,RPA","exceptions,robocorp,rpa",video,video,YouTube,youtube
4174,Harika Mudiam,UCDIBmgKBPBtNJrE0dQfnAYg,harika-mudiam,https://www.youtube.com/channel/UCDIBmgKBPBtNJrE0dQfnAYg,,Download Excel File,PQBoSkXIHS0,https://www.youtube.com/watch?v=PQBoSkXIHS0,https://i.ytimg.com/vi_webp/PQBoSkXIHS0/maxresdefault.webp,2022-08-06,00:14:24,2022-31,"browser,Robocorp,RPA","browser,robocorp,rpa",video,video,YouTube,youtube
4151,Harika Mudiam,UCDIBmgKBPBtNJrE0dQfnAYg,harika-mudiam,https://www.youtube.com/channel/UCDIBmgKBPBtNJrE0dQfnAYg,,Install Visual Studio Code for Robocorp | Level - I Part 1,am9oNKuiR4s,https://www.youtube.com/watch?v=am9oNKuiR4s,https://i.ytimg.com/vi_webp/am9oNKuiR4s/maxresdefault.webp,2022-08-01,00:07:38,2022-31,"Robocorp,RPA","robocorp,rpa",video,video,YouTube,youtube
29060,Robocorp,UCmdUNLWfRA2MvXlN9c5vtNA,robocorp,https://www.youtube.com/channel/UCmdUNLWfRA2MvXlN9c5vtNA,,Tommi Talk Episode 2: Airtable,ZjMMRevW3II,https://www.youtube.com/watch?v=ZjMMRevW3II,https://i.ytimg.com/vi/ZjMMRevW3II/hqdefault.jpg,2022-07-29,00:04:00,2022-30,"Airtable,Robocorp,RPA","airtable,robocorp,rpa",video,video,YouTube,youtube
29059,Robocorp,UCmdUNLWfRA2MvXlN9c5vtNA,robocorp,https://www.youtube.com/channel/UCmdUNLWfRA2MvXlN9c5vtNA,,Robocorp and Beyond Ep. 2 - Rasa Chatbots & RPA,_W3zviFY_-Y,https://www.youtube.com/watch?v=_W3zviFY_-Y,https://i.ytimg.com/vi_webp/_W3zviFY_-Y/maxresdefault.webp,2022-07-26,00:39:00,2022-30,"Chatbots,Robocorp,RPA","chatbots,robocorp,rpa",video,video,YouTube,youtube
29058,Robocorp,UCmdUNLWfRA2MvXlN9c5vtNA,robocorp,https://www.youtube.com/channel/UCmdUNLWfRA2MvXlN9c5vtNA,,Build Automations Your Way With Robocorp's Open Source Gen2 RPA,9HXhOCP-zY0,https://www.youtube.com/watch?v=9HXhOCP-zY0,https://i.ytimg.com/vi_webp/9HXhOCP-zY0/maxresdefault.webp,2022-07-26,00:00:00,2022-30,"Robocorp,RPA","robocorp,rpa",video,video,YouTube,youtube
29050,Robocorp,UCmdUNLWfRA2MvXlN9c5vtNA,robocorp,https://www.youtube.com/channel/UCmdUNLWfRA2MvXlN9c5vtNA,,Tommi Talk - Rasa Chatbots & Robocorp Integration,PRvVqnOioOg,https://www.youtube.com/watch?v=PRvVqnOioOg,https://i.ytimg.com/vi_webp/PRvVqnOioOg/maxresdefault.webp,2022-07-18,00:04:00,2022-29,"Chatbots,Robocorp,RPA","chatbots,robocorp,rpa",video,video,YouTube,youtube
29043,Robocorp,UCmdUNLWfRA2MvXlN9c5vtNA,robocorp,https://www.youtube.com/channel/UCmdUNLWfRA2MvXlN9c5vtNA,,Robocorp Brand Reel 2022,ciJZRDS4VDE,https://www.youtube.com/watch?v=ciJZRDS4VDE,https://i.ytimg.com/vi/ciJZRDS4VDE/hqdefault.jpg,2022-07-08,00:00:00,2022-27,"Robocorp,RPA","robocorp,rpa",video,video,YouTube,youtube
29025,Robocorp,UCmdUNLWfRA2MvXlN9c5vtNA,robocorp,https://www.youtube.com/channel/UCmdUNLWfRA2MvXlN9c5vtNA,,Parallelization: Work Data Management using Producer-Consumer Automation,h7euUM3E5aY,https://www.youtube.com/watch?v=h7euUM3E5aY,https://i.ytimg.com/vi/h7euUM3E5aY/hqdefault.jpg,2022-06-17,00:53:00,2022-24,"Robocorp,RPA,scalability","robocorp,rpa,scalability",video,video,YouTube,youtube
28722,Robocorp,UCmdUNLWfRA2MvXlN9c5vtNA,robocorp,https://www.youtube.com/channel/UCmdUNLWfRA2MvXlN9c5vtNA,,Debug in VS Code | Robocorp,F2JSijoDXw8,https://www.youtube.com/watch?v=F2JSijoDXw8,https://i.ytimg.com/vi/F2JSijoDXw8/maxresdefault.jpg,2021-09-29,00:05:00,2021-39,"debugging,Robocorp,RPA","debugging,robocorp,rpa",video,video,YouTube,youtube
28504,RPA Jargon Buster,UCY9qt6YwZOJwH-oWHzidGeQ,rpa-jargon-buster,https://www.youtube.com/channel/UCY9qt6YwZOJwH-oWHzidGeQ,,License Plate Automation with ML OCR and Robocorp,O1XAmyh2Bcs,https://www.youtube.com/watch?v=O1XAmyh2Bcs,https://i.ytimg.com/vi/O1XAmyh2Bcs/maxresdefault.jpg,2021-05-13,00:14:00,2021-19,"ML,Robocorp,RPA","ml,robocorp,rpa",video,video,YouTube,youtube
28491,Robocorp,UCmdUNLWfRA2MvXlN9c5vtNA,robocorp,https://www.youtube.com/channel/UCmdUNLWfRA2MvXlN9c5vtNA,,How to use IF / ELSE IF / ELSE in Robot Framework,QinyCvsXiDo,https://www.youtube.com/watch?v=QinyCvsXiDo,https://i.ytimg.com/vi/QinyCvsXiDo/maxresdefault.jpg,2021-05-06,00:03:00,2021-18,"control flow,Robocorp,RPA","control-flow,robocorp,rpa",video,video,YouTube,youtube
28451,Robocorp,UCmdUNLWfRA2MvXlN9c5vtNA,robocorp,https://www.youtube.com/channel/UCmdUNLWfRA2MvXlN9c5vtNA,,Using for loops in Robot Framework and Python,mR1CcBCJwpU,https://www.youtube.com/watch?v=mR1CcBCJwpU,https://i.ytimg.com/vi/mR1CcBCJwpU/maxresdefault.jpg,2021-04-15,00:04:00,2021-15,"control flow,Robocorp,RPA","control-flow,robocorp,rpa",video,video,YouTube,youtube
28449,Robocorp,UCmdUNLWfRA2MvXlN9c5vtNA,robocorp,https://www.youtube.com/channel/UCmdUNLWfRA2MvXlN9c5vtNA,,How to structure your robot | Robocorp,ZlpARxuiYfY,https://www.youtube.com/watch?v=ZlpARxuiYfY,https://i.ytimg.com/vi/ZlpARxuiYfY/maxresdefault.jpg,2021-04-14,00:05:00,2021-15,"Robocorp,RPA,Solution Design","robocorp,rpa,solution-design",video,video,YouTube,youtube
28279,Robocorp,UCmdUNLWfRA2MvXlN9c5vtNA,robocorp,https://www.youtube.com/channel/UCmdUNLWfRA2MvXlN9c5vtNA,,Getting started with Robocorp Lab: 3. Upload robots to Robocorp Cloud,mqZlo-eb7hM,https://www.youtube.com/watch?v=mqZlo-eb7hM,https://i.ytimg.com/vi_webp/mqZlo-eb7hM/maxresdefault.webp,2020-11-19,00:01:00,2020-47,"Robocorp,RPA","robocorp,rpa",video,video,YouTube,youtube
28273,Robocorp,UCmdUNLWfRA2MvXlN9c5vtNA,robocorp,https://www.youtube.com/channel/UCmdUNLWfRA2MvXlN9c5vtNA,,Getting started with Robocorp Lab: 1. Installation and setup,YtWjHBCbThc,https://www.youtube.com/watch?v=YtWjHBCbThc,https://i.ytimg.com/vi_webp/YtWjHBCbThc/maxresdefault.webp,2020-11-19,00:01:00,2020-47,"Robocorp,RPA","robocorp,rpa",video,video,YouTube,youtube
28252,Robocorp,UCmdUNLWfRA2MvXlN9c5vtNA,robocorp,https://www.youtube.com/channel/UCmdUNLWfRA2MvXlN9c5vtNA,,Build with Robocorp: 1. Live coding a lyrics translator robot in VS Code,HFFhSCYlUhc,https://www.youtube.com/watch?v=HFFhSCYlUhc,https://i.ytimg.com/vi_webp/HFFhSCYlUhc/maxresdefault.webp,2020-11-02,00:50:00,2020-45,"Robocorp,RPA,Use Case","robocorp,rpa,usecase",video,video,YouTube,youtube
28122,Robocorp,UCmdUNLWfRA2MvXlN9c5vtNA,robocorp,https://www.youtube.com/channel/UCmdUNLWfRA2MvXlN9c5vtNA,,Solving the RPA Challenge in under 1.5 seconds with Robot Framework and Robocode Lab,k-o9MqScDwM,https://www.youtube.com/watch?v=k-o9MqScDwM,https://i.ytimg.com/vi_webp/k-o9MqScDwM/maxresdefault.webp,2020-05-11,00:03:00,2020-20,"Robocorp,Robot Framework,RPA","robocorp,robot-framework,rpa",video,video,YouTube,youtube
