id,org_name,org_identifier,org_slug,org_url,person,title,platform_identifier,url,thumbnail_src,published_at,duration,year_week,tags,tags_slugs,type_name,type_slug,platform_name,platform_slug
30347,Daniel Christian,UC2v4TcvO4rdDdfqd6rUR5yg,daniel-christian,https://www.youtube.com/channel/UC2v4TcvO4rdDdfqd6rUR5yg,,Power Automate for Desktop PDF Creator Using Word Template,lYuvBSNKgrk,https://www.youtube.com/watch?v=lYuvBSNKgrk,https://i.ytimg.com/vi/lYuvBSNKgrk/maxresdefault.jpg,2023-03-06,00:38:07,2023-10,"lowcode,MS Power Automate Desktop,MS Word,PDF,RPA","lowcode,ms-power-automate-desktop,ms-word,pdf,rpa",video,video,YouTube,youtube
30114,Marcelo Cruz,UCZiebEnHb2xPokSLdCasVNQ,marcelo-cruz,https://www.youtube.com/channel/UCZiebEnHb2xPokSLdCasVNQ,,Word Automation with UiPath: A Step-by-Step Guide,7pbCoGSMOqk,https://www.youtube.com/watch?v=7pbCoGSMOqk,https://i.ytimg.com/vi_webp/7pbCoGSMOqk/maxresdefault.webp,2023-01-24,00:10:01,2023-4,"MS Word,RPA,UiPath,UiPath Studio","ms-word,rpa,uipath,uipath-studio",video,video,YouTube,youtube
29562,Reboot the work - Uipath,UCb_s0ySmdX17oZpcIpQrrzw,reboot-the-work-uipath,https://www.youtube.com/channel/UCb_s0ySmdX17oZpcIpQrrzw,,Uipath Tutorial | Word automation using UiPath (Part - I),NsRejhgvrsI,https://www.youtube.com/watch?v=NsRejhgvrsI,https://i.ytimg.com/vi/NsRejhgvrsI/maxresdefault.jpg,2022-10-24,00:09:14,2022-43,"MS Word,RPA,UiPath","ms-word,rpa,uipath",video,video,YouTube,youtube
29563,Reboot the work - Uipath,UCb_s0ySmdX17oZpcIpQrrzw,reboot-the-work-uipath,https://www.youtube.com/channel/UCb_s0ySmdX17oZpcIpQrrzw,,Uipath Tutorial | Word automation using UiPath (Part - II),GeqkRDpUL7o,https://www.youtube.com/watch?v=GeqkRDpUL7o,https://i.ytimg.com/vi/GeqkRDpUL7o/maxresdefault.jpg,2022-10-24,00:15:44,2022-43,"MS Word,RPA,UiPath","ms-word,rpa,uipath",video,video,YouTube,youtube
27600,Tom's Tech Academy,UCstCuI_7DvHw7-KSA3Yy9PQ,tom-s-tech-academy,https://www.youtube.com/channel/UCstCuI_7DvHw7-KSA3Yy9PQ,,UiPath Studio X Tutorial - Word Automation | Create Resumes,D9pqt4UtF_s,https://www.youtube.com/watch?v=D9pqt4UtF_s,https://i.ytimg.com/vi/D9pqt4UtF_s/hqdefault.jpg,2022-09-13,00:07:24,2022-37,"MS Word,RPA,UiPath,UiPath Studio X","ms-word,rpa,uipath,uipath-studio-x",video,video,YouTube,youtube
