id,org_name,org_identifier,org_slug,org_url,person,title,platform_identifier,url,thumbnail_src,published_at,duration,year_week,tags,tags_slugs,type_name,type_slug,platform_name,platform_slug
29313,Nikhilesh Sathyavarapu,UCX7JWJAN6S8CVjFRliDdEjw,nikhilesh-sathyavarapu,https://www.youtube.com/channel/UCX7JWJAN6S8CVjFRliDdEjw,,#uipathrpa #uipathinsights #uipathcommunity #uipathrpa,sm2oc3b2hWQ,https://www.youtube.com/watch?v=sm2oc3b2hWQ,https://i.ytimg.com/vi/sm2oc3b2hWQ/sd2.jpg?sqp=-oaymwEoCIAFEOAD8quKqQMcGADwAQH4Ac4FgAKACooCDAgAEAEYciBPKDwwDw==&rs=AOn4CLC9u1U9R9Hkn9R1k39MMNDVot2FgQ,2022-10-19,00:00:56,2022-42,"RPA,UiPath,UiPath Insights","rpa,uipath,uipath-insights",video,video,YouTube,youtube
29314,Nikhilesh Sathyavarapu,UCX7JWJAN6S8CVjFRliDdEjw,nikhilesh-sathyavarapu,https://www.youtube.com/channel/UCX7JWJAN6S8CVjFRliDdEjw,,features of UiPath Insights... #uipathrpa #uipathcommunity,-kXZTxIYEeQ,https://www.youtube.com/watch?v=-kXZTxIYEeQ,https://i.ytimg.com/vi/-kXZTxIYEeQ/sd2.jpg?sqp=-oaymwEoCIAFEOAD8quKqQMcGADwAQH4Ac4FgAKACooCDAgAEAEYZSBKKEYwDw==&rs=AOn4CLBRXN35dNGy-oPcX9YL6okRndSlxA,2022-10-19,00:00:15,2022-42,"RPA,UiPath,UiPath Insights","rpa,uipath,uipath-insights",video,video,YouTube,youtube
29315,Nikhilesh Sathyavarapu,UCX7JWJAN6S8CVjFRliDdEjw,nikhilesh-sathyavarapu,https://www.youtube.com/channel/UCX7JWJAN6S8CVjFRliDdEjw,,UiPath Insights is Free? #uipathrpa #uipathcommunity,SA1BoMh2Ze0,https://www.youtube.com/watch?v=SA1BoMh2Ze0,https://i.ytimg.com/vi/SA1BoMh2Ze0/sd2.jpg?sqp=-oaymwEoCIAFEOAD8quKqQMcGADwAQH4Ac4FgAKACooCDAgAEAEYZSBUKEUwDw==&rs=AOn4CLAR4joNvxIuLmFNStA8THAEomx4lg,2022-10-19,00:00:39,2022-42,"RPA,UiPath,UiPath Insights","rpa,uipath,uipath-insights",video,video,YouTube,youtube
29319,Nikhilesh Sathyavarapu,UCX7JWJAN6S8CVjFRliDdEjw,nikhilesh-sathyavarapu,https://www.youtube.com/channel/UCX7JWJAN6S8CVjFRliDdEjw,,Why UiPath Insights?? #uipathrpa #uipathcommunity,7106Ijd39AU,https://www.youtube.com/watch?v=7106Ijd39AU,https://i.ytimg.com/vi/7106Ijd39AU/sd2.jpg?sqp=-oaymwEoCIAFEOAD8quKqQMcGADwAQH4Ac4FgAKACooCDAgAEAEYZSBbKFAwDw==&rs=AOn4CLDaEzGpvsF5OjRUeU3ZqVh23ucUJA,2022-10-19,00:00:31,2022-42,"RPA,UiPath,UiPath Insights","rpa,uipath,uipath-insights",video,video,YouTube,youtube
