id,org_name,org_identifier,org_slug,org_url,person,title,platform_identifier,url,thumbnail_src,published_at,duration,year_week,tags,tags_slugs,type_name,type_slug,platform_name,platform_slug
30827,Softchief Learn,4711,softchief-learn,https://www.youtube.com/channel/UCx28J1vtdIZId2ztVgFiJPQ,,Confirm Dialog with Custom Buttons PowerFX in Model Driven App,8pbuFZk2T2g,https://www.youtube.com/watch?v=8pbuFZk2T2g,https://i.ytimg.com/vi_webp/8pbuFZk2T2g/maxresdefault.webp,2023-05-05,00:01:57,2023-18,"lowcode,Microsoft,Power Apps","lowcode,microsoft,ms-power-apps",video,video,YouTube,youtube
30796,Softchief Learn,4711,softchief-learn,https://www.youtube.com/channel/UCx28J1vtdIZId2ztVgFiJPQ,,Delete related record using command button powerfx in model driven power apps,pQRibrGnJM4,https://www.youtube.com/watch?v=pQRibrGnJM4,https://i.ytimg.com/vi_webp/pQRibrGnJM4/maxresdefault.webp,2023-05-02,00:05:51,2023-18,"lowcode,Microsoft,Power Apps","lowcode,microsoft,ms-power-apps",video,video,YouTube,youtube
30787,Softchief Learn,4711,softchief-learn,https://www.youtube.com/channel/UCx28J1vtdIZId2ztVgFiJPQ,,Form Submit Error handling in Canvas App Power Apps,KOQ1wdteA0c,https://www.youtube.com/watch?v=KOQ1wdteA0c,https://i.ytimg.com/vi_webp/KOQ1wdteA0c/maxresdefault.webp,2023-05-01,00:02:16,2023-18,"Error Handling,lowcode,Microsoft,Power Apps","errorhandling,lowcode,microsoft,ms-power-apps",video,video,YouTube,youtube
30789,Reza Dorrani,4711,reza-dorrani,https://www.youtube.com/channel/UCvBYTqRx-n_8KzFO0MJlUVw,,Power Apps Editable Grid using Gallery & Modern Controls (2023),76RJyaoW0BQ,https://www.youtube.com/watch?v=76RJyaoW0BQ,https://i.ytimg.com/vi/76RJyaoW0BQ/maxresdefault.jpg,2023-05-01,00:23:49,2023-18,"lowcode,Microsoft,Power Apps","lowcode,microsoft,ms-power-apps",video,video,YouTube,youtube
30766,Softchief Learn,4711,softchief-learn,https://www.youtube.com/channel/UCx28J1vtdIZId2ztVgFiJPQ,,Command Button to Clone Records in Power Apps,jhM7Tc7l6o8,https://www.youtube.com/watch?v=jhM7Tc7l6o8,https://i.ytimg.com/vi_webp/jhM7Tc7l6o8/maxresdefault.webp,2023-04-28,00:15:20,2023-17,"lowcode,Microsoft,Power Apps","lowcode,microsoft,ms-power-apps",video,video,YouTube,youtube
30756,Softchief Learn,4711,softchief-learn,https://www.youtube.com/channel/UCx28J1vtdIZId2ztVgFiJPQ,,How to increase Performance in Power Apps Canvas App | Performance Booster,Zo5JYsL3Aew,https://www.youtube.com/watch?v=Zo5JYsL3Aew,https://i.ytimg.com/vi_webp/Zo5JYsL3Aew/maxresdefault.webp,2023-04-27,00:07:31,2023-17,"lowcode,Microsoft,Power Apps,scalability","lowcode,microsoft,ms-power-apps,scalability",video,video,YouTube,youtube
30746,Softchief Learn,4711,softchief-learn,https://www.youtube.com/channel/UCx28J1vtdIZId2ztVgFiJPQ,,Build Custom API in Power Apps in 5 Minutes,V_6PFJidzpQ,https://www.youtube.com/watch?v=V_6PFJidzpQ,https://i.ytimg.com/vi/V_6PFJidzpQ/maxresdefault.jpg,2023-04-26,00:05:39,2023-17,"APIs,lowcode,Microsoft,Power Apps","apis,lowcode,microsoft,ms-power-apps",video,video,YouTube,youtube
30727,Daniel Christian,UC2v4TcvO4rdDdfqd6rUR5yg,daniel-christian,https://www.youtube.com/channel/UC2v4TcvO4rdDdfqd6rUR5yg,,Power Apps Copilot (preview) feature…Friend or Foe?,Z0Ug29LwEzg,https://www.youtube.com/watch?v=Z0Ug29LwEzg,https://i.ytimg.com/vi/Z0Ug29LwEzg/maxresdefault.jpg,2023-04-24,00:15:00,2023-17,"Artificial Intelligence,lowcode,Microsoft,Power Apps","ai,lowcode,microsoft,ms-power-apps",video,video,YouTube,youtube
30673,Softchief Learn,4711,softchief-learn,https://www.youtube.com/channel/UCx28J1vtdIZId2ztVgFiJPQ,,Hide Quick view form field conditionally power apps,14eetaUC8fg,https://www.youtube.com/watch?v=14eetaUC8fg,https://i.ytimg.com/vi_webp/14eetaUC8fg/maxresdefault.webp,2023-04-17,00:03:43,2023-16,"lowcode,Microsoft,Power Apps","lowcode,microsoft,ms-power-apps",video,video,YouTube,youtube
30676,Andrew Hess - MySPQuestions,UCH7RJ4zXEjFpfsm-6VZI8vw,andrew-hess-myspquestions,https://www.youtube.com/channel/UCH7RJ4zXEjFpfsm-6VZI8vw,,Beginner Tutorial: How to Write Multiple Lines at a Time in Power Apps,GnegIaClTQ4,https://www.youtube.com/watch?v=GnegIaClTQ4,https://i.ytimg.com/vi_webp/GnegIaClTQ4/maxresdefault.webp,2023-04-17,00:19:44,2023-16,"Database,lowcode,Microsoft,Power Apps","database,lowcode,microsoft,ms-power-apps",video,video,YouTube,youtube
30644,Daniel Christian,UC2v4TcvO4rdDdfqd6rUR5yg,daniel-christian,https://www.youtube.com/channel/UC2v4TcvO4rdDdfqd6rUR5yg,,Why Container Is Better Than Group in Power Apps,Ts-j2wPGVDI,https://www.youtube.com/watch?v=Ts-j2wPGVDI,https://i.ytimg.com/vi/Ts-j2wPGVDI/sd2.jpg,2023-04-12,00:01:00,2023-15,"lowcode,Microsoft,Power Apps","lowcode,microsoft,ms-power-apps",video,video,YouTube,youtube
30604,Softchief Learn,4711,softchief-learn,https://www.youtube.com/channel/UCx28J1vtdIZId2ztVgFiJPQ,,Show Loader in Canvas App Power Apps,y1hiUYP5Cpk,https://www.youtube.com/watch?v=y1hiUYP5Cpk,https://i.ytimg.com/vi_webp/y1hiUYP5Cpk/maxresdefault.webp,2023-04-04,00:07:05,2023-14,"lowcode,Microsoft,Power Apps","lowcode,microsoft,ms-power-apps",video,video,YouTube,youtube
30603,Softchief Learn,4711,softchief-learn,https://www.youtube.com/channel/UCx28J1vtdIZId2ztVgFiJPQ,,Show Progress Bar/ Indicator in Canvas Apps Power Apps,9gPIT5q8UTw,https://www.youtube.com/watch?v=9gPIT5q8UTw,https://i.ytimg.com/vi/9gPIT5q8UTw/maxresdefault.jpg,2023-04-04,00:05:59,2023-14,"lowcode,Microsoft,Power Apps","lowcode,microsoft,ms-power-apps",video,video,YouTube,youtube
30591,Reza Dorrani,4711,reza-dorrani,https://www.youtube.com/channel/UCvBYTqRx-n_8KzFO0MJlUVw,,Get started with Modern Controls in Canvas Power Apps,eNhCQ7Y2x7o,https://www.youtube.com/watch?v=eNhCQ7Y2x7o,https://i.ytimg.com/vi/eNhCQ7Y2x7o/maxresdefault.jpg,2023-04-03,00:07:46,2023-14,"lowcode,Microsoft,Power Apps","lowcode,microsoft,ms-power-apps",video,video,YouTube,youtube
30588,Parth Doshi - Learning By Doing,UCznYd5txTJFJ3ar7HD8WUdQ,parth-doshi-learning-by-doing,https://www.youtube.com/channel/UCznYd5txTJFJ3ar7HD8WUdQ,,Role-Based Access Inventory Management App using UiPath Apps and Data Service,-m_aSsq1HcU,https://www.youtube.com/watch?v=-m_aSsq1HcU,https://i.ytimg.com/vi/-m_aSsq1HcU/maxresdefault.jpg,2023-04-03,00:08:49,2023-14,"lowcode,Microsoft,MS Power Automate,Power Apps,Use Case","lowcode,microsoft,ms-power-automate,ms-power-apps,usecase",video,video,YouTube,youtube
30592,Daniel Christian,UC2v4TcvO4rdDdfqd6rUR5yg,daniel-christian,https://www.youtube.com/channel/UC2v4TcvO4rdDdfqd6rUR5yg,,Modern Controls Coming to Power Apps Canvas Apps,OkaQEzjNUeQ,https://www.youtube.com/watch?v=OkaQEzjNUeQ,https://i.ytimg.com/vi/OkaQEzjNUeQ/maxresdefault.jpg,2023-04-03,00:22:21,2023-14,"lowcode,Microsoft,Power Apps","lowcode,microsoft,ms-power-apps",video,video,YouTube,youtube
30594,Andrew Hess - MySPQuestions,UCH7RJ4zXEjFpfsm-6VZI8vw,andrew-hess-myspquestions,https://www.youtube.com/channel/UCH7RJ4zXEjFpfsm-6VZI8vw,,Leave Time-Off App in Under 30 Minutes using Teams / Power Automate / Power Apps,5nL7PvL9jSQ,https://www.youtube.com/watch?v=5nL7PvL9jSQ,https://i.ytimg.com/vi_webp/5nL7PvL9jSQ/maxresdefault.webp,2023-04-03,00:26:33,2023-14,"lowcode,Microsoft,MS Power Automate,Power Apps,Use Case","lowcode,microsoft,ms-power-automate,ms-power-apps,usecase",video,video,YouTube,youtube
30551,Daniel Christian,UC2v4TcvO4rdDdfqd6rUR5yg,daniel-christian,https://www.youtube.com/channel/UC2v4TcvO4rdDdfqd6rUR5yg,,New Welcome Experience in Power Apps,ZVoB-0HFlsE,https://www.youtube.com/watch?v=ZVoB-0HFlsE,https://i.ytimg.com/vi/ZVoB-0HFlsE/sd2.jpg,2023-03-29,00:00:59,2023-13,"lowcode,Microsoft,Power Apps","lowcode,microsoft,ms-power-apps",video,video,YouTube,youtube
30535,Reza Dorrani,4711,reza-dorrani,https://www.youtube.com/channel/UCvBYTqRx-n_8KzFO0MJlUVw,,Speech to Text to Document AI in Power Platform | Whisper AI & GPT with Azure OpenAI,LBYirTVBEe4,https://www.youtube.com/watch?v=LBYirTVBEe4,https://i.ytimg.com/vi_webp/LBYirTVBEe4/maxresdefault.webp,2023-03-27,00:12:30,2023-13,"Artificial Intelligence,lowcode,Microsoft,Power Apps,Use Case","ai,lowcode,microsoft,ms-power-apps,usecase",video,video,YouTube,youtube
30523,Softchief Learn,4711,softchief-learn,https://www.youtube.com/channel/UCx28J1vtdIZId2ztVgFiJPQ,,Embed Images inside Email Body in Canvas Apps Power Apps,EYzeHa2WYxA,https://www.youtube.com/watch?v=EYzeHa2WYxA,https://i.ytimg.com/vi_webp/EYzeHa2WYxA/maxresdefault.webp,2023-03-24,00:10:43,2023-12,"email automation,lowcode,Microsoft,Power Apps","email-automation,lowcode,microsoft,ms-power-apps",video,video,YouTube,youtube
30522,Softchief Learn,4711,softchief-learn,https://www.youtube.com/channel/UCx28J1vtdIZId2ztVgFiJPQ,,Send email with HTML Email body in Canvas App Power Apps,hDccLSpcUwQ,https://www.youtube.com/watch?v=hDccLSpcUwQ,https://i.ytimg.com/vi_webp/hDccLSpcUwQ/maxresdefault.webp,2023-03-24,00:07:04,2023-12,"email automation,lowcode,Microsoft,Power Apps","email-automation,lowcode,microsoft,ms-power-apps",video,video,YouTube,youtube
30516,April Dunnam,UCz_x76EBX5UXsV27drGNh6w,april-dunnam,https://www.youtube.com/channel/UCz_x76EBX5UXsV27drGNh6w,,Embed a Power Virtual Agents bot in Power Apps #shorts,YuiCKzpKIyM,https://www.youtube.com/watch?v=YuiCKzpKIyM,https://i.ytimg.com/vi/YuiCKzpKIyM/sd2.jpg,2023-03-20,00:01:00,2023-12,"lowcode,Microsoft,Power Apps,Power Virtual Agents","lowcode,microsoft,ms-power-apps,power-virtual-agents",video,video,YouTube,youtube
30517,Andrew Hess - MySPQuestions,UCH7RJ4zXEjFpfsm-6VZI8vw,andrew-hess-myspquestions,https://www.youtube.com/channel/UCH7RJ4zXEjFpfsm-6VZI8vw,,Let's Chat about Modal Pop Ups in Power Apps,atctZcKWiIU,https://www.youtube.com/watch?v=atctZcKWiIU,https://i.ytimg.com/vi_webp/atctZcKWiIU/maxresdefault.webp,2023-03-20,00:12:59,2023-12,"lowcode,Microsoft,Power Apps","lowcode,microsoft,ms-power-apps",video,video,YouTube,youtube
30465,Reza Dorrani,4711,reza-dorrani,https://www.youtube.com/channel/UCvBYTqRx-n_8KzFO0MJlUVw,,Introduction to AI Copilot for Microsoft Power Apps - First Look Tutorial,nwr6I_Mxrns,https://www.youtube.com/watch?v=nwr6I_Mxrns,https://i.ytimg.com/vi/nwr6I_Mxrns/maxresdefault.jpg,2023-03-16,00:08:46,2023-11,"Artificial Intelligence,lowcode,Microsoft,Power Apps","ai,lowcode,microsoft,ms-power-apps",video,video,YouTube,youtube
30464,April Dunnam,UCz_x76EBX5UXsV27drGNh6w,april-dunnam,https://www.youtube.com/channel/UCz_x76EBX5UXsV27drGNh6w,,Power Apps Copilot is here - Let's Get Hands On With It,FMEQT8NC-5I,https://www.youtube.com/watch?v=FMEQT8NC-5I,https://i.ytimg.com/vi_webp/FMEQT8NC-5I/maxresdefault.webp,2023-03-16,00:10:35,2023-11,"Artificial Intelligence,lowcode,Microsoft,Power Apps","ai,lowcode,microsoft,ms-power-apps",video,video,YouTube,youtube
30466,April Dunnam,UCz_x76EBX5UXsV27drGNh6w,april-dunnam,https://www.youtube.com/channel/UCz_x76EBX5UXsV27drGNh6w,,New Power Apps Copilot Control #shorts,l6C9UJ9a56w,https://www.youtube.com/watch?v=l6C9UJ9a56w,https://i.ytimg.com/vi/l6C9UJ9a56w/sd2.jpg,2023-03-16,00:01:00,2023-11,"Artificial Intelligence,lowcode,Microsoft,Power Apps","ai,lowcode,microsoft,ms-power-apps",video,video,YouTube,youtube
30445,Reza Dorrani,4711,reza-dorrani,https://www.youtube.com/channel/UCvBYTqRx-n_8KzFO0MJlUVw,,Power Apps Related Galleries | Nested Gallery with Flexible Height,25_bdexevGk,https://www.youtube.com/watch?v=25_bdexevGk,https://i.ytimg.com/vi/25_bdexevGk/maxresdefault.jpg,2023-03-13,00:16:15,2023-11,"lowcode,Microsoft,Power Apps","lowcode,microsoft,ms-power-apps",video,video,YouTube,youtube
30448,Andrew Hess - MySPQuestions,UCH7RJ4zXEjFpfsm-6VZI8vw,andrew-hess-myspquestions,https://www.youtube.com/channel/UCH7RJ4zXEjFpfsm-6VZI8vw,,Power Apps Boards | Dataverse for Teams Template App,ittjx7AYOzI,https://www.youtube.com/watch?v=ittjx7AYOzI,https://i.ytimg.com/vi_webp/ittjx7AYOzI/maxresdefault.webp,2023-03-13,00:15:51,2023-11,"lowcode,Microsoft,Microsoft Dataverse,Power Apps","lowcode,microsoft,microsoft-dataverse,ms-power-apps",video,video,YouTube,youtube
30363,Daniel Christian,UC2v4TcvO4rdDdfqd6rUR5yg,daniel-christian,https://www.youtube.com/channel/UC2v4TcvO4rdDdfqd6rUR5yg,,New and Improved Left Navigation Panel in Power Apps,xi2c8LrnzGo,https://www.youtube.com/watch?v=xi2c8LrnzGo,https://i.ytimg.com/vi/xi2c8LrnzGo/sd2.jpg,2023-03-09,00:00:57,2023-10,"lowcode,Microsoft,Power Apps","lowcode,microsoft,ms-power-apps",video,video,YouTube,youtube
30350,Reza Dorrani,4711,reza-dorrani,https://www.youtube.com/channel/UCvBYTqRx-n_8KzFO0MJlUVw,,Introducing Open AI's ChatGPT API | Build Power App & use Chat GPT API,F3OpKuy8wB8,https://www.youtube.com/watch?v=F3OpKuy8wB8,https://i.ytimg.com/vi_webp/F3OpKuy8wB8/maxresdefault.webp,2023-03-06,00:12:29,2023-10,"APIs,Artificial Intelligence,lowcode,Power Apps","apis,ai,lowcode,ms-power-apps",video,video,YouTube,youtube
30326,Reza Dorrani,4711,reza-dorrani,https://www.youtube.com/channel/UCvBYTqRx-n_8KzFO0MJlUVw,,Reset Multiple Controls in Power Apps Quickly with this Pro Tip! #Shorts,kGh3uup0TBM,https://www.youtube.com/watch?v=kGh3uup0TBM,https://i.ytimg.com/vi/kGh3uup0TBM/sd2.jpg,2023-03-02,00:00:58,2023-9,"lowcode,Microsoft,Power Apps","lowcode,microsoft,ms-power-apps",video,video,YouTube,youtube
30310,Andrew Hess - MySPQuestions,UCH7RJ4zXEjFpfsm-6VZI8vw,andrew-hess-myspquestions,https://www.youtube.com/channel/UCH7RJ4zXEjFpfsm-6VZI8vw,,Part 3 Patching PowerApps that Looks Like SharePoint,LqFEFqRZzk0,https://www.youtube.com/watch?v=LqFEFqRZzk0,https://i.ytimg.com/vi_webp/LqFEFqRZzk0/maxresdefault.webp,2023-02-27,00:15:13,2023-9,"lowcode,Microsoft,Power Apps,RPA","lowcode,microsoft,ms-power-apps,rpa",video,video,YouTube,youtube
30297,Reza Dorrani,4711,reza-dorrani,https://www.youtube.com/channel/UCvBYTqRx-n_8KzFO0MJlUVw,,Power Apps Tip: How to Change Date & Time to 12 Hour Format in Seconds! #Shorts,Bhms6hD1i9E,https://www.youtube.com/watch?v=Bhms6hD1i9E,https://i.ytimg.com/vi/Bhms6hD1i9E/sd2.jpg,2023-02-23,00:01:00,2023-8,"DateTime,lowcode,Microsoft,Power Apps","datetime,lowcode,microsoft,ms-power-apps",video,video,YouTube,youtube
30296,Reza Dorrani,4711,reza-dorrani,https://www.youtube.com/channel/UCvBYTqRx-n_8KzFO0MJlUVw,,How to Download PDFs DIRECTLY from Power Apps with the PDF Function #Shorts,IGZc022MI_o,https://www.youtube.com/watch?v=IGZc022MI_o,https://i.ytimg.com/vi/IGZc022MI_o/sd2.jpg,2023-02-20,00:00:59,2023-8,"lowcode,Microsoft,PDF,Power Apps","lowcode,microsoft,pdf,ms-power-apps",video,video,YouTube,youtube
30304,Andrew Hess - MySPQuestions,UCH7RJ4zXEjFpfsm-6VZI8vw,andrew-hess-myspquestions,https://www.youtube.com/channel/UCH7RJ4zXEjFpfsm-6VZI8vw,,Turn your next PowerApp into a Desktop Application with Shortcuts,BotCtHBx8PA,https://www.youtube.com/watch?v=BotCtHBx8PA,https://i.ytimg.com/vi/BotCtHBx8PA/maxresdefault.jpg,2023-02-20,00:07:25,2023-8,"lowcode,Microsoft,Power Apps","lowcode,microsoft,ms-power-apps",video,video,YouTube,youtube
30264,RPA Hub,UCnSVBOMNpmC-6SxHmogmu8w,rpa-hub,https://www.youtube.com/channel/UCnSVBOMNpmC-6SxHmogmu8w,,How to Manage Secured information using Power Automate | Power Automate Tutorial,k5nsb5nTqlU,https://www.youtube.com/watch?v=k5nsb5nTqlU,https://i.ytimg.com/vi_webp/k5nsb5nTqlU/maxresdefault.webp,2023-02-18,00:05:15,2023-7,"credentials,lowcode,MS Power Automate,Power Apps","credentials,lowcode,ms-power-automate,ms-power-apps",video,video,YouTube,youtube
30252,RPA Hub,UCnSVBOMNpmC-6SxHmogmu8w,rpa-hub,https://www.youtube.com/channel/UCnSVBOMNpmC-6SxHmogmu8w,,How to Build Sentiment Analysis using Power Automate | Power Automate Tutorial,10fC9vL8mLo,https://www.youtube.com/watch?v=10fC9vL8mLo,https://i.ytimg.com/vi_webp/10fC9vL8mLo/maxresdefault.webp,2023-02-16,00:04:11,2023-7,"Artificial Intelligence,lowcode,Microsoft,Power Apps,RPA","ai,lowcode,microsoft,ms-power-apps,rpa",video,video,YouTube,youtube
30244,Softchief Learn,4711,softchief-learn,https://www.youtube.com/channel/UCx28J1vtdIZId2ztVgFiJPQ,,Sending Emails using Email Templates with Power Automate in Dataverse Power Apps,zgzIGYqOqhI,https://www.youtube.com/watch?v=zgzIGYqOqhI,https://i.ytimg.com/vi/zgzIGYqOqhI/maxresdefault.jpg,2023-02-15,00:04:54,2023-7,"email automation,lowcode,Microsoft,Power Apps","email-automation,lowcode,microsoft,ms-power-apps",video,video,YouTube,youtube
30243,Daniel Christian,UC2v4TcvO4rdDdfqd6rUR5yg,daniel-christian,https://www.youtube.com/channel/UC2v4TcvO4rdDdfqd6rUR5yg,,New Capabilities for Power Apps Developer Plan #Shorts,zISV2HfTfSY,https://www.youtube.com/watch?v=zISV2HfTfSY,https://i.ytimg.com/vi/zISV2HfTfSY/sd2.jpg,2023-02-15,00:00:59,2023-7,"lowcode,Microsoft,Power Apps","lowcode,microsoft,ms-power-apps",video,video,YouTube,youtube
30230,Andrew Hess - MySPQuestions,UCH7RJ4zXEjFpfsm-6VZI8vw,andrew-hess-myspquestions,https://www.youtube.com/channel/UCH7RJ4zXEjFpfsm-6VZI8vw,,All about Checkboxes in Power Apps and using them for more than a Boolean Value,-EJMm-y0WmA,https://www.youtube.com/watch?v=-EJMm-y0WmA,https://i.ytimg.com/vi_webp/-EJMm-y0WmA/maxresdefault.webp,2023-02-13,00:22:57,2023-7,"datatypes,lowcode,Microsoft,Power Apps","datatypes,lowcode,microsoft,ms-power-apps",video,video,YouTube,youtube
30191,Daniel Christian,UC2v4TcvO4rdDdfqd6rUR5yg,daniel-christian,https://www.youtube.com/channel/UC2v4TcvO4rdDdfqd6rUR5yg,,Top 5 Updates for Power Apps In The 2023 Release Wave 1 #Short,NP0aZhWqUro,https://www.youtube.com/watch?v=NP0aZhWqUro,https://i.ytimg.com/vi/NP0aZhWqUro/sd2.jpg,2023-02-07,00:01:00,2023-6,"lowcode,Microsoft,Power Apps","lowcode,microsoft,ms-power-apps",video,video,YouTube,youtube
30185,Andrew Hess - MySPQuestions,UCH7RJ4zXEjFpfsm-6VZI8vw,andrew-hess-myspquestions,https://www.youtube.com/channel/UCH7RJ4zXEjFpfsm-6VZI8vw,,Power Apps + Midjourney AI generated art can be used with the Power Platform,9MKYEV1SC1U,https://www.youtube.com/watch?v=9MKYEV1SC1U,https://i.ytimg.com/vi_webp/9MKYEV1SC1U/maxresdefault.webp,2023-02-06,00:13:21,2023-6,"Artificial Intelligence,lowcode,Microsoft,Power Apps","ai,lowcode,microsoft,ms-power-apps",video,video,YouTube,youtube
30165,RPA Hub,UCnSVBOMNpmC-6SxHmogmu8w,rpa-hub,https://www.youtube.com/channel/UCnSVBOMNpmC-6SxHmogmu8w,,Detailed Introduction of Microsoft Power Apps | Power Apps Tutorial,QK4nZHP6nFE,https://www.youtube.com/watch?v=QK4nZHP6nFE,https://i.ytimg.com/vi_webp/QK4nZHP6nFE/maxresdefault.webp,2023-02-02,00:08:59,2023-5,"Excel,lowcode,Microsoft,Power Apps","excel,lowcode,microsoft,ms-power-apps",video,video,YouTube,youtube
30157,RPA Hub,UCnSVBOMNpmC-6SxHmogmu8w,rpa-hub,https://www.youtube.com/channel/UCnSVBOMNpmC-6SxHmogmu8w,,How to Build App with Images using Power Automate | Power Automate Tutorial,LGoa2hO9WpE,https://www.youtube.com/watch?v=LGoa2hO9WpE,https://i.ytimg.com/vi_webp/LGoa2hO9WpE/maxresdefault.webp,2023-01-31,00:10:07,2023-5,"lowcode,Microsoft,MS Power Automate,Power Apps","lowcode,microsoft,ms-power-automate,ms-power-apps",video,video,YouTube,youtube
30145,Reza Dorrani,4711,reza-dorrani,https://www.youtube.com/channel/UCvBYTqRx-n_8KzFO0MJlUVw,,ChatGPT and Power Platform | How to use Chat GPT to build Power Apps and flows | Tutorial,NipyM8UKG6U,https://www.youtube.com/watch?v=NipyM8UKG6U,https://i.ytimg.com/vi/NipyM8UKG6U/maxresdefault.jpg,2023-01-30,00:12:38,2023-5,"Artificial Intelligence,lowcode,Microsoft,MS Power Automate,Power Apps","ai,lowcode,microsoft,ms-power-automate,ms-power-apps",video,video,YouTube,youtube
30144,Andrew Hess - MySPQuestions,UCH7RJ4zXEjFpfsm-6VZI8vw,andrew-hess-myspquestions,https://www.youtube.com/channel/UCH7RJ4zXEjFpfsm-6VZI8vw,,More! Make Power Apps UI/UX like SharePoint Quickly Part 2!,9PLaBpFv-VA,https://www.youtube.com/watch?v=9PLaBpFv-VA,https://i.ytimg.com/vi_webp/9PLaBpFv-VA/maxresdefault.webp,2023-01-30,00:10:13,2023-5,"lowcode,Microsoft,Power Apps,SharePoint","lowcode,microsoft,ms-power-apps,sharepoint",video,video,YouTube,youtube
30119,Reza Dorrani,4711,reza-dorrani,https://www.youtube.com/channel/UCvBYTqRx-n_8KzFO0MJlUVw,,Power Apps - Add 'All' Option to Empty Dropdown when filtering Gallery #Shorts,fnKqUf69wEg,https://www.youtube.com/watch?v=fnKqUf69wEg,https://i.ytimg.com/vi/fnKqUf69wEg/sd2.jpg,2023-01-25,00:00:58,2023-4,"lowcode,Microsoft,Power Apps","lowcode,microsoft,ms-power-apps",video,video,YouTube,youtube
30108,Reza Dorrani,4711,reza-dorrani,https://www.youtube.com/channel/UCvBYTqRx-n_8KzFO0MJlUVw,,Design your Power Apps Forms | Form Control Tutorial,rFDFWQWk81k,https://www.youtube.com/watch?v=rFDFWQWk81k,https://i.ytimg.com/vi/rFDFWQWk81k/maxresdefault.jpg,2023-01-23,00:23:06,2023-4,"lowcode,Microsoft,MS Forms,MS Power Platform,Power Apps","lowcode,microsoft,ms-forms,mspp,ms-power-apps",video,video,YouTube,youtube
30107,Andrew Hess - MySPQuestions,UCH7RJ4zXEjFpfsm-6VZI8vw,andrew-hess-myspquestions,https://www.youtube.com/channel/UCH7RJ4zXEjFpfsm-6VZI8vw,,Lets Make Power Apps UI/UX like SharePoint Quickly!,OuJExHi4-LE,https://www.youtube.com/watch?v=OuJExHi4-LE,https://i.ytimg.com/vi_webp/OuJExHi4-LE/maxresdefault.webp,2023-01-23,00:13:18,2023-4,"lowcode,Microsoft,Power Apps","lowcode,microsoft,ms-power-apps",video,video,YouTube,youtube
30068,Andrew Hess - MySPQuestions,UCH7RJ4zXEjFpfsm-6VZI8vw,andrew-hess-myspquestions,https://www.youtube.com/channel/UCH7RJ4zXEjFpfsm-6VZI8vw,,Creating Recurring Calendar Events Every '2nd Tuesday' during a Month in PowerApps,RusgtfKbiKc,https://www.youtube.com/watch?v=RusgtfKbiKc,https://i.ytimg.com/vi_webp/RusgtfKbiKc/maxresdefault.webp,2023-01-17,00:18:40,2023-3,"DateTime,lowcode,Microsoft,Power Apps","datetime,lowcode,microsoft,ms-power-apps",video,video,YouTube,youtube
30062,Reza Dorrani,4711,reza-dorrani,https://www.youtube.com/channel/UCvBYTqRx-n_8KzFO0MJlUVw,,Power Apps DIRECTLY upload files to SharePoint Document Library | GRAPH API,n3mhe88BI34,https://www.youtube.com/watch?v=n3mhe88BI34,https://i.ytimg.com/vi/n3mhe88BI34/maxresdefault.jpg,2023-01-16,00:20:50,2023-3,"files,lowcode,Microsoft,Power Apps,SharePoint","files,lowcode,microsoft,ms-power-apps,sharepoint",video,video,YouTube,youtube
30020,Daniel Christian,UC2v4TcvO4rdDdfqd6rUR5yg,daniel-christian,https://www.youtube.com/channel/UC2v4TcvO4rdDdfqd6rUR5yg,,Power Apps Markups in Mixed Reality #Shorts,r4zdJolV5wY,https://www.youtube.com/watch?v=r4zdJolV5wY,https://i.ytimg.com/vi/r4zdJolV5wY/maxresdefault.jpg,2023-01-11,00:00:56,2023-2,"lowcode,Microsoft,Power Apps","lowcode,microsoft,ms-power-apps",video,video,YouTube,youtube
30006,Reza Dorrani,4711,reza-dorrani,https://www.youtube.com/channel/UCvBYTqRx-n_8KzFO0MJlUVw,,Power Apps Gallery Design Tutorial | Gallery UI styles,Jj4ZYztnUQ0,https://www.youtube.com/watch?v=Jj4ZYztnUQ0,https://i.ytimg.com/vi/Jj4ZYztnUQ0/maxresdefault.jpg,2023-01-09,00:16:21,2023-2,"lowcode,Microsoft,Power Apps","lowcode,microsoft,ms-power-apps",video,video,YouTube,youtube
29989,Softchief Learn,4711,softchief-learn,https://www.youtube.com/channel/UCx28J1vtdIZId2ztVgFiJPQ,,Get Set Combo Box Values Dynamically in Power Apps Canvas App,YuJ-O2B51ec,https://www.youtube.com/watch?v=YuJ-O2B51ec,https://i.ytimg.com/vi_webp/YuJ-O2B51ec/maxresdefault.webp,2023-01-04,00:06:02,2023-1,"lowcode,Microsoft,Power Apps","lowcode,microsoft,ms-power-apps",video,video,YouTube,youtube
29983,Andrew Hess - MySPQuestions,UCH7RJ4zXEjFpfsm-6VZI8vw,andrew-hess-myspquestions,https://www.youtube.com/channel/UCH7RJ4zXEjFpfsm-6VZI8vw,,Create your OWN Appending Comments,_fe-a38y30Y,https://www.youtube.com/watch?v=_fe-a38y30Y,https://i.ytimg.com/vi_webp/_fe-a38y30Y/maxresdefault.webp,2023-01-03,00:21:12,2023-1,"lowcode,Microsoft,Power Apps,RPA,SharePoint","lowcode,microsoft,ms-power-apps,rpa,sharepoint",video,video,YouTube,youtube
29788,Daniel Christian,UC2v4TcvO4rdDdfqd6rUR5yg,daniel-christian,https://www.youtube.com/channel/UC2v4TcvO4rdDdfqd6rUR5yg,,Replicate 6 Microsoft Forms Features in Power Apps Canvas,atceyb58-PU,https://www.youtube.com/watch?v=atceyb58-PU,https://i.ytimg.com/vi/atceyb58-PU/maxresdefault.jpg,2022-12-19,00:30:20,2022-51,"lowcode,Microsoft,MS Forms,MS Power Platform,Power Apps","lowcode,microsoft,ms-forms,mspp,ms-power-apps",video,video,YouTube,youtube
29789,Andrew Hess - MySPQuestions,UCH7RJ4zXEjFpfsm-6VZI8vw,andrew-hess-myspquestions,https://www.youtube.com/channel/UCH7RJ4zXEjFpfsm-6VZI8vw,,PowerApps Give Away Winner for PC Game Announced,weQJd9EPJys,https://www.youtube.com/watch?v=weQJd9EPJys,https://i.ytimg.com/vi_webp/weQJd9EPJys/maxresdefault.webp,2022-12-19,00:01:37,2022-51,"lowcode,Microsoft,MS Power Platform,Power Apps","lowcode,microsoft,mspp,ms-power-apps",video,video,YouTube,youtube
29790,Andrew Hess - MySPQuestions,UCH7RJ4zXEjFpfsm-6VZI8vw,andrew-hess-myspquestions,https://www.youtube.com/channel/UCH7RJ4zXEjFpfsm-6VZI8vw,,Reusable Navigation Toolbar Component FAST in Power Apps,UIZit8jzs1Y,https://www.youtube.com/watch?v=UIZit8jzs1Y,https://i.ytimg.com/vi_webp/UIZit8jzs1Y/maxresdefault.webp,2022-12-19,00:12:47,2022-51,"lowcode,Microsoft,MS Power Platform,Power Apps","lowcode,microsoft,mspp,ms-power-apps",video,video,YouTube,youtube
29776,Softchief Learn,4711,softchief-learn,https://www.youtube.com/channel/UCx28J1vtdIZId2ztVgFiJPQ,,Debugging JavaScript in Your App: Power Tools for Developers,DlyW8V3UMHk,https://www.youtube.com/watch?v=DlyW8V3UMHk,https://i.ytimg.com/vi/DlyW8V3UMHk/maxresdefault.jpg,2022-12-16,00:12:00,2022-50,"debugging,lowcode,Microsoft,Power Apps","debugging,lowcode,microsoft,ms-power-apps",video,video,YouTube,youtube
29760,Andrew Hess - MySPQuestions,UCH7RJ4zXEjFpfsm-6VZI8vw,andrew-hess-myspquestions,https://www.youtube.com/channel/UCH7RJ4zXEjFpfsm-6VZI8vw,,Apply for Raffle Power App to win Satisfactory PC Game,7FYa5uIJnAo,https://www.youtube.com/watch?v=7FYa5uIJnAo,https://i.ytimg.com/vi_webp/7FYa5uIJnAo/maxresdefault.webp,2022-12-12,00:14:14,2022-50,"lowcode,Microsoft,MS Power Platform,Power Apps","lowcode,microsoft,mspp,ms-power-apps",video,video,YouTube,youtube
29731,Reza Dorrani,4711,reza-dorrani,https://www.youtube.com/channel/UCvBYTqRx-n_8KzFO0MJlUVw,,Upload files to Dataverse from Power Apps | Patch multiple files | File Column tutorial,RGJrUkgh_NU,https://www.youtube.com/watch?v=RGJrUkgh_NU,https://i.ytimg.com/vi/RGJrUkgh_NU/maxresdefault.jpg,2022-12-05,00:20:54,2022-49,"files,lowcode,Microsoft,Microsoft Dataverse,Power Apps","files,lowcode,microsoft,microsoft-dataverse,ms-power-apps",video,video,YouTube,youtube
29732,Andrew Hess - MySPQuestions,UCH7RJ4zXEjFpfsm-6VZI8vw,andrew-hess-myspquestions,https://www.youtube.com/channel/UCH7RJ4zXEjFpfsm-6VZI8vw,,Create a Raffle Give Away in Power Apps Using MS Forms,-TLM9VUKAhE,https://www.youtube.com/watch?v=-TLM9VUKAhE,https://i.ytimg.com/vi_webp/-TLM9VUKAhE/maxresdefault.webp,2022-12-05,00:28:01,2022-49,"lowcode,Microsoft,MS Forms,MS Power Platform,Power Apps","lowcode,microsoft,ms-forms,mspp,ms-power-apps",video,video,YouTube,youtube
29702,Corporate Programming,UC1UVN4NyBBUeJfo92STD4ag,corporate-programming,https://www.youtube.com/channel/UC1UVN4NyBBUeJfo92STD4ag,,[Full video] Ticketing Tool powerapps| Count rows directly from datasource without delegationWarning,4PMlrCbDTDo,https://www.youtube.com/watch?v=4PMlrCbDTDo,https://i.ytimg.com/vi/4PMlrCbDTDo/maxresdefault.jpg,2022-11-29,00:10:04,2022-48,"lowcode,Microsoft,Power Apps,SharePoint,Use Case","lowcode,microsoft,ms-power-apps,sharepoint,usecase",video,video,YouTube,youtube
29698,Reza Dorrani,4711,reza-dorrani,https://www.youtube.com/channel/UCvBYTqRx-n_8KzFO0MJlUVw,,Power Apps Learning Resources for Beginners | Getting started references & training content,4N11-QQDdeM,https://www.youtube.com/watch?v=4N11-QQDdeM,https://i.ytimg.com/vi/4N11-QQDdeM/maxresdefault.jpg,2022-11-28,00:11:41,2022-48,"lowcode,Microsoft,Power Apps","lowcode,microsoft,ms-power-apps",video,video,YouTube,youtube
29693,Daniel Christian,UC2v4TcvO4rdDdfqd6rUR5yg,daniel-christian,https://www.youtube.com/channel/UC2v4TcvO4rdDdfqd6rUR5yg,,Schedule a Reply in Teams Using Power Automate,1-QXzBgFL_c,https://www.youtube.com/watch?v=1-QXzBgFL_c,https://i.ytimg.com/vi_webp/1-QXzBgFL_c/maxresdefault.webp,2022-11-28,00:01:33,2022-48,"lowcode,Microsoft,Power Apps","lowcode,microsoft,ms-power-apps",video,video,YouTube,youtube
29695,Corporate Programming,UC1UVN4NyBBUeJfo92STD4ag,corporate-programming,https://www.youtube.com/channel/UC1UVN4NyBBUeJfo92STD4ag,,[Full video] Ticketing Tool powerapps| Count rows directly from datasource without delegationWarning,Tle4q0J7okk,https://www.youtube.com/watch?v=Tle4q0J7okk,https://i.ytimg.com/vi/Tle4q0J7okk/maxresdefault.jpg,2022-11-28,00:10:04,2022-48,"datatypes,lowcode,Microsoft,Power Apps,Use Case","datatypes,lowcode,microsoft,ms-power-apps,usecase",video,video,YouTube,youtube
29602,Reza Dorrani,4711,reza-dorrani,https://www.youtube.com/channel/UCvBYTqRx-n_8KzFO0MJlUVw,,"Top 25 Power Apps Tips, Tricks & Best Practices for Makers",DJFNglsGQ3k,https://www.youtube.com/watch?v=DJFNglsGQ3k,https://i.ytimg.com/vi/DJFNglsGQ3k/maxresdefault.jpg,2022-11-14,00:26:56,2022-46,"lowcode,Microsoft,Power Apps","lowcode,microsoft,ms-power-apps",video,video,YouTube,youtube
29605,Corporate Programming,UC1UVN4NyBBUeJfo92STD4ag,corporate-programming,https://www.youtube.com/channel/UC1UVN4NyBBUeJfo92STD4ag,,Preview - Ticketing Tool in power apps | IT Ticket Managment Tool | Issue Tracker | Request Tracker,sH9fs3K1k9g,https://www.youtube.com/watch?v=sH9fs3K1k9g,https://i.ytimg.com/vi/sH9fs3K1k9g/maxresdefault.jpg,2022-11-14,00:01:34,2022-46,"lowcode,Microsoft,MS Power Automate,Power Apps,SharePoint,Use Case","lowcode,microsoft,ms-power-automate,ms-power-apps,sharepoint,usecase",video,video,YouTube,youtube
29604,Andrew Hess - MySPQuestions,UCH7RJ4zXEjFpfsm-6VZI8vw,andrew-hess-myspquestions,https://www.youtube.com/channel/UCH7RJ4zXEjFpfsm-6VZI8vw,,Use a Dropdown to direct a Flow in Power Apps,Z_DZlEcCmM4,https://www.youtube.com/watch?v=Z_DZlEcCmM4,https://i.ytimg.com/vi_webp/Z_DZlEcCmM4/maxresdefault.webp,2022-11-14,00:10:33,2022-46,"lowcode,Microsoft,Power Apps","lowcode,microsoft,ms-power-apps",video,video,YouTube,youtube
29513,Reza Dorrani,4711,reza-dorrani,https://www.youtube.com/channel/UCvBYTqRx-n_8KzFO0MJlUVw,,"Create Multi select Checkboxes in Power Apps for SharePoint List Forms | Radio, List Box control",Vj8uP2zaMtA,https://www.youtube.com/watch?v=Vj8uP2zaMtA,https://i.ytimg.com/vi/Vj8uP2zaMtA/maxresdefault.jpg,2022-11-07,00:16:40,2022-45,"lowcode,Microsoft,Power Apps,SharePoint","lowcode,microsoft,ms-power-apps,sharepoint",video,video,YouTube,youtube
29425,Softchief Learn,4711,softchief-learn,https://www.youtube.com/channel/UCx28J1vtdIZId2ztVgFiJPQ,,Filter Dependent Multi-Level Lookups/ Option Sets/ Combo Boxes in Canvas Power Apps or Custom Pages,gDh4_So-8EA,https://www.youtube.com/watch?v=gDh4_So-8EA,https://i.ytimg.com/vi/gDh4_So-8EA/maxresdefault.jpg,2022-10-31,00:11:09,2022-44,"lowcode,Microsoft,Power Apps","lowcode,microsoft,ms-power-apps",video,video,YouTube,youtube
29441,Andrew Hess - MySPQuestions,UCH7RJ4zXEjFpfsm-6VZI8vw,andrew-hess-myspquestions,https://www.youtube.com/channel/UCH7RJ4zXEjFpfsm-6VZI8vw,,PowerApps Issues & Risk List connected to our Project Dashboard,Q5Dw9DlpDxs,https://www.youtube.com/watch?v=Q5Dw9DlpDxs,https://i.ytimg.com/vi_webp/Q5Dw9DlpDxs/maxresdefault.webp,2022-10-31,00:32:00,2022-44,"lowcode,Microsoft,Power Apps,Use Case","lowcode,microsoft,ms-power-apps,usecase",video,video,YouTube,youtube
29391,Softchief Learn,4711,softchief-learn,https://www.youtube.com/channel/UCx28J1vtdIZId2ztVgFiJPQ,,Use Idea box to generate PowerFX inside canvas app to avoid remembering expressions,krfbKBbPk7k,https://www.youtube.com/watch?v=krfbKBbPk7k,https://i.ytimg.com/vi/krfbKBbPk7k/maxresdefault.jpg,2022-10-26,00:05:35,2022-43,"lowcode,Microsoft,Power Apps","lowcode,microsoft,ms-power-apps",video,video,YouTube,youtube
29389,Softchief Learn,4711,softchief-learn,https://www.youtube.com/channel/UCx28J1vtdIZId2ztVgFiJPQ,,Apply CSS in Canvas App using HTML Text Component and Design 3D UI for Canvas app like Box Shadow,96nHs-1VCiU,https://www.youtube.com/watch?v=96nHs-1VCiU,https://i.ytimg.com/vi_webp/96nHs-1VCiU/maxresdefault.webp,2022-10-26,00:07:30,2022-43,"lowcode,Microsoft,Power Apps,user experience","lowcode,microsoft,ms-power-apps,user-experience",video,video,YouTube,youtube
29366,Softchief Learn,4711,softchief-learn,https://www.youtube.com/channel/UCx28J1vtdIZId2ztVgFiJPQ,,How to debug a Canvas App Live / Published in Power Apps,47fOYGroJ50,https://www.youtube.com/watch?v=47fOYGroJ50,https://i.ytimg.com/vi/47fOYGroJ50/maxresdefault.jpg,2022-10-24,00:11:59,2022-43,"debugging,lowcode,Microsoft,Power Apps","debugging,lowcode,microsoft,ms-power-apps",video,video,YouTube,youtube
29370,Andrew Hess - MySPQuestions,UCH7RJ4zXEjFpfsm-6VZI8vw,andrew-hess-myspquestions,https://www.youtube.com/channel/UCH7RJ4zXEjFpfsm-6VZI8vw,,Creating a Calculator from Scratch in a PowerApps Example,xOiz4gtTvig,https://www.youtube.com/watch?v=xOiz4gtTvig,https://i.ytimg.com/vi_webp/xOiz4gtTvig/maxresdefault.webp,2022-10-24,00:27:28,2022-43,"lowcode,Microsoft,Power Apps,Use Case","lowcode,microsoft,ms-power-apps,usecase",video,video,YouTube,youtube
29346,Softchief Learn,4711,softchief-learn,https://www.youtube.com/channel/UCx28J1vtdIZId2ztVgFiJPQ,,Filter lookup field values using another lookup field in Dynamics 365 or Dataverse Power Apps form,41dptP00KQE,https://www.youtube.com/watch?v=41dptP00KQE,https://i.ytimg.com/vi/41dptP00KQE/maxresdefault.jpg,2022-10-21,00:08:54,2022-42,"Dynamics 365,lowcode,Microsoft,Power Apps","dynamics-365,lowcode,microsoft,ms-power-apps",video,video,YouTube,youtube
29293,Andrew Hess - MySPQuestions,UCH7RJ4zXEjFpfsm-6VZI8vw,andrew-hess-myspquestions,https://www.youtube.com/channel/UCH7RJ4zXEjFpfsm-6VZI8vw,,Create Custom Buttons in Canvas Power Apps with Components,TN2KWwcQlAM,https://www.youtube.com/watch?v=TN2KWwcQlAM,https://i.ytimg.com/vi_webp/TN2KWwcQlAM/maxresdefault.webp,2022-10-17,00:14:39,2022-42,"lowcode,Microsoft,MS Power Platform,Power Apps","lowcode,microsoft,mspp,ms-power-apps",video,video,YouTube,youtube
29232,Reza Dorrani,4711,reza-dorrani,https://www.youtube.com/channel/UCvBYTqRx-n_8KzFO0MJlUVw,,Read & Write SharePoint Image Column in Power Apps | Patch to Related List of Images,tL_w4jVHxdg,https://www.youtube.com/watch?v=tL_w4jVHxdg,https://i.ytimg.com/vi/tL_w4jVHxdg/maxresdefault.jpg,2022-10-10,00:22:33,2022-41,"datatypes,lowcode,Microsoft,Power Apps","datatypes,lowcode,microsoft,ms-power-apps",video,video,YouTube,youtube
29230,Daniel Christian,UC2v4TcvO4rdDdfqd6rUR5yg,daniel-christian,https://www.youtube.com/channel/UC2v4TcvO4rdDdfqd6rUR5yg,,Power Apps Visual For Power BI,FYyZE6kczUw,https://www.youtube.com/watch?v=FYyZE6kczUw,https://i.ytimg.com/vi/FYyZE6kczUw/sddefault.jpg,2022-10-10,00:32:03,2022-41,"lowcode,Microsoft,Power Apps,Power BI","lowcode,microsoft,ms-power-apps,power-bi",video,video,YouTube,youtube
29235,Andrew Hess - MySPQuestions,UCH7RJ4zXEjFpfsm-6VZI8vw,andrew-hess-myspquestions,https://www.youtube.com/channel/UCH7RJ4zXEjFpfsm-6VZI8vw,,Create Virtual Agent Bot in Microsoft Teams based on a PowerApp,ct_9PSf62dk,https://www.youtube.com/watch?v=ct_9PSf62dk,https://i.ytimg.com/vi_webp/ct_9PSf62dk/maxresdefault.webp,2022-10-10,00:19:48,2022-41,"lowcode,Microsoft,Power Apps,Power Virtual Agents","lowcode,microsoft,ms-power-apps,power-virtual-agents",video,video,YouTube,youtube
29187,Reza Dorrani,4711,reza-dorrani,https://www.youtube.com/channel/UCvBYTqRx-n_8KzFO0MJlUVw,,"Power Apps PDF Function Introduction | Create PDF Documents from Screens, Galleries & Containers",sK3WsjQiqcQ,https://www.youtube.com/watch?v=sK3WsjQiqcQ,https://i.ytimg.com/vi/sK3WsjQiqcQ/maxresdefault.jpg,2022-10-03,00:16:09,2022-40,"lowcode,Microsoft,PDF,Power Apps","lowcode,microsoft,pdf,ms-power-apps",video,video,YouTube,youtube
29183,Daniel Christian,UC2v4TcvO4rdDdfqd6rUR5yg,daniel-christian,https://www.youtube.com/channel/UC2v4TcvO4rdDdfqd6rUR5yg,,Modify Power Apps and Power Automate due to SharePoint List Permissions - Real World Scenario,yoqW1z-l9t4,https://www.youtube.com/watch?v=yoqW1z-l9t4,https://i.ytimg.com/vi/yoqW1z-l9t4/maxresdefault.jpg,2022-10-03,00:22:06,2022-40,"lowcode,Microsoft,MS Power Automate,Power Apps","lowcode,microsoft,ms-power-automate,ms-power-apps",video,video,YouTube,youtube
29188,Andrew Hess - MySPQuestions,UCH7RJ4zXEjFpfsm-6VZI8vw,andrew-hess-myspquestions,https://www.youtube.com/channel/UCH7RJ4zXEjFpfsm-6VZI8vw,,Let's Create Request Center in MS Teams PowerApps,TwbhCPtZkn4,https://www.youtube.com/watch?v=TwbhCPtZkn4,https://i.ytimg.com/vi_webp/TwbhCPtZkn4/maxresdefault.webp,2022-10-03,00:26:39,2022-40,"lowcode,Microsoft,Power Apps","lowcode,microsoft,ms-power-apps",video,video,YouTube,youtube
27668,Reza Dorrani,4711,reza-dorrani,https://www.youtube.com/channel/UCvBYTqRx-n_8KzFO0MJlUVw,,"Top 10 New Features in Power Apps (2022) | Named Formulas, Table Designer, Error Handling, etc.",_I4tpoLI8aw,https://www.youtube.com/watch?v=_I4tpoLI8aw,https://i.ytimg.com/vi/_I4tpoLI8aw/hqdefault.jpg,2022-09-19,00:17:04,2022-38,"lowcode,Microsoft,MS Power Platform,Power Apps","lowcode,microsoft,mspp,ms-power-apps",video,video,YouTube,youtube
27665,Reza Dorrani,4711,reza-dorrani,https://www.youtube.com/channel/UCvBYTqRx-n_8KzFO0MJlUVw,,Introduction to Parse JSON in Power Apps | ParseJSON Arrays as Table; Return Array from flow,FqfLiJDdC3Q,https://www.youtube.com/watch?v=FqfLiJDdC3Q,https://i.ytimg.com/vi/FqfLiJDdC3Q/maxresdefault.jpg,2022-09-12,00:17:00,2022-37,"lowcode,Microsoft,MS Power Platform,Power Apps","lowcode,microsoft,mspp,ms-power-apps",video,video,YouTube,youtube
27667,MySPQuestions,4711,myspquestions,https://www.youtube.com/channel/UCH7RJ4zXEjFpfsm-6VZI8vw,,"Part 2: Power Apps with Excel Creating Filters, Search, Collections, Charts",-BO4g2g2_hg,https://www.youtube.com/watch?v=-BO4g2g2_hg,https://i.ytimg.com/vi_webp/-BO4g2g2_hg/maxresdefault.webp,2022-09-12,00:20:02,2022-37,"Excel,lowcode,Microsoft,MS Power Platform,Power Apps","excel,lowcode,microsoft,mspp,ms-power-apps",video,video,YouTube,youtube
27666,Daniel Christian,UC2v4TcvO4rdDdfqd6rUR5yg,daniel-christian,https://www.youtube.com/channel/UC2v4TcvO4rdDdfqd6rUR5yg,,Power Apps Racing Scoreboard Canvas App - Part 2,rcJ0Bt1mBW8,https://www.youtube.com/watch?v=rcJ0Bt1mBW8,https://i.ytimg.com/vi_webp/rcJ0Bt1mBW8/maxresdefault.webp,2022-09-12,00:39:42,2022-37,"lowcode,Microsoft,MS Power Platform,Power Apps","lowcode,microsoft,mspp,ms-power-apps",video,video,YouTube,youtube
27664,Softchief Learn,4711,softchief-learn,https://www.youtube.com/channel/UCx28J1vtdIZId2ztVgFiJPQ,,COE Creator Kit for Power Apps - Productivity Components kits with no code for Power Apps Developers,yAATfA_Gb4I,https://www.youtube.com/watch?v=yAATfA_Gb4I,https://i.ytimg.com/vi/yAATfA_Gb4I/hqdefault.jpg,2022-09-07,00:46:12,2022-36,"lowcode,Microsoft,Power Apps","lowcode,microsoft,ms-power-apps",video,video,YouTube,youtube
27663,MySPQuestions,4711,myspquestions,https://www.youtube.com/channel/UCH7RJ4zXEjFpfsm-6VZI8vw,,"Part 1: Power Apps with Excel, creating tables, lookup columns, and changing column types",-pwRDC6l1Zk,https://www.youtube.com/watch?v=-pwRDC6l1Zk,https://i.ytimg.com/vi_webp/-pwRDC6l1Zk/maxresdefault.webp,2022-09-06,00:17:40,2022-36,"Excel,lowcode,Microsoft,MS Power Platform,Power Apps","excel,lowcode,microsoft,mspp,ms-power-apps",video,video,YouTube,youtube
29084,MySPQuestions,4711,myspquestions,https://www.youtube.com/channel/UCH7RJ4zXEjFpfsm-6VZI8vw,,Guide to using Power Apps with Standard Connectors No Premium License,kzp9-f3gs78,https://www.youtube.com/watch?v=kzp9-f3gs78,https://i.ytimg.com/vi_webp/kzp9-f3gs78/maxresdefault.webp,2022-08-29,00:16:01,2022-35,"lowcode,Microsoft,MS Power Platform,Power Apps","lowcode,microsoft,mspp,ms-power-apps",video,video,YouTube,youtube
29078,Reza Dorrani,4711,reza-dorrani,https://www.youtube.com/channel/UCvBYTqRx-n_8KzFO0MJlUVw,,How to use PATCH Function in Power Apps | Insert and Update data,BzZ0a3zRFUk,https://www.youtube.com/watch?v=BzZ0a3zRFUk,https://i.ytimg.com/vi/BzZ0a3zRFUk/maxresdefault.jpg,2022-08-22,00:29:28,2022-34,"lowcode,Microsoft,MS Power Platform,Power Apps","lowcode,microsoft,mspp,ms-power-apps",video,video,YouTube,youtube
29076,Daniel Christian,UC2v4TcvO4rdDdfqd6rUR5yg,daniel-christian,https://www.youtube.com/channel/UC2v4TcvO4rdDdfqd6rUR5yg,,Power Apps Racing Scoreboard Canvas App,YbevctHiIIw,https://www.youtube.com/watch?v=YbevctHiIIw,https://i.ytimg.com/vi/YbevctHiIIw/hqdefault.jpg,2022-08-22,00:27:00,2022-34,"lowcode,Microsoft,Power Apps","lowcode,microsoft,ms-power-apps",video,video,YouTube,youtube
29074,Reza Dorrani,4711,reza-dorrani,https://www.youtube.com/channel/UCvBYTqRx-n_8KzFO0MJlUVw,,"Power Apps Button Control for Beginners | OnSelect, Style, Properties",REN93Y-kME8,https://www.youtube.com/watch?v=REN93Y-kME8,https://i.ytimg.com/vi/REN93Y-kME8/maxresdefault.jpg,2022-08-16,00:16:46,2022-33,"lowcode,Microsoft,MS Power Platform,Power Apps","lowcode,microsoft,mspp,ms-power-apps",video,video,YouTube,youtube
29072,MySPQuestions,4711,myspquestions,https://www.youtube.com/channel/UCH7RJ4zXEjFpfsm-6VZI8vw,,Recreating Recurring Events in Power Apps for SharePoint,yGvehOu-oZ8,https://www.youtube.com/watch?v=yGvehOu-oZ8,https://i.ytimg.com/vi_webp/yGvehOu-oZ8/maxresdefault.webp,2022-08-15,00:24:00,2022-33,"DateTime,lowcode,Microsoft,Power Apps","datetime,lowcode,microsoft,ms-power-apps",video,video,YouTube,youtube
29070,MySPQuestions,4711,myspquestions,https://www.youtube.com/channel/UCH7RJ4zXEjFpfsm-6VZI8vw,,Task List that Rolls Up Like MS Project in Power Apps [ReUpload Fix Volume],3qhu5Supb7Q,https://www.youtube.com/watch?v=3qhu5Supb7Q,https://i.ytimg.com/vi/3qhu5Supb7Q/hqdefault.jpg,2022-08-09,00:16:00,2022-32,"lowcode,Microsoft,Power Apps","lowcode,microsoft,ms-power-apps",video,video,YouTube,youtube
29067,Reza Dorrani,4711,reza-dorrani,https://www.youtube.com/channel/UCvBYTqRx-n_8KzFO0MJlUVw,,Power Apps Deep Linking to Screen | App StartScreen & OnStart,Hrc51S2NgBo,https://www.youtube.com/watch?v=Hrc51S2NgBo,https://i.ytimg.com/vi/Hrc51S2NgBo/hqdefault.jpg,2022-08-08,00:22:56,2022-32,"lowcode,Microsoft,MS Power Platform,Power Apps","lowcode,microsoft,mspp,ms-power-apps",video,video,YouTube,youtube
29068,MySPQuestions,4711,myspquestions,https://www.youtube.com/channel/UCH7RJ4zXEjFpfsm-6VZI8vw,,Task List that Rolls Up Like MS Project in Power Apps,5o-51pJ0IyU,https://www.youtube.com/watch?v=5o-51pJ0IyU,https://i.ytimg.com/vi_webp/5o-51pJ0IyU/maxresdefault.webp,2022-08-08,00:16:00,2022-32,"lowcode,Microsoft,Power Apps","lowcode,microsoft,ms-power-apps",video,video,YouTube,youtube
29065,Softchief Learn,4711,softchief-learn,https://www.youtube.com/channel/UCx28J1vtdIZId2ztVgFiJPQ,,File Lock Error in SharePoint Solution in Power Automate,FgrGirk9hrQ,https://www.youtube.com/watch?v=FgrGirk9hrQ,https://i.ytimg.com/vi_webp/FgrGirk9hrQ/maxresdefault.webp,2022-08-04,00:19:00,2022-31,"lowcode,Microsoft,Power Apps,SharePoint","lowcode,microsoft,ms-power-apps,sharepoint",video,video,YouTube,youtube
29062,MySPQuestions,4711,myspquestions,https://www.youtube.com/channel/UCH7RJ4zXEjFpfsm-6VZI8vw,,Handling Duplicates and Multiple Datasources in Power Apps using Distinct and First Functions,cSVDafX6dIk,https://www.youtube.com/watch?v=cSVDafX6dIk,https://i.ytimg.com/vi_webp/cSVDafX6dIk/maxresdefault.webp,2022-08-01,00:13:00,2022-31,"lowcode,Microsoft,Power Apps","lowcode,microsoft,ms-power-apps",video,video,YouTube,youtube
29063,Daniel Christian,UC2v4TcvO4rdDdfqd6rUR5yg,daniel-christian,https://www.youtube.com/channel/UC2v4TcvO4rdDdfqd6rUR5yg,,SharePoint List Templates That Include Power Automate Flows,0agRywlqcf4,https://www.youtube.com/watch?v=0agRywlqcf4,https://i.ytimg.com/vi/0agRywlqcf4/hqdefault.jpg,2022-08-01,00:15:00,2022-31,"Code Templates,lowcode,Microsoft,Power Apps,SharePoint","code-templates,lowcode,microsoft,ms-power-apps,sharepoint",video,video,YouTube,youtube
29055,Reza Dorrani,4711,reza-dorrani,https://www.youtube.com/channel/UCvBYTqRx-n_8KzFO0MJlUVw,,"Set Default Values in Power Apps | Dropdown, Lookup, Choice, Date | SharePoint",bjvigaL68ts,https://www.youtube.com/watch?v=bjvigaL68ts,https://i.ytimg.com/vi/bjvigaL68ts/hqdefault.jpg,2022-07-25,00:22:49,2022-30,"lowcode,Microsoft,MS Power Platform,Power Apps","lowcode,microsoft,mspp,ms-power-apps",video,video,YouTube,youtube
29051,Reza Dorrani,4711,reza-dorrani,https://www.youtube.com/channel/UCvBYTqRx-n_8KzFO0MJlUVw,,"Power Apps Export Large Data to Email, CSV or PDF File | SharePoint",UZdngrwWsqA,https://www.youtube.com/watch?v=UZdngrwWsqA,https://i.ytimg.com/vi/UZdngrwWsqA/hqdefault.jpg,2022-07-18,00:21:45,2022-29,"lowcode,Microsoft,MS Power Automate,MS Power Platform,Power Apps","lowcode,microsoft,ms-power-automate,mspp,ms-power-apps",video,video,YouTube,youtube
29047,Reza Dorrani,4711,reza-dorrani,https://www.youtube.com/channel/UCvBYTqRx-n_8KzFO0MJlUVw,,"Solutions in Power Platform | ALM, Power Apps, flows & Environments",Xo-TvZ9N3BM,https://www.youtube.com/watch?v=Xo-TvZ9N3BM,https://i.ytimg.com/vi/Xo-TvZ9N3BM/hqdefault.jpg,2022-07-11,00:26:39,2022-28,"ALM,lowcode,MS Power Automate,MS Power Platform,Power Apps","alm,lowcode,ms-power-automate,mspp,ms-power-apps",video,video,YouTube,youtube
29035,Reza Dorrani,4711,reza-dorrani,https://www.youtube.com/channel/UCvBYTqRx-n_8KzFO0MJlUVw,,"Combo box control in Power Apps | Search, Filter, Large Data, Default values",zPM0Q53L3sE,https://www.youtube.com/watch?v=zPM0Q53L3sE,https://i.ytimg.com/vi/zPM0Q53L3sE/hqdefault.jpg,2022-06-27,00:25:05,2022-26,"lowcode,Microsoft,MS Power Platform,Power Apps","lowcode,microsoft,mspp,ms-power-apps",video,video,YouTube,youtube
29028,Reza Dorrani,4711,reza-dorrani,https://www.youtube.com/channel/UCvBYTqRx-n_8KzFO0MJlUVw,,"Send Email from Power Apps | HTML Table Styles, Attachments, Images | PowerApps & Outlook Connector",GoF3vfP3YTM,https://www.youtube.com/watch?v=GoF3vfP3YTM,https://i.ytimg.com/vi/GoF3vfP3YTM/maxresdefault.jpg,2022-06-20,00:22:44,2022-25,"email automation,lowcode,Microsoft,Power Apps","email-automation,lowcode,microsoft,ms-power-apps",video,video,YouTube,youtube
29023,Reza Dorrani,4711,reza-dorrani,https://www.youtube.com/channel/UCvBYTqRx-n_8KzFO0MJlUVw,,Build CALENDAR Control in POWER APPS in Minutes | Connect to SharePoint List,pA7pcAOvf10,https://www.youtube.com/watch?v=pA7pcAOvf10,https://i.ytimg.com/vi/pA7pcAOvf10/hqdefault.jpg,2022-06-13,00:24:27,2022-24,"lowcode,Microsoft,MS Power Platform,Power Apps","lowcode,microsoft,mspp,ms-power-apps",video,video,YouTube,youtube
29018,Reza Dorrani,4711,reza-dorrani,https://www.youtube.com/channel/UCvBYTqRx-n_8KzFO0MJlUVw,,Form Control in Power Apps | Must know features & properties,rxL_Wcs3kJA,https://www.youtube.com/watch?v=rxL_Wcs3kJA,https://i.ytimg.com/vi/rxL_Wcs3kJA/hqdefault.jpg,2022-06-06,00:30:58,2022-23,"lowcode,Microsoft,MS Power Platform,Power Apps","lowcode,microsoft,mspp,ms-power-apps",video,video,YouTube,youtube
29015,Reza Dorrani,4711,reza-dorrani,https://www.youtube.com/channel/UCvBYTqRx-n_8KzFO0MJlUVw,,"Power Apps SharePoint List Attachments | Save Camera Pictures, Pen Input & Images",pI8saVXEDE4,https://www.youtube.com/watch?v=pI8saVXEDE4,https://i.ytimg.com/vi_webp/pI8saVXEDE4/maxresdefault.webp,2022-05-31,00:21:45,2022-22,"files,lowcode,Microsoft,MS Power Automate,MS Power Platform,Power Apps","files,lowcode,microsoft,ms-power-automate,mspp,ms-power-apps",video,video,YouTube,youtube
29006,Reza Dorrani,4711,reza-dorrani,https://www.youtube.com/channel/UCvBYTqRx-n_8KzFO0MJlUVw,,Run Power Apps from SharePoint List as Custom Cards using JSON Formatting,-fcfEQTSWx0,https://www.youtube.com/watch?v=-fcfEQTSWx0,https://i.ytimg.com/vi/-fcfEQTSWx0/maxresdefault.jpg,2022-05-23,00:11:00,2022-21,"lowcode,Microsoft,MS Power Platform,Power Apps,SharePoint","lowcode,microsoft,mspp,ms-power-apps,sharepoint",video,video,YouTube,youtube
29002,Reza Dorrani,4711,reza-dorrani,https://www.youtube.com/channel/UCvBYTqRx-n_8KzFO0MJlUVw,,Run Power Apps connections with elevated permissions via Power Automate | Impersonate flow actions,ts-ggDAy7IQ,https://www.youtube.com/watch?v=ts-ggDAy7IQ,https://i.ytimg.com/vi/ts-ggDAy7IQ/maxresdefault.jpg,2022-05-16,00:20:55,2022-20,"lowcode,Microsoft,MS Power Automate,MS Power Platform,Power Apps","lowcode,microsoft,ms-power-automate,mspp,ms-power-apps",video,video,YouTube,youtube
28997,Reza Dorrani,4711,reza-dorrani,https://www.youtube.com/channel/UCvBYTqRx-n_8KzFO0MJlUVw,,"Power Apps New Features & Functions | Index, Search, Find & Replace, String Interpolation",jBXAMv8Iwqw,https://www.youtube.com/watch?v=jBXAMv8Iwqw,https://i.ytimg.com/vi/jBXAMv8Iwqw/hqdefault.jpg,2022-05-09,00:18:47,2022-19,"lowcode,Microsoft,MS Power Platform,Power Apps","lowcode,microsoft,mspp,ms-power-apps",video,video,YouTube,youtube
28986,Reza Dorrani,4711,reza-dorrani,https://www.youtube.com/channel/UCvBYTqRx-n_8KzFO0MJlUVw,,"Multi Select Filters in Power Apps with Combo box, Checkboxes & No Delegation❗",Wr42PeW6_wU,https://www.youtube.com/watch?v=Wr42PeW6_wU,https://i.ytimg.com/vi/Wr42PeW6_wU/maxresdefault.jpg,2022-04-25,00:23:41,2022-17,"lowcode,Microsoft,MS Power Platform,Power Apps","lowcode,microsoft,mspp,ms-power-apps",video,video,YouTube,youtube
28982,Reza Dorrani,4711,reza-dorrani,https://www.youtube.com/channel/UCvBYTqRx-n_8KzFO0MJlUVw,,Power Apps in SharePoint Pages | Power Apps List Connected Web Parts,hB0xdoQuO1g,https://www.youtube.com/watch?v=hB0xdoQuO1g,https://i.ytimg.com/vi/hB0xdoQuO1g/maxresdefault.jpg,2022-04-18,00:24:33,2022-16,"lowcode,Microsoft,MS Power Platform,Power Apps,SharePoint","lowcode,microsoft,mspp,ms-power-apps,sharepoint",video,video,YouTube,youtube
28920,Reza Dorrani,4711,reza-dorrani,https://www.youtube.com/channel/UCvBYTqRx-n_8KzFO0MJlUVw,,Power Apps Types | Canvas Vs Model Driven Vs Portals | Beginner Tutorial,erMcjDUeRNM,https://www.youtube.com/watch?v=erMcjDUeRNM,https://i.ytimg.com/vi_webp/erMcjDUeRNM/maxresdefault.webp,2022-02-07,00:38:00,2022-6,"lowcode,Microsoft,MS Power Platform,Power Apps","lowcode,microsoft,mspp,ms-power-apps",video,video,YouTube,youtube
28900,Reza Dorrani,4711,reza-dorrani,https://www.youtube.com/channel/UCvBYTqRx-n_8KzFO0MJlUVw,,Top 10 Power Apps Examples (Showcase),86cFk_k-YJo,https://www.youtube.com/watch?v=86cFk_k-YJo,https://i.ytimg.com/vi/86cFk_k-YJo/hqdefault.jpg,2022-01-10,00:31:17,2022-2,"lowcode,Microsoft,MS Power Platform,Power Apps,Use Case","lowcode,microsoft,mspp,ms-power-apps,usecase",video,video,YouTube,youtube
