id,org_name,org_identifier,org_slug,org_url,person,title,platform_identifier,url,thumbnail_src,published_at,duration,year_week,tags,tags_slugs,type_name,type_slug,platform_name,platform_slug
30062,Reza Dorrani,4711,reza-dorrani,https://www.youtube.com/channel/UCvBYTqRx-n_8KzFO0MJlUVw,,Power Apps DIRECTLY upload files to SharePoint Document Library | GRAPH API,n3mhe88BI34,https://www.youtube.com/watch?v=n3mhe88BI34,https://i.ytimg.com/vi/n3mhe88BI34/maxresdefault.jpg,2023-01-16,00:20:50,2023-3,"files,lowcode,Microsoft,Power Apps,SharePoint","files,lowcode,microsoft,ms-power-apps,sharepoint",video,video,YouTube,youtube
29731,Reza Dorrani,4711,reza-dorrani,https://www.youtube.com/channel/UCvBYTqRx-n_8KzFO0MJlUVw,,Upload files to Dataverse from Power Apps | Patch multiple files | File Column tutorial,RGJrUkgh_NU,https://www.youtube.com/watch?v=RGJrUkgh_NU,https://i.ytimg.com/vi/RGJrUkgh_NU/maxresdefault.jpg,2022-12-05,00:20:54,2022-49,"files,lowcode,Microsoft,Microsoft Dataverse,Power Apps","files,lowcode,microsoft,microsoft-dataverse,ms-power-apps",video,video,YouTube,youtube
29324,Anders Jensen,UCPdtz4gd_iYebJFYq9N8pWA,anders-jensen,https://www.youtube.com/channel/UCPdtz4gd_iYebJFYq9N8pWA,,How to Get Files in a Folder in Power Automate Desktop,bXqSjLCSLEg,https://www.youtube.com/watch?v=bXqSjLCSLEg,https://i.ytimg.com/vi_webp/bXqSjLCSLEg/maxresdefault.webp,2022-10-19,00:18:17,2022-42,"files,lowcode,Microsoft,MS Power Automate Desktop,RPA","files,lowcode,microsoft,ms-power-automate-desktop,rpa",video,video,YouTube,youtube
29015,Reza Dorrani,4711,reza-dorrani,https://www.youtube.com/channel/UCvBYTqRx-n_8KzFO0MJlUVw,,"Power Apps SharePoint List Attachments | Save Camera Pictures, Pen Input & Images",pI8saVXEDE4,https://www.youtube.com/watch?v=pI8saVXEDE4,https://i.ytimg.com/vi_webp/pI8saVXEDE4/maxresdefault.webp,2022-05-31,00:21:45,2022-22,"files,lowcode,Microsoft,MS Power Automate,MS Power Platform,Power Apps","files,lowcode,microsoft,ms-power-automate,mspp,ms-power-apps",video,video,YouTube,youtube
