id,org_name,org_identifier,org_slug,org_url,person,title,platform_identifier,url,thumbnail_src,published_at,duration,year_week,tags,tags_slugs,type_name,type_slug,platform_name,platform_slug
30844,Sharath Raju,UCEvXklbyuKHPjIeJqlVkOSA,sharath-raju,https://www.youtube.com/channel/UCEvXklbyuKHPjIeJqlVkOSA,,Microsoft Power Automate Desktop 2023 -  RPA MasterClass (Complete Practical Course),VSAkqqHCUts,https://www.youtube.com/watch?v=VSAkqqHCUts,https://i.ytimg.com/vi/VSAkqqHCUts/maxresdefault.jpg,2023-05-07,04:19:52,2023-18,"lowcode,Microsoft,MS Power Automate Desktop,RPA","lowcode,microsoft,ms-power-automate-desktop,rpa",video,video,YouTube,youtube
30810,RPAFeed,UC3f0L_fUSQe8vAQwJowJ6-g,rpafeed,https://www.youtube.com/channel/UC3f0L_fUSQe8vAQwJowJ6-g,,Variables in Power Automate Desktop | RPAFeed,qKApPFntqwQ,https://www.youtube.com/watch?v=qKApPFntqwQ,https://i.ytimg.com/vi_webp/qKApPFntqwQ/maxresdefault.webp,2023-05-03,00:07:04,2023-18,"datatypes,lowcode,Microsoft,MS Power Automate Desktop,RPA","datatypes,lowcode,microsoft,ms-power-automate-desktop,rpa",video,video,YouTube,youtube
30806,Anders Jensen,UCPdtz4gd_iYebJFYq9N8pWA,anders-jensen,https://www.youtube.com/channel/UCPdtz4gd_iYebJFYq9N8pWA,,How to Install the Contoso Invoicing Application,v5QMXb0n0Xs,https://www.youtube.com/watch?v=v5QMXb0n0Xs,https://i.ytimg.com/vi_webp/v5QMXb0n0Xs/maxresdefault.webp,2023-05-03,00:04:04,2023-18,"lowcode,Microsoft,MS Power Automate Desktop","lowcode,microsoft,ms-power-automate-desktop",video,video,YouTube,youtube
30799,Tom's Tech Academy,UCstCuI_7DvHw7-KSA3Yy9PQ,tom-s-tech-academy,https://www.youtube.com/channel/UCstCuI_7DvHw7-KSA3Yy9PQ,,How to stop flows in Power Automate Desktop #shorts,ohLI6z5fjGQ,https://www.youtube.com/watch?v=ohLI6z5fjGQ,https://i.ytimg.com/vi/ohLI6z5fjGQ/sd2.jpg,2023-05-02,00:00:56,2023-18,"lowcode,Microsoft,MS Power Automate Desktop,RPA","lowcode,microsoft,ms-power-automate-desktop,rpa",video,video,YouTube,youtube
30776,RPAFeed,UC3f0L_fUSQe8vAQwJowJ6-g,rpafeed,https://www.youtube.com/channel/UC3f0L_fUSQe8vAQwJowJ6-g,,Power Automate Desktop Flow Designer Workspace | RPAFeed,Yyl-Iv_b3Eo,https://www.youtube.com/watch?v=Yyl-Iv_b3Eo,https://i.ytimg.com/vi_webp/Yyl-Iv_b3Eo/maxresdefault.webp,2023-04-30,00:09:33,2023-17,"lowcode,Microsoft,MS Power Automate Desktop,RPA","lowcode,microsoft,ms-power-automate-desktop,rpa",video,video,YouTube,youtube
30726,Anders Jensen,UCPdtz4gd_iYebJFYq9N8pWA,anders-jensen,https://www.youtube.com/channel/UCPdtz4gd_iYebJFYq9N8pWA,,Scheduled Power Automate Desktop Flows from Cloud,DcWi54vwDe8,https://www.youtube.com/watch?v=DcWi54vwDe8,https://i.ytimg.com/vi_webp/DcWi54vwDe8/maxresdefault.webp,2023-04-24,00:13:36,2023-17,"lowcode,Microsoft,MS Power Automate Desktop,RPA","lowcode,microsoft,ms-power-automate-desktop,rpa",video,video,YouTube,youtube
30711,Tom's Tech Academy,UCstCuI_7DvHw7-KSA3Yy9PQ,tom-s-tech-academy,https://www.youtube.com/channel/UCstCuI_7DvHw7-KSA3Yy9PQ,,Automate any Web Application with Power Automate Desktop!,YUeG62tOwBE,https://www.youtube.com/watch?v=YUeG62tOwBE,https://i.ytimg.com/vi/YUeG62tOwBE/maxresdefault.jpg,2023-04-21,00:16:35,2023-16,"browser,lowcode,Microsoft,MS Power Automate Desktop,RPA","browser,lowcode,microsoft,ms-power-automate-desktop,rpa",video,video,YouTube,youtube
30709,Softchief Learn,4711,softchief-learn,https://www.youtube.com/channel/UCx28J1vtdIZId2ztVgFiJPQ,,Trigger Condition in Power Automate Understanding,iVhkuo8Xo3A,https://www.youtube.com/watch?v=iVhkuo8Xo3A,https://i.ytimg.com/vi_webp/iVhkuo8Xo3A/maxresdefault.webp,2023-04-21,00:09:27,2023-16,"Dynamics 365,lowcode,MS Power Automate,MS Power Automate Desktop","dynamics-365,lowcode,ms-power-automate,ms-power-automate-desktop",video,video,YouTube,youtube
30700,Anders Jensen,UCPdtz4gd_iYebJFYq9N8pWA,anders-jensen,https://www.youtube.com/channel/UCPdtz4gd_iYebJFYq9N8pWA,,Use Power Automate Desktop and Task Scheduler Together,pFZSajbQsxc,https://www.youtube.com/watch?v=pFZSajbQsxc,https://i.ytimg.com/vi_webp/pFZSajbQsxc/maxresdefault.webp,2023-04-20,00:05:42,2023-16,"lowcode,Microsoft,MS Power Automate Desktop,RPA","lowcode,microsoft,ms-power-automate-desktop,rpa",video,video,YouTube,youtube
30687,Anders Jensen,UCPdtz4gd_iYebJFYq9N8pWA,anders-jensen,https://www.youtube.com/channel/UCPdtz4gd_iYebJFYq9N8pWA,,How to Setup Power Automate Desktop on Virtual Machines,-r5sJpqY73k,https://www.youtube.com/watch?v=-r5sJpqY73k,https://i.ytimg.com/vi_webp/-r5sJpqY73k/maxresdefault.webp,2023-04-19,00:20:35,2023-16,"lowcode,Microsoft,MS Power Automate Desktop,RPA","lowcode,microsoft,ms-power-automate-desktop,rpa",video,video,YouTube,youtube
30661,Anders Jensen,UCPdtz4gd_iYebJFYq9N8pWA,anders-jensen,https://www.youtube.com/channel/UCPdtz4gd_iYebJFYq9N8pWA,,Power Automate Desktop: How to Setup Unattended Robots,EUhNahpR_l4,https://www.youtube.com/watch?v=EUhNahpR_l4,https://i.ytimg.com/vi/EUhNahpR_l4/maxresdefault.jpg,2023-04-14,00:12:20,2023-15,"lowcode,Microsoft,MS Power Automate Desktop,RPA,unattended","lowcode,microsoft,ms-power-automate-desktop,rpa,unattended",video,video,YouTube,youtube
30610,Anders Jensen,UCPdtz4gd_iYebJFYq9N8pWA,anders-jensen,https://www.youtube.com/channel/UCPdtz4gd_iYebJFYq9N8pWA,,Power Automate Desktop 2.31 is here!,krX6wvGmNw8,https://www.youtube.com/watch?v=krX6wvGmNw8,https://i.ytimg.com/vi/krX6wvGmNw8/sd2.jpg,2023-04-05,00:00:32,2023-14,"lowcode,Microsoft,MS Power Automate Desktop,RPA","lowcode,microsoft,ms-power-automate-desktop,rpa",video,video,YouTube,youtube
30593,Anders Jensen,UCPdtz4gd_iYebJFYq9N8pWA,anders-jensen,https://www.youtube.com/channel/UCPdtz4gd_iYebJFYq9N8pWA,,Using Variables in Power Automate Desktop - Full Tutorial,IurF01TE-0E,https://www.youtube.com/watch?v=IurF01TE-0E,https://i.ytimg.com/vi/IurF01TE-0E/maxresdefault.jpg,2023-04-03,00:36:23,2023-14,"datatypes,lowcode,Microsoft,MS Power Automate Desktop,RPA","datatypes,lowcode,microsoft,ms-power-automate-desktop,rpa",video,video,YouTube,youtube
30584,Tom's Tech Academy,UCstCuI_7DvHw7-KSA3Yy9PQ,tom-s-tech-academy,https://www.youtube.com/channel/UCstCuI_7DvHw7-KSA3Yy9PQ,,Power Automate Desktop Excel Tutorial | Excel Tips & Tricks,-l6oZ08M62w,https://www.youtube.com/watch?v=-l6oZ08M62w,https://i.ytimg.com/vi_webp/-l6oZ08M62w/maxresdefault.webp,2023-04-01,00:11:47,2023-13,"Excel,lowcode,Microsoft,MS Power Automate Desktop,RPA","excel,lowcode,microsoft,ms-power-automate-desktop,rpa",video,video,YouTube,youtube
30577,Tom's Tech Academy,UCstCuI_7DvHw7-KSA3Yy9PQ,tom-s-tech-academy,https://www.youtube.com/channel/UCstCuI_7DvHw7-KSA3Yy9PQ,,Power Automate Desktop DateTime Tutorial | Add Days to Date | Calculate Difference | Change Format,pzB03iFiZRo,https://www.youtube.com/watch?v=pzB03iFiZRo,https://i.ytimg.com/vi/pzB03iFiZRo/maxresdefault.jpg,2023-03-31,00:06:09,2023-13,"DateTime,lowcode,Microsoft,MS Power Automate Desktop,RPA","datetime,lowcode,microsoft,ms-power-automate-desktop,rpa",video,video,YouTube,youtube
30579,Tom's Tech Academy,UCstCuI_7DvHw7-KSA3Yy9PQ,tom-s-tech-academy,https://www.youtube.com/channel/UCstCuI_7DvHw7-KSA3Yy9PQ,,String Functions in Power Automate Desktop | Get Subtext | Crop | Trim | Replace | Reverse | Split,J-KUmrGfstw,https://www.youtube.com/watch?v=J-KUmrGfstw,https://i.ytimg.com/vi_webp/J-KUmrGfstw/maxresdefault.webp,2023-03-31,00:10:07,2023-13,"lowcode,Microsoft,MS Power Automate Desktop,RPA,String","lowcode,microsoft,ms-power-automate-desktop,rpa,string",video,video,YouTube,youtube
30576,Anders Jensen,UCPdtz4gd_iYebJFYq9N8pWA,anders-jensen,https://www.youtube.com/channel/UCPdtz4gd_iYebJFYq9N8pWA,,Excel & DataTables in Power Automate Desktop - Including VBA and VBScript,urFyD7QOkac,https://www.youtube.com/watch?v=urFyD7QOkac,https://i.ytimg.com/vi_webp/urFyD7QOkac/maxresdefault.webp,2023-03-31,00:35:24,2023-13,"Excel,lowcode,Microsoft,MS Power Automate Desktop,RPA","excel,lowcode,microsoft,ms-power-automate-desktop,rpa",video,video,YouTube,youtube
30514,Anders Jensen,UCPdtz4gd_iYebJFYq9N8pWA,anders-jensen,https://www.youtube.com/channel/UCPdtz4gd_iYebJFYq9N8pWA,,Web Extraction in Microsoft Power Automate Desktop - Full Tutorial,POfK2A8iWAs,https://www.youtube.com/watch?v=POfK2A8iWAs,https://i.ytimg.com/vi_webp/POfK2A8iWAs/maxresdefault.webp,2023-03-18,01:13:05,2023-11,"lowcode,Microsoft,MS Power Automate Desktop,scraping","lowcode,microsoft,ms-power-automate-desktop,scraping",video,video,YouTube,youtube
30460,Anders Jensen,UCPdtz4gd_iYebJFYq9N8pWA,anders-jensen,https://www.youtube.com/channel/UCPdtz4gd_iYebJFYq9N8pWA,,Start With Microsoft Power Automate Desktop,SySI75hYHOU,https://www.youtube.com/watch?v=SySI75hYHOU,https://i.ytimg.com/vi_webp/SySI75hYHOU/maxresdefault.webp,2023-03-16,00:19:52,2023-11,"lowcode,Microsoft,MS Power Automate Desktop,RPA","lowcode,microsoft,ms-power-automate-desktop,rpa",video,video,YouTube,youtube
30442,Daniel Christian,UC2v4TcvO4rdDdfqd6rUR5yg,daniel-christian,https://www.youtube.com/channel/UC2v4TcvO4rdDdfqd6rUR5yg,,"Recognize Emails, Phone Numbers and Other Entities in Power Automate for Desktop",VcOQbomXA9E,https://www.youtube.com/watch?v=VcOQbomXA9E,https://i.ytimg.com/vi/VcOQbomXA9E/maxresdefault.jpg,2023-03-13,00:17:18,2023-11,"lowcode,Microsoft,MS Power Automate Desktop","lowcode,microsoft,ms-power-automate-desktop",video,video,YouTube,youtube
30354,Anders Jensen,UCPdtz4gd_iYebJFYq9N8pWA,anders-jensen,https://www.youtube.com/channel/UCPdtz4gd_iYebJFYq9N8pWA,,Power Automate Desktop: PDF Extraction and Application Entry,BxkfdK8rCRU,https://www.youtube.com/watch?v=BxkfdK8rCRU,https://i.ytimg.com/vi_webp/BxkfdK8rCRU/maxresdefault.webp,2023-03-08,01:13:43,2023-10,"Excel,lowcode,Microsoft,MS Power Automate Desktop,PDF,regex,RPA","excel,lowcode,microsoft,ms-power-automate-desktop,pdf,regex,rpa",video,video,YouTube,youtube
30347,Daniel Christian,UC2v4TcvO4rdDdfqd6rUR5yg,daniel-christian,https://www.youtube.com/channel/UC2v4TcvO4rdDdfqd6rUR5yg,,Power Automate for Desktop PDF Creator Using Word Template,lYuvBSNKgrk,https://www.youtube.com/watch?v=lYuvBSNKgrk,https://i.ytimg.com/vi/lYuvBSNKgrk/maxresdefault.jpg,2023-03-06,00:38:07,2023-10,"lowcode,MS Power Automate Desktop,MS Word,PDF,RPA","lowcode,ms-power-automate-desktop,ms-word,pdf,rpa",video,video,YouTube,youtube
30309,Daniel Christian,UC2v4TcvO4rdDdfqd6rUR5yg,daniel-christian,https://www.youtube.com/channel/UC2v4TcvO4rdDdfqd6rUR5yg,,Power Automate for Desktop Configure Exception and Error Handling,HjrDVypW7Mw,https://www.youtube.com/watch?v=HjrDVypW7Mw,https://i.ytimg.com/vi/HjrDVypW7Mw/maxresdefault.jpg,2023-02-27,00:21:16,2023-9,"Error Handling,logging,lowcode,Microsoft,MS Power Automate,MS Power Automate Desktop","errorhandling,logging,lowcode,microsoft,ms-power-automate,ms-power-automate-desktop",video,video,YouTube,youtube
30279,Anders Jensen,UCPdtz4gd_iYebJFYq9N8pWA,anders-jensen,https://www.youtube.com/channel/UCPdtz4gd_iYebJFYq9N8pWA,,How to Implement OpenAI's ChatGPT in Power Automate Desktop,QLy9nJnYme0,https://www.youtube.com/watch?v=QLy9nJnYme0,https://i.ytimg.com/vi/QLy9nJnYme0/maxresdefault.jpg,2023-02-21,00:09:33,2023-8,"Artificial Intelligence,lowcode,Microsoft,MS Power Automate Desktop,RPA","ai,lowcode,microsoft,ms-power-automate-desktop,rpa",video,video,YouTube,youtube
30305,Daniel Christian,UC2v4TcvO4rdDdfqd6rUR5yg,daniel-christian,https://www.youtube.com/channel/UC2v4TcvO4rdDdfqd6rUR5yg,,Power Automate Desktop With Outlook Integration and AI Builder,pslT9zOPh3E,https://www.youtube.com/watch?v=pslT9zOPh3E,https://i.ytimg.com/vi/pslT9zOPh3E/maxresdefault.jpg,2023-02-20,00:25:41,2023-8,"AI Builder,email automation,lowcode,Microsoft,MS Power Automate Desktop","ai-builder,email-automation,lowcode,microsoft,ms-power-automate-desktop",video,video,YouTube,youtube
30229,Daniel Christian,UC2v4TcvO4rdDdfqd6rUR5yg,daniel-christian,https://www.youtube.com/channel/UC2v4TcvO4rdDdfqd6rUR5yg,,Power Automate for Desktop With Repetitive Tasks,7jY_j4dSQ-U,https://www.youtube.com/watch?v=7jY_j4dSQ-U,https://i.ytimg.com/vi/7jY_j4dSQ-U/maxresdefault.jpg,2023-02-13,00:31:36,2023-7,"lowcode,Microsoft,MS Power Automate Desktop,RPA","lowcode,microsoft,ms-power-automate-desktop,rpa",video,video,YouTube,youtube
30224,Anders Jensen,UCPdtz4gd_iYebJFYq9N8pWA,anders-jensen,https://www.youtube.com/channel/UCPdtz4gd_iYebJFYq9N8pWA,,The Power of ChatGPT in Power Automate Desktop Development,faCjxIc-vqQ,https://www.youtube.com/watch?v=faCjxIc-vqQ,https://i.ytimg.com/vi_webp/faCjxIc-vqQ/maxresdefault.webp,2023-02-12,00:26:12,2023-6,"Artificial Intelligence,lowcode,Microsoft,MS Power Automate Desktop,RPA","ai,lowcode,microsoft,ms-power-automate-desktop,rpa",video,video,YouTube,youtube
30219,RPA Hub,UCnSVBOMNpmC-6SxHmogmu8w,rpa-hub,https://www.youtube.com/channel/UCnSVBOMNpmC-6SxHmogmu8w,,How to work with Hash Algorithm using Power Automate | Power Automate Tutorial,JSZxdq4dyeU,https://www.youtube.com/watch?v=JSZxdq4dyeU,https://i.ytimg.com/vi_webp/JSZxdq4dyeU/maxresdefault.webp,2023-02-11,00:08:02,2023-6,"encryption,lowcode,MS Power Automate Desktop,RPA","encryption,lowcode,ms-power-automate-desktop,rpa",video,video,YouTube,youtube
30180,Daniel Christian,UC2v4TcvO4rdDdfqd6rUR5yg,daniel-christian,https://www.youtube.com/channel/UC2v4TcvO4rdDdfqd6rUR5yg,,Power Automate for Desktop with Microsoft Excel,d3UWY07z4zo,https://www.youtube.com/watch?v=d3UWY07z4zo,https://i.ytimg.com/vi/d3UWY07z4zo/maxresdefault.jpg,2023-02-06,00:22:25,2023-6,"Excel,lowcode,MS Power Automate Desktop,RPA","excel,lowcode,ms-power-automate-desktop,rpa",video,video,YouTube,youtube
30142,Daniel Christian,UC2v4TcvO4rdDdfqd6rUR5yg,daniel-christian,https://www.youtube.com/channel/UC2v4TcvO4rdDdfqd6rUR5yg,,Power Automate for Desktop Machine Management Capability,r6ThqH0qTIk,https://www.youtube.com/watch?v=r6ThqH0qTIk,https://i.ytimg.com/vi/r6ThqH0qTIk/maxresdefault.jpg,2023-01-30,00:12:44,2023-5,"lowcode,MS Power Automate Desktop,RPA","lowcode,ms-power-automate-desktop,rpa",video,video,YouTube,youtube
30133,RPA Hub,UCnSVBOMNpmC-6SxHmogmu8w,rpa-hub,https://www.youtube.com/channel/UCnSVBOMNpmC-6SxHmogmu8w,,Power Automate Integration with Open AI | Integrate ChatGPT into Power Automate,XKiK8VkdEAc,https://www.youtube.com/watch?v=XKiK8VkdEAc,https://i.ytimg.com/vi_webp/XKiK8VkdEAc/maxresdefault.webp,2023-01-28,00:11:40,2023-4,"Artificial Intelligence,lowcode,Microsoft,MS Power Automate Desktop,RPA","ai,lowcode,microsoft,ms-power-automate-desktop,rpa",video,video,YouTube,youtube
30100,RPAFeed,UC3f0L_fUSQe8vAQwJowJ6-g,rpafeed,https://www.youtube.com/channel/UC3f0L_fUSQe8vAQwJowJ6-g,,Integrating ChatGPT with Power Automate Desktop | RPAFeed,0etqJ5htX_8,https://www.youtube.com/watch?v=0etqJ5htX_8,https://i.ytimg.com/vi/0etqJ5htX_8/maxresdefault.jpg,2023-01-23,00:11:34,2023-4,"lowcode,Microsoft,MS Power Automate Desktop,RPA","lowcode,microsoft,ms-power-automate-desktop,rpa",video,video,YouTube,youtube
30105,Daniel Christian,UC2v4TcvO4rdDdfqd6rUR5yg,daniel-christian,https://www.youtube.com/channel/UC2v4TcvO4rdDdfqd6rUR5yg,,Power Automate Desktop Variables,Aoy_PfMETSY,https://www.youtube.com/watch?v=Aoy_PfMETSY,https://i.ytimg.com/vi/Aoy_PfMETSY/maxresdefault.jpg,2023-01-23,00:38:07,2023-4,"datatypes,lowcode,MS Power Automate Desktop,RPA,Solution Design","datatypes,lowcode,ms-power-automate-desktop,rpa,solution-design",video,video,YouTube,youtube
30101,Act Automate (Mahmoud TV),UCgmw5KA88D6jS8lPBzEXFgA,act-automate-mahmoud-tv,https://www.youtube.com/channel/UCgmw5KA88D6jS8lPBzEXFgA,,Integrate ChatGPT into Power Automate Desktop | Invoke Web Service | ChatGPT API in Power Automate,OvAVc3rhn4w,https://www.youtube.com/watch?v=OvAVc3rhn4w,https://i.ytimg.com/vi/OvAVc3rhn4w/maxresdefault.jpg,2023-01-23,00:11:04,2023-4,"Artificial Intelligence,lowcode,Microsoft,MS Power Automate Desktop,RPA","ai,lowcode,microsoft,ms-power-automate-desktop,rpa",video,video,YouTube,youtube
30097,Act Automate (Mahmoud TV),UCgmw5KA88D6jS8lPBzEXFgA,act-automate-mahmoud-tv,https://www.youtube.com/channel/UCgmw5KA88D6jS8lPBzEXFgA,,ChatGPT API in Power Automate Desktop - OpenAI,11YkpLW8dj4,https://www.youtube.com/watch?v=11YkpLW8dj4,https://i.ytimg.com/vi/11YkpLW8dj4/sd2.jpg,2023-01-22,00:01:00,2023-3,"Artificial Intelligence,lowcode,Microsoft,MS Power Automate Desktop,RPA","ai,lowcode,microsoft,ms-power-automate-desktop,rpa",video,video,YouTube,youtube
30059,Daniel Christian,UC2v4TcvO4rdDdfqd6rUR5yg,daniel-christian,https://www.youtube.com/channel/UC2v4TcvO4rdDdfqd6rUR5yg,,Power Automate for Desktop Message Boxes,A0_BSOlZrII,https://www.youtube.com/watch?v=A0_BSOlZrII,https://i.ytimg.com/vi/A0_BSOlZrII/maxresdefault.jpg,2023-01-16,00:36:59,2023-3,"lowcode,Microsoft,MS Power Automate Desktop,RPA","lowcode,microsoft,ms-power-automate-desktop,rpa",video,video,YouTube,youtube
30058,Act Automate (Mahmoud TV),UCgmw5KA88D6jS8lPBzEXFgA,act-automate-mahmoud-tv,https://www.youtube.com/channel/UCgmw5KA88D6jS8lPBzEXFgA,,Excel and DataTable Activities in Power Automate Desktop: A Detailed Explanation | Full Tutorial,-H1ZTyz7Ca0,https://www.youtube.com/watch?v=-H1ZTyz7Ca0,https://i.ytimg.com/vi/-H1ZTyz7Ca0/maxresdefault.jpg,2023-01-16,00:39:34,2023-3,"DataTable,Excel,lowcode,Microsoft,MS Power Automate Desktop,RPA","datatable,excel,lowcode,microsoft,ms-power-automate-desktop,rpa",video,video,YouTube,youtube
30023,Anders Jensen,UCPdtz4gd_iYebJFYq9N8pWA,anders-jensen,https://www.youtube.com/channel/UCPdtz4gd_iYebJFYq9N8pWA,,Microsoft Power Automate Desktop - Beginners Course 2023,qfpHqfp2R3Y,https://www.youtube.com/watch?v=qfpHqfp2R3Y,https://i.ytimg.com/vi/qfpHqfp2R3Y/maxresdefault.jpg,2023-01-11,01:52:04,2023-2,"lowcode,Microsoft,MS Power Automate Desktop,RPA","lowcode,microsoft,ms-power-automate-desktop,rpa",video,video,YouTube,youtube
30009,Daniel Christian,UC2v4TcvO4rdDdfqd6rUR5yg,daniel-christian,https://www.youtube.com/channel/UC2v4TcvO4rdDdfqd6rUR5yg,,Power Automate Desktop Recorder,nr_RNYWDIxM,https://www.youtube.com/watch?v=nr_RNYWDIxM,https://i.ytimg.com/vi/nr_RNYWDIxM/maxresdefault.jpg,2023-01-09,00:23:20,2023-2,"lowcode,Microsoft,MS Power Automate Desktop,recording,RPA","lowcode,microsoft,ms-power-automate-desktop,recording,rpa",video,video,YouTube,youtube
29979,Daniel Christian,UC2v4TcvO4rdDdfqd6rUR5yg,daniel-christian,https://www.youtube.com/channel/UC2v4TcvO4rdDdfqd6rUR5yg,,Introduction to Power Automate for Desktop,dt3wCbETvik,https://www.youtube.com/watch?v=dt3wCbETvik,https://i.ytimg.com/vi/dt3wCbETvik/maxresdefault.jpg,2023-01-03,00:29:57,2023-1,"lowcode,Microsoft,MS Power Automate Desktop,RPA","lowcode,microsoft,ms-power-automate-desktop,rpa",video,video,YouTube,youtube
29947,RPA Hub,UCnSVBOMNpmC-6SxHmogmu8w,rpa-hub,https://www.youtube.com/channel/UCnSVBOMNpmC-6SxHmogmu8w,,Automate Drag and drop action Using Power Automate | Power Automate,XlRjOaOPErU,https://www.youtube.com/watch?v=XlRjOaOPErU,https://i.ytimg.com/vi_webp/XlRjOaOPErU/maxresdefault.webp,2022-12-29,00:03:18,2022-52,"lowcode,Microsoft,MS Power Automate Desktop,RPA","lowcode,microsoft,ms-power-automate-desktop,rpa",video,video,YouTube,youtube
29815,Tom's Tech Academy,UCstCuI_7DvHw7-KSA3Yy9PQ,tom-s-tech-academy,https://www.youtube.com/channel/UCstCuI_7DvHw7-KSA3Yy9PQ,,How to loop through each row in Excel - Power Automate Desktop Tutorial,grMjMXFQhw8,https://www.youtube.com/watch?v=grMjMXFQhw8,https://i.ytimg.com/vi_webp/grMjMXFQhw8/maxresdefault.webp,2022-12-23,00:04:03,2022-51,"control flow,Excel,lowcode,Microsoft,MS Power Automate Desktop","control-flow,excel,lowcode,microsoft,ms-power-automate-desktop",video,video,YouTube,youtube
29720,Tom's Tech Academy,UCstCuI_7DvHw7-KSA3Yy9PQ,tom-s-tech-academy,https://www.youtube.com/channel/UCstCuI_7DvHw7-KSA3Yy9PQ,,Web Scraping with Power Automate Desktop in 5 minutes | Tutorial,xK1syzA6NEE,https://www.youtube.com/watch?v=xK1syzA6NEE,https://i.ytimg.com/vi_webp/xK1syzA6NEE/maxresdefault.webp,2022-12-02,00:05:24,2022-48,"Excel,lowcode,MS Power Automate Desktop,RPA,scraping","excel,lowcode,ms-power-automate-desktop,rpa,scraping",video,video,YouTube,youtube
29714,RPA Hub,UCnSVBOMNpmC-6SxHmogmu8w,rpa-hub,https://www.youtube.com/channel/UCnSVBOMNpmC-6SxHmogmu8w,,Form Filling using Power Automate | Power Automate Tutorial,fb5QfAmwri8,https://www.youtube.com/watch?v=fb5QfAmwri8,https://i.ytimg.com/vi_webp/fb5QfAmwri8/maxresdefault.webp,2022-12-01,00:16:05,2022-48,"control flow,lowcode,Microsoft,MS Power Automate Desktop,RPA","control-flow,lowcode,microsoft,ms-power-automate-desktop,rpa",video,video,YouTube,youtube
29676,Marcelo Cruz,UCZiebEnHb2xPokSLdCasVNQ,marcelo-cruz,https://www.youtube.com/channel/UCZiebEnHb2xPokSLdCasVNQ,,How To Share Power Automate Desktop Flow - Tutorial,LpcmJ64QlO0,https://www.youtube.com/watch?v=LpcmJ64QlO0,https://i.ytimg.com/vi_webp/LpcmJ64QlO0/maxresdefault.webp,2022-11-24,00:01:28,2022-47,"lowcode,Microsoft,MS Power Automate Desktop,RPA","lowcode,microsoft,ms-power-automate-desktop,rpa",video,video,YouTube,youtube
29649,Anders Jensen,UCPdtz4gd_iYebJFYq9N8pWA,anders-jensen,https://www.youtube.com/channel/UCPdtz4gd_iYebJFYq9N8pWA,,How to Get Started with Microsoft Power Automate Desktop,_7YkqephDxg,https://www.youtube.com/watch?v=_7YkqephDxg,https://i.ytimg.com/vi/_7YkqephDxg/maxresdefault.jpg,2022-11-20,02:19:10,2022-46,"browser,control flow,datatypes,email automation,lowcode,Microsoft,MS Power Automate Desktop,recording,RPA","browser,control-flow,datatypes,email-automation,lowcode,microsoft,ms-power-automate-desktop,recording,rpa",video,video,YouTube,youtube
29533,Anders Jensen,UCPdtz4gd_iYebJFYq9N8pWA,anders-jensen,https://www.youtube.com/channel/UCPdtz4gd_iYebJFYq9N8pWA,,How to Run Power Automate Cloud Flows from Power Automate Desktop,-EqRVw3fMSA,https://www.youtube.com/watch?v=-EqRVw3fMSA,https://i.ytimg.com/vi_webp/-EqRVw3fMSA/maxresdefault.webp,2022-11-08,00:04:56,2022-45,"lowcode,Microsoft,MS Power Automate,MS Power Automate Desktop,RPA","lowcode,microsoft,ms-power-automate,ms-power-automate-desktop,rpa",video,video,YouTube,youtube
29496,Anders Jensen,UCPdtz4gd_iYebJFYq9N8pWA,anders-jensen,https://www.youtube.com/channel/UCPdtz4gd_iYebJFYq9N8pWA,,Advanced Invoice Processing with AI Builder in Power Automate Desktop,UH8jQTz-PMk,https://www.youtube.com/watch?v=UH8jQTz-PMk,https://i.ytimg.com/vi/UH8jQTz-PMk/maxresdefault.jpg,2022-11-06,00:19:14,2022-44,"AI Builder,lowcode,Microsoft,MS Power Automate Desktop,RPA","ai-builder,lowcode,microsoft,ms-power-automate-desktop,rpa",video,video,YouTube,youtube
29469,Botaverse,UC9X6RP2sAa4NDeg0aznQAkA,botaverse,https://www.youtube.com/channel/UC9X6RP2sAa4NDeg0aznQAkA,,Power Automate Desktop: Math Operations ('Enter the Botaverse') 🤖,IifgfZowxVw,https://www.youtube.com/watch?v=IifgfZowxVw,https://i.ytimg.com/vi_webp/IifgfZowxVw/maxresdefault.webp,2022-11-02,00:04:51,2022-44,"datatypes,lowcode,Microsoft,MS Power Automate Desktop,RPA","datatypes,lowcode,microsoft,ms-power-automate-desktop,rpa",video,video,YouTube,youtube
29463,Marcelo Cruz,UCZiebEnHb2xPokSLdCasVNQ,marcelo-cruz,https://www.youtube.com/channel/UCZiebEnHb2xPokSLdCasVNQ,,How To Login Into SAP on Power Automate Desktop - RPA Tutorial,W1a30IoETRo,https://www.youtube.com/watch?v=W1a30IoETRo,https://i.ytimg.com/vi_webp/W1a30IoETRo/maxresdefault.webp,2022-11-01,00:09:23,2022-44,"lowcode,Microsoft,MS Power Automate Desktop,RPA,SAP","lowcode,microsoft,ms-power-automate-desktop,rpa,sap",video,video,YouTube,youtube
29464,Anders Jensen,UCPdtz4gd_iYebJFYq9N8pWA,anders-jensen,https://www.youtube.com/channel/UCPdtz4gd_iYebJFYq9N8pWA,,Extract Multiple Web Pages with Power Automate Desktop - Full Tutorial,yvoUBwCqdn0,https://www.youtube.com/watch?v=yvoUBwCqdn0,https://i.ytimg.com/vi_webp/yvoUBwCqdn0/maxresdefault.webp,2022-11-01,00:18:08,2022-44,"Excel,lowcode,Microsoft,MS Power Automate Desktop,RPA,scraping","excel,lowcode,microsoft,ms-power-automate-desktop,rpa,scraping",video,video,YouTube,youtube
29379,Anders Jensen,UCPdtz4gd_iYebJFYq9N8pWA,anders-jensen,https://www.youtube.com/channel/UCPdtz4gd_iYebJFYq9N8pWA,,Power Automate Desktop - API Call and extract XML - Full Tutorial,vL1Z3oON7SM,https://www.youtube.com/watch?v=vL1Z3oON7SM,https://i.ytimg.com/vi_webp/vL1Z3oON7SM/maxresdefault.webp,2022-10-24,00:09:13,2022-43,"APIs,lowcode,Microsoft,MS Power Automate Desktop,RPA","apis,lowcode,microsoft,ms-power-automate-desktop,rpa",video,video,YouTube,youtube
29345,Anders Jensen,UCPdtz4gd_iYebJFYq9N8pWA,anders-jensen,https://www.youtube.com/channel/UCPdtz4gd_iYebJFYq9N8pWA,,How to Send Dynamic Emails with Power Automate Desktop,5bHhl1_jVoE,https://www.youtube.com/watch?v=5bHhl1_jVoE,https://i.ytimg.com/vi_webp/5bHhl1_jVoE/maxresdefault.webp,2022-10-21,00:09:18,2022-42,"Excel,lowcode,Microsoft,MS Power Automate Desktop,RPA","excel,lowcode,microsoft,ms-power-automate-desktop,rpa",video,video,YouTube,youtube
29334,Anders Jensen,UCPdtz4gd_iYebJFYq9N8pWA,anders-jensen,https://www.youtube.com/channel/UCPdtz4gd_iYebJFYq9N8pWA,,How to Open an Application in Power Automate Desktop,ul5Fc6ka5o4,https://www.youtube.com/watch?v=ul5Fc6ka5o4,https://i.ytimg.com/vi_webp/ul5Fc6ka5o4/maxresdefault.webp,2022-10-20,00:10:02,2022-42,"lowcode,Microsoft,MS Power Automate Desktop,RPA","lowcode,microsoft,ms-power-automate-desktop,rpa",video,video,YouTube,youtube
29324,Anders Jensen,UCPdtz4gd_iYebJFYq9N8pWA,anders-jensen,https://www.youtube.com/channel/UCPdtz4gd_iYebJFYq9N8pWA,,How to Get Files in a Folder in Power Automate Desktop,bXqSjLCSLEg,https://www.youtube.com/watch?v=bXqSjLCSLEg,https://i.ytimg.com/vi_webp/bXqSjLCSLEg/maxresdefault.webp,2022-10-19,00:18:17,2022-42,"files,lowcode,Microsoft,MS Power Automate Desktop,RPA","files,lowcode,microsoft,ms-power-automate-desktop,rpa",video,video,YouTube,youtube
29298,Anders Jensen,UCPdtz4gd_iYebJFYq9N8pWA,anders-jensen,https://www.youtube.com/channel/UCPdtz4gd_iYebJFYq9N8pWA,,How to do No Code Web Scraping with Power Automate Desktop,GxCG7hzdN0U,https://www.youtube.com/watch?v=GxCG7hzdN0U,https://i.ytimg.com/vi/GxCG7hzdN0U/maxresdefault.jpg,2022-10-18,00:10:23,2022-42,"lowcode,Microsoft,MS Power Automate Desktop,RPA,scraping","lowcode,microsoft,ms-power-automate-desktop,rpa,scraping",video,video,YouTube,youtube
29287,Anders Jensen,UCPdtz4gd_iYebJFYq9N8pWA,anders-jensen,https://www.youtube.com/channel/UCPdtz4gd_iYebJFYq9N8pWA,,How to Open Browser and Login with Power Automate Desktop,sDclQ7MgVtY,https://www.youtube.com/watch?v=sDclQ7MgVtY,https://i.ytimg.com/vi_webp/sDclQ7MgVtY/maxresdefault.webp,2022-10-17,00:11:43,2022-42,"browser,lowcode,Microsoft,MS Power Automate Desktop,RPA","browser,lowcode,microsoft,ms-power-automate-desktop,rpa",video,video,YouTube,youtube
29306,Botaverse,UC9X6RP2sAa4NDeg0aznQAkA,botaverse,https://www.youtube.com/channel/UC9X6RP2sAa4NDeg0aznQAkA,,Power Automate Desktop Intallation 💻⏬,Ox3FdpG_ON4,https://www.youtube.com/watch?v=Ox3FdpG_ON4,https://i.ytimg.com/vi_webp/Ox3FdpG_ON4/sddefault.webp,2022-10-14,00:02:59,2022-41,"lowcode,Microsoft,MS Power Automate Desktop,RPA","lowcode,microsoft,ms-power-automate-desktop,rpa",video,video,YouTube,youtube
29246,Anders Jensen,UCPdtz4gd_iYebJFYq9N8pWA,anders-jensen,https://www.youtube.com/channel/UCPdtz4gd_iYebJFYq9N8pWA,,How to Split a PDF into Multiple Files With Power Automate Desktop,SIAiLHn_1As,https://www.youtube.com/watch?v=SIAiLHn_1As,https://i.ytimg.com/vi/SIAiLHn_1As/maxresdefault.jpg,2022-10-12,00:15:19,2022-41,"lowcode,Microsoft,MS Power Automate Desktop,PDF,RPA","lowcode,microsoft,ms-power-automate-desktop,pdf,rpa",video,video,YouTube,youtube
29241,Marcelo Cruz,UCZiebEnHb2xPokSLdCasVNQ,marcelo-cruz,https://www.youtube.com/channel/UCZiebEnHb2xPokSLdCasVNQ,,Power Automate Desktop - Outlook Automation (Full Tutorial),T6R89iP0SOI,https://www.youtube.com/watch?v=T6R89iP0SOI,https://i.ytimg.com/vi_webp/T6R89iP0SOI/maxresdefault.webp,2022-10-11,00:15:43,2022-41,"email automation,lowcode,MS Power Automate Desktop,RPA","email-automation,lowcode,ms-power-automate-desktop,rpa",video,video,YouTube,youtube
29229,Anders Jensen,UCPdtz4gd_iYebJFYq9N8pWA,anders-jensen,https://www.youtube.com/channel/UCPdtz4gd_iYebJFYq9N8pWA,,How to use Loops in Microsoft Power Automate Desktop,QOM0GG7k_Pw,https://www.youtube.com/watch?v=QOM0GG7k_Pw,https://i.ytimg.com/vi/QOM0GG7k_Pw/maxresdefault.jpg,2022-10-10,00:11:15,2022-41,"control flow,lowcode,Microsoft,MS Power Automate Desktop,RPA","control-flow,lowcode,microsoft,ms-power-automate-desktop,rpa",video,video,YouTube,youtube
29305,Botaverse,UC9X6RP2sAa4NDeg0aznQAkA,botaverse,https://www.youtube.com/channel/UC9X6RP2sAa4NDeg0aznQAkA,,Power Automate Desktop: Data Table Activities ('Enter the Botaverse')🤖,j5fpluoFfZY,https://www.youtube.com/watch?v=j5fpluoFfZY,https://i.ytimg.com/vi_webp/j5fpluoFfZY/maxresdefault.webp,2022-10-08,00:23:46,2022-40,"DataTable,datatypes,lowcode,Microsoft,MS Power Automate Desktop,RPA","datatable,datatypes,lowcode,microsoft,ms-power-automate-desktop,rpa",video,video,YouTube,youtube
29213,Anders Jensen,UCPdtz4gd_iYebJFYq9N8pWA,anders-jensen,https://www.youtube.com/channel/UCPdtz4gd_iYebJFYq9N8pWA,,How to use Excel in Microsoft Power Automate Desktop,4Py-V85bPfo,https://www.youtube.com/watch?v=4Py-V85bPfo,https://i.ytimg.com/vi/4Py-V85bPfo/maxresdefault.jpg,2022-10-07,00:19:53,2022-40,"Excel,lowcode,Microsoft,MS Power Automate Desktop,RPA","excel,lowcode,microsoft,ms-power-automate-desktop,rpa",video,video,YouTube,youtube
29205,Anders Jensen,UCPdtz4gd_iYebJFYq9N8pWA,anders-jensen,https://www.youtube.com/channel/UCPdtz4gd_iYebJFYq9N8pWA,,How to Use If and Switch in Microsoft Power Automate Desktop,H9M9TGVo3uc,https://www.youtube.com/watch?v=H9M9TGVo3uc,https://i.ytimg.com/vi/H9M9TGVo3uc/maxresdefault.jpg,2022-10-06,00:08:18,2022-40,"control flow,lowcode,Microsoft,MS Power Automate Desktop,RPA","control-flow,lowcode,microsoft,ms-power-automate-desktop,rpa",video,video,YouTube,youtube
29201,Anders Jensen,UCPdtz4gd_iYebJFYq9N8pWA,anders-jensen,https://www.youtube.com/channel/UCPdtz4gd_iYebJFYq9N8pWA,,How to Use Variables in Microsoft Power Automate Desktop,0S_QgIOvB7c,https://www.youtube.com/watch?v=0S_QgIOvB7c,https://i.ytimg.com/vi/0S_QgIOvB7c/maxresdefault.jpg,2022-10-05,00:30:26,2022-40,"DataTable,datatypes,lowcode,Microsoft,MS Power Automate Desktop,RPA,String","datatable,datatypes,lowcode,microsoft,ms-power-automate-desktop,rpa,string",video,video,YouTube,youtube
29190,Anders Jensen,UCPdtz4gd_iYebJFYq9N8pWA,anders-jensen,https://www.youtube.com/channel/UCPdtz4gd_iYebJFYq9N8pWA,,Outlook Emails in Power Automate Desktop - Full Tutorial,x5l7Ow7s5Lo,https://www.youtube.com/watch?v=x5l7Ow7s5Lo,https://i.ytimg.com/vi_webp/x5l7Ow7s5Lo/maxresdefault.webp,2022-10-04,00:33:10,2022-40,"email automation,lowcode,Microsoft,MS Power Automate Desktop,RPA","email-automation,lowcode,microsoft,ms-power-automate-desktop,rpa",video,video,YouTube,youtube
29304,Botaverse,UC9X6RP2sAa4NDeg0aznQAkA,botaverse,https://www.youtube.com/channel/UC9X6RP2sAa4NDeg0aznQAkA,,Power Automate Desktop: Excel Operations ('Enter the Botaverse') 🤖,9TpuUBXCjF4,https://www.youtube.com/watch?v=9TpuUBXCjF4,https://i.ytimg.com/vi/9TpuUBXCjF4/maxresdefault.jpg,2022-10-02,00:36:00,2022-39,"Excel,lowcode,Microsoft,MS Power Automate Desktop,RPA","excel,lowcode,microsoft,ms-power-automate-desktop,rpa",video,video,YouTube,youtube
29149,Power of RPA with MJ,UCSUj-3f3nwG94TmQ-m9D6SQ,power-of-rpa-with-mj,https://www.youtube.com/channel/UCSUj-3f3nwG94TmQ-m9D6SQ,,What is the  Best Approach in Power Automate Desktop,jIeVuF5Khuk,https://www.youtube.com/watch?v=jIeVuF5Khuk,https://i.ytimg.com/vi_webp/jIeVuF5Khuk/maxresdefault.webp,2022-09-28,00:10:34,2022-39,"ALM,lowcode,Microsoft,MS Power Automate Desktop,RPA","alm,lowcode,microsoft,ms-power-automate-desktop,rpa",video,video,YouTube,youtube
29147,Anders Jensen,UCPdtz4gd_iYebJFYq9N8pWA,anders-jensen,https://www.youtube.com/channel/UCPdtz4gd_iYebJFYq9N8pWA,,Web Scraping with RegEx in Power Automate Desktop - Advanced Use Case,TmeGaxksrUA,https://www.youtube.com/watch?v=TmeGaxksrUA,https://i.ytimg.com/vi/TmeGaxksrUA/maxresdefault.jpg,2022-09-28,00:30:10,2022-39,"lowcode,Microsoft,MS Power Automate Desktop,regex,RPA,scraping","lowcode,microsoft,ms-power-automate-desktop,regex,rpa,scraping",video,video,YouTube,youtube
29141,RPA Hub,UCnSVBOMNpmC-6SxHmogmu8w,rpa-hub,https://www.youtube.com/channel/UCnSVBOMNpmC-6SxHmogmu8w,,Text Operation using Power Automate Part 1 | Power Automate,Lm6SD8cAYCE,https://www.youtube.com/watch?v=Lm6SD8cAYCE,https://i.ytimg.com/vi_webp/Lm6SD8cAYCE/sddefault.webp?v=63313872,2022-09-27,00:05:14,2022-39,"lowcode,MS Power Automate,MS Power Automate Desktop,String","lowcode,ms-power-automate,ms-power-automate-desktop,string",video,video,YouTube,youtube
4108,Anders Jensen,UCPdtz4gd_iYebJFYq9N8pWA,anders-jensen,https://www.youtube.com/channel/UCPdtz4gd_iYebJFYq9N8pWA,,How to Run Desktop Flows From Power Automate - Full Tutorial,mxfOEpTE6hw,https://www.youtube.com/watch?v=mxfOEpTE6hw,https://i.ytimg.com/vi/mxfOEpTE6hw/hqdefault.jpg,2022-07-22,00:07:05,2022-29,"lowcode,Microsoft,MS Power Automate,MS Power Automate Desktop,MS Power Platform,RPA","lowcode,microsoft,ms-power-automate,ms-power-automate-desktop,mspp,rpa",video,video,YouTube,youtube
29016,Thomas 'Shaky' Petersen,UC9t7dyY7Eh4h5_uCMtLNFOw,thomas-shaky-petersen,https://www.youtube.com/channel/UC9t7dyY7Eh4h5_uCMtLNFOw,,Power Automate Desktop - Logging and cloud flow template,UP0P8V-lL9s,https://www.youtube.com/watch?v=UP0P8V-lL9s,https://i.ytimg.com/vi_webp/UP0P8V-lL9s/maxresdefault.webp,2022-06-03,00:09:00,2022-22,"logging,lowcode,Microsoft,MS Power Automate Desktop","logging,lowcode,microsoft,ms-power-automate-desktop",video,video,YouTube,youtube
25386,RPAFeed,UC3f0L_fUSQe8vAQwJowJ6-g,rpafeed,https://www.youtube.com/channel/UC3f0L_fUSQe8vAQwJowJ6-g,,Difference between Power Automate and Power Automate Desktop,jPXKh9g5Rf0,https://www.youtube.com/watch?v=jPXKh9g5Rf0,https://i.ytimg.com/vi_webp/jPXKh9g5Rf0/maxresdefault.webp,2022-01-25,00:06:00,2022-4,"lowcode,Microsoft,MS Power Automate,MS Power Automate Desktop","lowcode,microsoft,ms-power-automate,ms-power-automate-desktop",video,video,YouTube,youtube
