id,org_name,org_identifier,org_slug,org_url,person,title,platform_identifier,url,thumbnail_src,published_at,duration,year_week,tags,tags_slugs,type_name,type_slug,platform_name,platform_slug
30676,Andrew Hess - MySPQuestions,UCH7RJ4zXEjFpfsm-6VZI8vw,andrew-hess-myspquestions,https://www.youtube.com/channel/UCH7RJ4zXEjFpfsm-6VZI8vw,,Beginner Tutorial: How to Write Multiple Lines at a Time in Power Apps,GnegIaClTQ4,https://www.youtube.com/watch?v=GnegIaClTQ4,https://i.ytimg.com/vi_webp/GnegIaClTQ4/maxresdefault.webp,2023-04-17,00:19:44,2023-16,"Database,lowcode,Microsoft,Power Apps","database,lowcode,microsoft,ms-power-apps",video,video,YouTube,youtube
30634,Softchief Learn,4711,softchief-learn,https://www.youtube.com/channel/UCx28J1vtdIZId2ztVgFiJPQ,,Working with Virtual Table for Integration Full Tutorial using SharePoint and Dataverse,NQMyZAVG-vA,https://www.youtube.com/watch?v=NQMyZAVG-vA,https://i.ytimg.com/vi_webp/NQMyZAVG-vA/maxresdefault.webp,2023-04-11,00:16:36,2023-15,"Database,lowcode,Microsoft","database,lowcode,microsoft",video,video,YouTube,youtube
30515,Daniel Christian,UC2v4TcvO4rdDdfqd6rUR5yg,daniel-christian,https://www.youtube.com/channel/UC2v4TcvO4rdDdfqd6rUR5yg,,Introduction to Power Platform Virtual Tables,UKkmz-iaz9M,https://www.youtube.com/watch?v=UKkmz-iaz9M,https://i.ytimg.com/vi/UKkmz-iaz9M/maxresdefault.jpg,2023-03-20,00:18:13,2023-12,"Database,lowcode,Microsoft,MS Power Platform","database,lowcode,microsoft,mspp",video,video,YouTube,youtube
