id,org_name,org_identifier,org_slug,org_url,person,title,platform_identifier,url,thumbnail_src,published_at,duration,year_week,tags,tags_slugs,type_name,type_slug,platform_name,platform_slug
30309,Daniel Christian,UC2v4TcvO4rdDdfqd6rUR5yg,daniel-christian,https://www.youtube.com/channel/UC2v4TcvO4rdDdfqd6rUR5yg,,Power Automate for Desktop Configure Exception and Error Handling,HjrDVypW7Mw,https://www.youtube.com/watch?v=HjrDVypW7Mw,https://i.ytimg.com/vi/HjrDVypW7Mw/maxresdefault.jpg,2023-02-27,00:21:16,2023-9,"Error Handling,logging,lowcode,Microsoft,MS Power Automate,MS Power Automate Desktop","errorhandling,logging,lowcode,microsoft,ms-power-automate,ms-power-automate-desktop",video,video,YouTube,youtube
29016,Thomas 'Shaky' Petersen,UC9t7dyY7Eh4h5_uCMtLNFOw,thomas-shaky-petersen,https://www.youtube.com/channel/UC9t7dyY7Eh4h5_uCMtLNFOw,,Power Automate Desktop - Logging and cloud flow template,UP0P8V-lL9s,https://www.youtube.com/watch?v=UP0P8V-lL9s,https://i.ytimg.com/vi_webp/UP0P8V-lL9s/maxresdefault.webp,2022-06-03,00:09:00,2022-22,"logging,lowcode,Microsoft,MS Power Automate Desktop","logging,lowcode,microsoft,ms-power-automate-desktop",video,video,YouTube,youtube
