id,org_name,org_slug,org_url,person,title,platform_identifier,url,thumbnail_src,published_at,duration,year_week,tags,tags_slugs,type_name,type_slug,platform_name,platform_slug
30048,Act Automate (Mahmoud TV),act-automate-mahmoud-tv,https://www.youtube.com/channel/UCgmw5KA88D6jS8lPBzEXFgA,,ChatGPT API in UiPath - OpenAI,gpQP4tIyXJo,https://www.youtube.com/watch?v=gpQP4tIyXJo,https://i.ytimg.com/vi/gpQP4tIyXJo/sd2.jpg,2023-01-14,00:01:00,2023-2,"Artificial Intelligence,RPA,UiPath","ai,rpa,uipath",video,video,YouTube,youtube
30017,Anders Jensen,anders-jensen,https://www.youtube.com/channel/UCPdtz4gd_iYebJFYq9N8pWA,,Intelligent Document Processing with OpenBots,wg2zLEKY5lM,https://www.youtube.com/watch?v=wg2zLEKY5lM,https://i.ytimg.com/vi/wg2zLEKY5lM/maxresdefault.jpg,2023-01-10,00:59:15,2023-2,"Intelligent Document Processing,OpenBots,RPA","intelligent-document-processing,openbots,rpa",video,video,YouTube,youtube
30023,Anders Jensen,anders-jensen,https://www.youtube.com/channel/UCPdtz4gd_iYebJFYq9N8pWA,,Microsoft Power Automate Desktop - Beginners Course 2023,qfpHqfp2R3Y,https://www.youtube.com/watch?v=qfpHqfp2R3Y,https://i.ytimg.com/vi/qfpHqfp2R3Y/maxresdefault.jpg,2023-01-11,01:52:04,2023-2,"lowcode,Microsoft,MS Power Automate Desktop,RPA","lowcode,microsoft,ms-power-automate-desktop,rpa",video,video,YouTube,youtube
30014,Automate with Rakesh,automate-with-rakesh,https://www.youtube.com/channel/UCqxVW50cODphM0YHvA34NjQ,,Python for Beginners - Full Course Module 5,I1V1nzvVDeI,https://www.youtube.com/watch?v=I1V1nzvVDeI,https://i.ytimg.com/vi_webp/I1V1nzvVDeI/maxresdefault.webp,2023-01-10,01:55:16,2023-2,"Python,RPA","python,rpa",video,video,YouTube,youtube
30025,Automate with Rakesh,automate-with-rakesh,https://www.youtube.com/channel/UCqxVW50cODphM0YHvA34NjQ,,Python for Beginners - Full Course Module 6,yNfjRBfhhPE,https://www.youtube.com/watch?v=yNfjRBfhhPE,https://i.ytimg.com/vi_webp/yNfjRBfhhPE/maxresdefault.webp,2023-01-11,01:39:24,2023-2,"Python,RPA","python,rpa",video,video,YouTube,youtube
30030,Automate with Rakesh,automate-with-rakesh,https://www.youtube.com/channel/UCqxVW50cODphM0YHvA34NjQ,,Python for Beginners - Full Course Module 7,JsE9oEzyqsY,https://www.youtube.com/watch?v=JsE9oEzyqsY,https://i.ytimg.com/vi_webp/JsE9oEzyqsY/maxresdefault.webp,2023-01-12,01:06:24,2023-2,"Python,RPA","python,rpa",video,video,YouTube,youtube
30037,Automate with Rakesh,automate-with-rakesh,https://www.youtube.com/channel/UCqxVW50cODphM0YHvA34NjQ,,Python for Beginners - Full Course Module 8,LMsieIxe7Ks,https://www.youtube.com/watch?v=LMsieIxe7Ks,https://i.ytimg.com/vi_webp/LMsieIxe7Ks/maxresdefault.webp,2023-01-13,01:38:02,2023-2,"Python,RPA","python,rpa",video,video,YouTube,youtube
30045,Automate with Rakesh,automate-with-rakesh,https://www.youtube.com/channel/UCqxVW50cODphM0YHvA34NjQ,,Python for Beginners - Developers Python Full Course in 11 Hours,sstx-qHz0rQ,https://www.youtube.com/watch?v=sstx-qHz0rQ,https://i.ytimg.com/vi_webp/sstx-qHz0rQ/maxresdefault.webp,2023-01-14,11:03:42,2023-2,"Python,RPA","python,rpa",video,video,YouTube,youtube
30055,Automate with Rakesh,automate-with-rakesh,https://www.youtube.com/channel/UCqxVW50cODphM0YHvA34NjQ,,How to install Python 3.11.1 on Windows 10,0vkyK-lOQNQ,https://www.youtube.com/watch?v=0vkyK-lOQNQ,https://i.ytimg.com/vi_webp/0vkyK-lOQNQ/maxresdefault.webp,2023-01-15,00:05:12,2023-2,"Python,RPA","python,rpa",video,video,YouTube,youtube
30016,AUTOMATE WITH UIPATH,automate-with-uipath,https://www.youtube.com/channel/UCa7b3OJL6ghuCX3hCUghVTA,,Pro tips of UiPath Debugging part 3,uFz4gbRE9JU,https://www.youtube.com/watch?v=uFz4gbRE9JU,https://i.ytimg.com/vi/uFz4gbRE9JU/sd2.jpg,2023-01-10,00:00:25,2023-2,"debugging,RPA,UiPath","debugging,rpa,uipath",video,video,YouTube,youtube
30029,AUTOMATE WITH UIPATH,automate-with-uipath,https://www.youtube.com/channel/UCa7b3OJL6ghuCX3hCUghVTA,,Pro tips of UiPath Debugging part 4,0hdGRbbHRZs,https://www.youtube.com/watch?v=0hdGRbbHRZs,https://i.ytimg.com/vi/0hdGRbbHRZs/sd2.jpg,2023-01-12,00:00:30,2023-2,"debugging,RPA,UiPath","debugging,rpa,uipath",video,video,YouTube,youtube
30031,AUTOMATE WITH UIPATH,automate-with-uipath,https://www.youtube.com/channel/UCa7b3OJL6ghuCX3hCUghVTA,,Best Practices of Debugging-PART-5,fdhrN3YuDAo,https://www.youtube.com/watch?v=fdhrN3YuDAo,https://i.ytimg.com/vi/fdhrN3YuDAo/sd2.jpg,2023-01-12,00:00:30,2023-2,"debugging,RPA,UiPath","debugging,rpa,uipath",video,video,YouTube,youtube
30057,AUTOMATE WITH UIPATH,automate-with-uipath,https://www.youtube.com/channel/UCa7b3OJL6ghuCX3hCUghVTA,,Simple tips and tricks for error handling in UiPath-part 1,Z4M8U9KRsWw,https://www.youtube.com/watch?v=Z4M8U9KRsWw,https://i.ytimg.com/vi/Z4M8U9KRsWw/sd2.jpg,2023-01-15,00:00:25,2023-2,"Error Handling,RPA,UiPath","errorhandling,rpa,uipath",video,video,YouTube,youtube
30032,botsDNA,botsdna,https://www.youtube.com/channel/UCeUnm1Edt7W7CH_E3Nj3eOg,,UiPath Tips and Tricks: How to Get the Last Day of the Month,2Uac6-GfNPk,https://www.youtube.com/watch?v=2Uac6-GfNPk,https://i.ytimg.com/vi/2Uac6-GfNPk/maxresdefault.jpg,2023-01-12,00:19:17,2023-2,"DateTime,RPA,UiPath","datetime,rpa,uipath",video,video,YouTube,youtube
30036,Christian Prior-Mamulyan's RPA channel,christian-prior-mamulyan-s-rpa-channel,https://www.youtube.com/channel/UCnI56C3TyCVT76ako1zCnog,,Adoption of the REFramework for input data in an Excel file · Starry Argon Series,VNseG9b22PM,https://www.youtube.com/watch?v=VNseG9b22PM,https://i.ytimg.com/vi/VNseG9b22PM/maxresdefault.jpg,2023-01-12,00:23:02,2023-2,"REFramework,RPA,UiPath","reframework,rpa,uipath",video,video,YouTube,youtube
30009,Daniel Christian,daniel-christian,https://www.youtube.com/channel/UC2v4TcvO4rdDdfqd6rUR5yg,,Power Automate Desktop Recorder,nr_RNYWDIxM,https://www.youtube.com/watch?v=nr_RNYWDIxM,https://i.ytimg.com/vi/nr_RNYWDIxM/maxresdefault.jpg,2023-01-09,00:23:20,2023-2,"lowcode,Microsoft,MS Power Automate Desktop,recording,RPA","lowcode,microsoft,ms-power-automate-desktop,recording,rpa",video,video,YouTube,youtube
30007,Gaurav Bhargava,gaurav-bhargava,https://www.youtube.com/channel/UCJhyQCU99DzyB4A_S1Zk5PA,,How to Install Openbots Studio: a Comprehensive Guide | How to Install and Use Openbots Studio,MXrXnhD4-gs,https://www.youtube.com/watch?v=MXrXnhD4-gs,https://i.ytimg.com/vi_webp/MXrXnhD4-gs/maxresdefault.webp,2023-01-09,00:02:32,2023-2,"OpenBots,RPA","openbots,rpa",video,video,YouTube,youtube
30005,Harika Mudiam,harika-mudiam,https://www.youtube.com/channel/UCDIBmgKBPBtNJrE0dQfnAYg,,Employee Onboarding Use Case - Part 2 - Dynamic Form filling for all the employee details mailed.,nANJfFsXnJk,https://www.youtube.com/watch?v=nANJfFsXnJk,https://i.ytimg.com/vi/nANJfFsXnJk/maxresdefault.jpg,2023-01-09,00:40:32,2023-2,"RPA,UiPath,Use Case","rpa,uipath,usecase",video,video,YouTube,youtube
30022,Harika Mudiam,harika-mudiam,https://www.youtube.com/channel/UCDIBmgKBPBtNJrE0dQfnAYg,,Send GMail using UiPath 'Send SMTP Mail Message',gQP7uZ8_0IA,https://www.youtube.com/watch?v=gQP7uZ8_0IA,https://i.ytimg.com/vi_webp/gQP7uZ8_0IA/maxresdefault.webp,2023-01-11,00:26:13,2023-2,"email automation,RPA,UiPath","email-automation,rpa,uipath",video,video,YouTube,youtube
30043,Harika Mudiam,harika-mudiam,https://www.youtube.com/channel/UCDIBmgKBPBtNJrE0dQfnAYg,,Send Mail using Robocorp  - Part 1,Ko13B_xkepY,https://www.youtube.com/watch?v=Ko13B_xkepY,https://i.ytimg.com/vi_webp/Ko13B_xkepY/maxresdefault.webp,2023-01-13,00:11:52,2023-2,"email automation,Robocorp,RPA","email-automation,robocorp,rpa",video,video,YouTube,youtube
30053,Harika Mudiam,harika-mudiam,https://www.youtube.com/channel/UCDIBmgKBPBtNJrE0dQfnAYg,,Employee Onboarding Use Case - Part 3 - Update the Emp ID and Emp Mail ID in Local Data base & Mail,AAjVAEfg43A,https://www.youtube.com/watch?v=AAjVAEfg43A,https://i.ytimg.com/vi_webp/AAjVAEfg43A/maxresdefault.webp,2023-01-15,00:38:04,2023-2,"RPA,UiPath,Use Case","rpa,uipath,usecase",video,video,YouTube,youtube
30040,K T Sessions,k-t-sessions,https://www.youtube.com/channel/UCStgI3w3IYFK-q06hCtxcEQ,,Blue Prism Function to Find day from given date,TB2iMV01Q9w,https://www.youtube.com/watch?v=TB2iMV01Q9w,https://i.ytimg.com/vi/TB2iMV01Q9w/sd2.jpg,2023-01-13,00:00:38,2023-2,"Blue Prism,RPA","blue-prism,rpa",video,video,YouTube,youtube
30026,Reboot the work - Uipath,reboot-the-work-uipath,https://www.youtube.com/channel/UCb_s0ySmdX17oZpcIpQrrzw,,Uipath Tutorial | Action Center - Notifying the Task Creation to the Business User,NF9DsG9-JN0,https://www.youtube.com/watch?v=NF9DsG9-JN0,https://i.ytimg.com/vi_webp/NF9DsG9-JN0/maxresdefault.webp,2023-01-11,00:13:44,2023-2,"RPA,UiPath,UiPath Action Center","rpa,uipath,uipath-action-center",video,video,YouTube,youtube
30035,Reboot the work - Uipath,reboot-the-work-uipath,https://www.youtube.com/channel/UCb_s0ySmdX17oZpcIpQrrzw,,Uipath Tutorial | Uipath Action Center - Complete Task,srtYJxeIqCE,https://www.youtube.com/watch?v=srtYJxeIqCE,https://i.ytimg.com/vi_webp/srtYJxeIqCE/maxresdefault.webp,2023-01-12,00:14:28,2023-2,"RPA,UiPath,UiPath Action Center","rpa,uipath,uipath-action-center",video,video,YouTube,youtube
30047,Reboot the work - Uipath,reboot-the-work-uipath,https://www.youtube.com/channel/UCb_s0ySmdX17oZpcIpQrrzw,,Uipath Tutorial | Uipath Action Center - Get Form Task,trLOjvRL3r4,https://www.youtube.com/watch?v=trLOjvRL3r4,https://i.ytimg.com/vi/trLOjvRL3r4/maxresdefault.jpg,2023-01-14,00:12:26,2023-2,"RPA,UiPath,UiPath Action Center","rpa,uipath,uipath-action-center",video,video,YouTube,youtube
30024,RPA Hub,rpa-hub,https://www.youtube.com/channel/UCnSVBOMNpmC-6SxHmogmu8w,,Excel Operation in UiPath | Excel Automation using UiPath,VBJoqqD2WEg,https://www.youtube.com/watch?v=VBJoqqD2WEg,https://i.ytimg.com/vi_webp/VBJoqqD2WEg/maxresdefault.webp,2023-01-11,00:18:18,2023-2,"Excel,RPA,UiPath","excel,rpa,uipath",video,video,YouTube,youtube
30046,RPA Hub,rpa-hub,https://www.youtube.com/channel/UCnSVBOMNpmC-6SxHmogmu8w,,Get Product details using UiPath | UiPath E-commerce Site data Extraction | UiPath Tutorial,SOi7HGGtfek,https://www.youtube.com/watch?v=SOi7HGGtfek,https://i.ytimg.com/vi_webp/SOi7HGGtfek/maxresdefault.webp,2023-01-14,00:06:10,2023-2,"RPA,scraping,UiPath","rpa,scraping,uipath",video,video,YouTube,youtube
30033,Tom's Tech Academy,tom-s-tech-academy,https://www.youtube.com/channel/UCstCuI_7DvHw7-KSA3Yy9PQ,,DateTime Variables in UiPath | UiPath Tutorial,CyXxGzVOdp0,https://www.youtube.com/watch?v=CyXxGzVOdp0,https://i.ytimg.com/vi_webp/CyXxGzVOdp0/maxresdefault.webp,2023-01-12,00:06:32,2023-2,"DateTime,RPA,UiPath","datetime,rpa,uipath",video,video,YouTube,youtube
30052,Tom's Tech Academy,tom-s-tech-academy,https://www.youtube.com/channel/UCstCuI_7DvHw7-KSA3Yy9PQ,,Web Scraping in UiPath | UiPath Data Scraping | Tutorial,2ron0Y8Kk-o,https://www.youtube.com/watch?v=2ron0Y8Kk-o,https://i.ytimg.com/vi/2ron0Y8Kk-o/maxresdefault.jpg,2023-01-14,00:05:41,2023-2,"RPA,scraping,UiPath","rpa,scraping,uipath",video,video,YouTube,youtube
30011,Tutorials by Mukesh Kala,tutorials-by-mukesh-kala,https://www.youtube.com/channel/UCtZTZt9fI91Xp-PVTPBESQQ,,6. What are SQL Clauses and Usage | Group By | Having | Order By | SQL Server  Beginners,ub4DmPBINKQ,https://www.youtube.com/watch?v=ub4DmPBINKQ,https://i.ytimg.com/vi_webp/ub4DmPBINKQ/maxresdefault.webp,2023-01-09,00:34:46,2023-2,"Database,RPA,SQL","database,rpa,sql",video,video,YouTube,youtube
30012,Tutorials by Mukesh Kala,tutorials-by-mukesh-kala,https://www.youtube.com/channel/UCtZTZt9fI91Xp-PVTPBESQQ,,2. How to Execute Query in Database with UiPath | Execute Non Query | Run Command | Run Query UiPath,WVrYLWvesO4,https://www.youtube.com/watch?v=WVrYLWvesO4,https://i.ytimg.com/vi_webp/WVrYLWvesO4/maxresdefault.webp,2023-01-10,00:26:08,2023-2,"Database,RPA,UiPath","database,rpa,uipath",video,video,YouTube,youtube
30034,Tutorials by Mukesh Kala,tutorials-by-mukesh-kala,https://www.youtube.com/channel/UCtZTZt9fI91Xp-PVTPBESQQ,,🔴 28.   [Hindi] : Configure and Read Emails from UiPath | Get IMAP Mail Message | RPA | हिन्दी,J1srQKx6ZRs,https://www.youtube.com/watch?v=J1srQKx6ZRs,https://i.ytimg.com/vi/J1srQKx6ZRs/maxresdefault.jpg,2023-01-12,00:34:44,2023-2,"email automation,RPA,UiPath","email-automation,rpa,uipath",video,video,YouTube,youtube
30038,Tutorials by Mukesh Kala,tutorials-by-mukesh-kala,https://www.youtube.com/channel/UCtZTZt9fI91Xp-PVTPBESQQ,,UiPath Quiz 19 | Question and Answer #shorts,sz2KxBGs3cA,https://www.youtube.com/watch?v=sz2KxBGs3cA,https://i.ytimg.com/vi/sz2KxBGs3cA/sd2.jpg,2023-01-13,00:00:37,2023-2,"RPA,UiPath","rpa,uipath",video,video,YouTube,youtube
30019,UiPath Video Tutorials made by Cristian Negulescu,uipath-video-tutorials-made-by-cristian-negulescu,https://www.youtube.com/channel/UCiSb0WLTgB23jT0E6NEuu7Q,,Ask UiPath Questions direct on MS Teams and you will get YouTube answers at the exact second,OsoUOWfqTYI,https://www.youtube.com/watch?v=OsoUOWfqTYI,https://i.ytimg.com/vi/OsoUOWfqTYI/maxresdefault.jpg,2023-01-11,00:14:59,2023-2,"RPA,UiPath,Use Case","rpa,uipath,usecase",video,video,YouTube,youtube
30044,UiPath with Jeppe,uipath-with-jeppe,https://www.youtube.com/channel/UCs8A4UTIVWDtq_NGccJUBUw,,Scrolling in UiPath Computer Vision: How Does It Work?,jcRzKpp6DBI,https://www.youtube.com/watch?v=jcRzKpp6DBI,https://i.ytimg.com/vi_webp/jcRzKpp6DBI/maxresdefault.webp,2023-01-14,00:13:40,2023-2,"RPA,UiPath","rpa,uipath",video,video,YouTube,youtube
