id,org_name,org_slug,org_url,person,title,platform_identifier,url,thumbnail_src,published_at,duration,year_week,tags,tags_slugs,type_name,type_slug,platform_name,platform_slug
3371,RPABOTSWORLD,rpabotsworld,https://www.youtube.com/channel/UCVY20joO2BAIgq9rOu99Nug,,UiPath State Machine |UiPath Re-Framework | UiPath Free Course Day 7 |Part 2,ip8g92spA3k,https://www.youtube.com/watch?v=ip8g92spA3k,https://i.ytimg.com/vi_webp/ip8g92spA3k/maxresdefault.webp,2022-01-23,01:11:21,2022-3,"RPA,UiPath","rpa,uipath",video,video,YouTube,youtube
3370,RPABOTSWORLD,rpabotsworld,https://www.youtube.com/channel/UCVY20joO2BAIgq9rOu99Nug,,UiPath Project Templates | Advance Exception Handling Working Example | UiPath Free Course Day 7,S2mhnZfZgH0,https://www.youtube.com/watch?v=S2mhnZfZgH0,https://i.ytimg.com/vi/S2mhnZfZgH0/hqdefault.jpg,2022-01-23,01:18:59,2022-3,"RPA,UiPath","rpa,uipath",video,video,YouTube,youtube
3369,RPABOTSWORLD,rpabotsworld,https://www.youtube.com/channel/UCVY20joO2BAIgq9rOu99Nug,,"UiPath Queues | Basic Operation, Complete Working Example | UiPath Free Course Day 6",CKNHC1vmDys,https://www.youtube.com/watch?v=CKNHC1vmDys,https://i.ytimg.com/vi_webp/CKNHC1vmDys/maxresdefault.webp,2022-01-22,01:15:46,2022-3,"RPA,UiPath","rpa,uipath",video,video,YouTube,youtube
3368,Piyush Agarwal,piyush-agarwal,https://www.youtube.com/channel/UCNNQUk0imKD6c9YMoumzhEg,,UiPath  - Create Custom Activity (using C#),t4_5AAjPCcE,https://www.youtube.com/watch?v=t4_5AAjPCcE,https://i.ytimg.com/vi/t4_5AAjPCcE/hqdefault.jpg,2022-01-22,00:19:15,2022-3,"RPA,UiPath","rpa,uipath",video,video,YouTube,youtube
3365,UiPath - Mahmoud TV,uipath-mahmoud-tv,https://www.youtube.com/channel/UCgmw5KA88D6jS8lPBzEXFgA,,API for Beginners | Application Programming Interface | API in UiPath | HTTP Request | HTTP Response,iZiwhhniDl0,https://www.youtube.com/watch?v=iZiwhhniDl0,https://i.ytimg.com/vi/iZiwhhniDl0/maxresdefault.jpg,2022-01-21,00:36:19,2022-3,"RPA,UiPath","rpa,uipath",video,video,YouTube,youtube
3364,Anders Jensen,anders-jensen,https://www.youtube.com/channel/UCPdtz4gd_iYebJFYq9N8pWA,,How To Use For Each Loops in UiPath (Full Tutorial),boIOgO2-OBk,https://www.youtube.com/watch?v=boIOgO2-OBk,https://i.ytimg.com/vi/boIOgO2-OBk/maxresdefault.jpg,2022-01-21,00:43:45,2022-3,"RPA,UiPath","rpa,uipath",video,video,YouTube,youtube
3363,UiPath Video Tutorials made by Cristian Negulescu,uipath-video-tutorials-made-by-cristian-negulescu,https://www.youtube.com/channel/UCiSb0WLTgB23jT0E6NEuu7Q,,Dynamic selectors in UiPath with variable inside| Complex selector | UiPath in 5 minutes | Ep:15,6dy36HpnR6o,https://www.youtube.com/watch?v=6dy36HpnR6o,https://i.ytimg.com/vi/6dy36HpnR6o/hqdefault.jpg,2022-01-20,00:05:41,2022-3,"RPA,UiPath","rpa,uipath",video,video,YouTube,youtube
3357,UiPath Video Tutorials made by Cristian Negulescu,uipath-video-tutorials-made-by-cristian-negulescu,https://www.youtube.com/channel/UCiSb0WLTgB23jT0E6NEuu7Q,,Try Catch and throw/rethrow in UiPath Studio | UiPath in 5 minutes | Ep:14,CvdP8aCwLNY,https://www.youtube.com/watch?v=CvdP8aCwLNY,https://i.ytimg.com/vi/CvdP8aCwLNY/hqdefault.jpg,2022-01-19,00:05:18,2022-3,"RPA,UiPath","rpa,uipath",video,video,YouTube,youtube
3358,UiPath Learner,uipath-learner,https://www.youtube.com/channel/UCeUnm1Edt7W7CH_E3Nj3eOg,,Data Services in UiPath | UiPath Data Service Entities with Field File | UiPath Learner,gLRZGVDYqMU,https://www.youtube.com/watch?v=gLRZGVDYqMU,https://i.ytimg.com/vi_webp/gLRZGVDYqMU/maxresdefault.webp,2022-01-19,00:11:42,2022-3,"RPA,UiPath","rpa,uipath",video,video,YouTube,youtube
3360,Automation Insights,automation-insights,https://www.youtube.com/channel/UCpBCRNy8OO2FgnWV8JGKeWA,,UiPath - Check if required sheets are present in excel file using Linq (  All | Any ),uwJBL_RUknw,https://www.youtube.com/watch?v=uwJBL_RUknw,https://i.ytimg.com/vi_webp/uwJBL_RUknw/maxresdefault.webp,2022-01-19,00:07:21,2022-3,"RPA,UiPath","rpa,uipath",video,video,YouTube,youtube
3356,UiPath with Jeppe,uipath-with-jeppe,https://www.youtube.com/channel/UCs8A4UTIVWDtq_NGccJUBUw,,How to use a Global Exception Handler in UiPath Studio,A2leSQOOHM8,https://www.youtube.com/watch?v=A2leSQOOHM8,https://i.ytimg.com/vi_webp/A2leSQOOHM8/maxresdefault.webp,2022-01-18,00:08:43,2022-3,"RPA,UiPath","rpa,uipath",video,video,YouTube,youtube
3354,UiPath Video Tutorials made by Cristian Negulescu,uipath-video-tutorials-made-by-cristian-negulescu,https://www.youtube.com/channel/UCiSb0WLTgB23jT0E6NEuu7Q,,Initialize Lists and DataTables in UiPath | Init variables | UiPath in 5 minutes | Ep:13,OP3-87nWpZM,https://www.youtube.com/watch?v=OP3-87nWpZM,https://i.ytimg.com/vi/OP3-87nWpZM/hqdefault.jpg,2022-01-18,00:05:10,2022-3,"DataTable,datatypes,RPA,UiPath","datatable,datatypes,rpa,uipath",video,video,YouTube,youtube
3352,Tutorials by Mukesh Kala,tutorials-by-mukesh-kala,https://www.youtube.com/channel/UCtZTZt9fI91Xp-PVTPBESQQ,,UiPath Quiz 4 | UiPath Activities| UiPath Question and Answers  | Online Quiz | LIVE | RPA,UEkNL9udy5Y,https://www.youtube.com/watch?v=UEkNL9udy5Y,https://i.ytimg.com/vi_webp/UEkNL9udy5Y/maxresdefault.webp,2022-01-18,00:17:23,2022-3,"RPA,UiPath","rpa,uipath",video,video,YouTube,youtube
3353,RPABOTSWORLD,rpabotsworld,https://www.youtube.com/channel/UCVY20joO2BAIgq9rOu99Nug,,"UiPath Orchestrator| Basic Operation, Assets Overview, Manage Packages | UiPath Free Course Day 5",3_kLSYa1r4E,https://www.youtube.com/watch?v=3_kLSYa1r4E,https://i.ytimg.com/vi_webp/3_kLSYa1r4E/maxresdefault.webp,2022-01-18,01:16:06,2022-3,"RPA,UiPath","rpa,uipath",video,video,YouTube,youtube
3351,Marcelo Cruz,marcelo-cruz,https://www.youtube.com/channel/UCZiebEnHb2xPokSLdCasVNQ,,UiPath - How To Copy Column Data to String Variable (Tutorial),fP9exKjjlZA,https://www.youtube.com/watch?v=fP9exKjjlZA,https://i.ytimg.com/vi_webp/fP9exKjjlZA/hqdefault.webp,2022-01-18,00:05:41,2022-3,"RPA,UiPath","rpa,uipath",video,video,YouTube,youtube
3350,Lahiru Fernando,lahiru-fernando,https://www.youtube.com/channel/UCCNS3JXwMDYlbJh7HsV8geg,,UiPath Document Understanding with NER - Part 1 | Machine Learning | RPA | AI,sZE83Xd4G8g,https://www.youtube.com/watch?v=sZE83Xd4G8g,https://i.ytimg.com/vi_webp/sZE83Xd4G8g/hqdefault.webp,2022-01-18,00:49:49,2022-3,"RPA,UiPath","rpa,uipath",video,video,YouTube,youtube
3348,UiPath Video Tutorials made by Cristian Negulescu,uipath-video-tutorials-made-by-cristian-negulescu,https://www.youtube.com/channel/UCiSb0WLTgB23jT0E6NEuu7Q,,6 use-cases of using LINQ in UiPath Studio | UiPath LINQ use case | UiPath in 5 minutes | Ep:12,uibImumRGGM,https://www.youtube.com/watch?v=uibImumRGGM,https://i.ytimg.com/vi/uibImumRGGM/hqdefault.jpg,2022-01-17,00:05:09,2022-3,"LINQ,RPA,UiPath","linq,rpa,uipath",video,video,YouTube,youtube
3349,Piyush Agarwal,piyush-agarwal,https://www.youtube.com/channel/UCNNQUk0imKD6c9YMoumzhEg,,UiPath - Office 365 Scope Authentication Types,pVY7uaNA_pk,https://www.youtube.com/watch?v=pVY7uaNA_pk,https://i.ytimg.com/vi/pVY7uaNA_pk/maxresdefault.jpg,2022-01-17,00:12:31,2022-3,"RPA,UiPath","rpa,uipath",video,video,YouTube,youtube
