id,org_name,org_identifier,org_slug,org_url,person,title,platform_identifier,url,thumbnail_src,published_at,duration,year_week,tags,tags_slugs,type_name,type_slug,platform_name,platform_slug
30441,Robobix,UCgSukdk2i259Jke1HW-t39g,robobix,https://www.youtube.com/channel/UCgSukdk2i259Jke1HW-t39g,,UiPath excel automation - Part 2 | Read and write excel in uipath | UiPath Advance Tutorials,xzKod8G8jN8,https://www.youtube.com/watch?v=xzKod8G8jN8,https://i.ytimg.com/vi_webp/xzKod8G8jN8/maxresdefault.webp,2023-03-12,00:14:00,2023-10,"Excel,RPA,UiPath","excel,rpa,uipath",video,video,YouTube,youtube
30435,yellowgreys,UCdfnDEVCZ6SGP-PA-KS97ng,yellowgreys,https://www.youtube.com/channel/UCdfnDEVCZ6SGP-PA-KS97ng,,UiPath | Orchestrator | Get Transaction Item & Set Transaction Status | Practical | தமிழில்,A7fr413hTII,https://www.youtube.com/watch?v=A7fr413hTII,https://i.ytimg.com/vi_webp/A7fr413hTII/maxresdefault.webp,2023-03-11,00:21:39,2023-10,"RPA,UiPath,UiPath Orchestrator","rpa,uipath,uipath-orchestrator",video,video,YouTube,youtube
30438,K T Sessions,UCStgI3w3IYFK-q06hCtxcEQ,k-t-sessions,https://www.youtube.com/channel/UCStgI3w3IYFK-q06hCtxcEQ,,Blue Prism History | #blueprism #shorts,Im97evj6u0w,https://www.youtube.com/watch?v=Im97evj6u0w,https://i.ytimg.com/vi/Im97evj6u0w/maxresdefault.jpg,2023-03-11,00:00:48,2023-10,"Blue Prism,RPA","blue-prism,rpa",video,video,YouTube,youtube
30432,Tutorials by Mukesh Kala,UCtZTZt9fI91Xp-PVTPBESQQ,tutorials-by-mukesh-kala,https://www.youtube.com/channel/UCtZTZt9fI91Xp-PVTPBESQQ,,UiPath 2022.10 Updates | Filter Option in Data Manager UiPath | UiPath New Features #shorts,nS2TgfTd6dE,https://www.youtube.com/watch?v=nS2TgfTd6dE,https://i.ytimg.com/vi/nS2TgfTd6dE/sd2.jpg,2023-03-10,00:00:57,2023-10,"RPA,UiPath,UiPath Data Manager","rpa,uipath,uipath-data-manager",video,video,YouTube,youtube
30429,Reboot the work - Uipath,UCb_s0ySmdX17oZpcIpQrrzw,reboot-the-work-uipath,https://www.youtube.com/channel/UCb_s0ySmdX17oZpcIpQrrzw,,"Uipath Tutorial | Debug Activities - Step into, Step over and Step out",u50aA9zR58w,https://www.youtube.com/watch?v=u50aA9zR58w,https://i.ytimg.com/vi/u50aA9zR58w/maxresdefault.jpg,2023-03-10,00:07:07,2023-10,"debugging,RPA,UiPath","debugging,rpa,uipath",video,video,YouTube,youtube
30434,K T Sessions,UCStgI3w3IYFK-q06hCtxcEQ,k-t-sessions,https://www.youtube.com/channel/UCStgI3w3IYFK-q06hCtxcEQ,,CONSUME CHATGPT API IN BLUEPRISM USING CODE STAGE,dVQR5TwNT5A,https://www.youtube.com/watch?v=dVQR5TwNT5A,https://i.ytimg.com/vi/dVQR5TwNT5A/sddefault.jpg,2023-03-10,00:18:00,2023-10,"Artificial Intelligence,Blue Prism,RPA","ai,blue-prism,rpa",video,video,YouTube,youtube
30424,AUTOMATE WITH UIPATH,UCa7b3OJL6ghuCX3hCUghVTA,automate-with-uipath,https://www.youtube.com/channel/UCa7b3OJL6ghuCX3hCUghVTA,,Simple tips and tricks for error Handling in UiPath Part 1,oo8hSYJILXE,https://www.youtube.com/watch?v=oo8hSYJILXE,https://i.ytimg.com/vi/oo8hSYJILXE/sd2.jpg,2023-03-10,00:00:30,2023-10,"Error Handling,RPA,UiPath","errorhandling,rpa,uipath",video,video,YouTube,youtube
30418,yellowgreys,UCdfnDEVCZ6SGP-PA-KS97ng,yellowgreys,https://www.youtube.com/channel/UCdfnDEVCZ6SGP-PA-KS97ng,,UiPath | Orchestrator | Add Queue Item | தமிழில்,MqoqbJ48kPQ,https://www.youtube.com/watch?v=MqoqbJ48kPQ,https://i.ytimg.com/vi_webp/MqoqbJ48kPQ/maxresdefault.webp,2023-03-09,00:23:59,2023-10,"RPA,Tamil,UiPath,UiPath Orchestrator","rpa,tamil,uipath,uipath-orchestrator",video,video,YouTube,youtube
30364,UiPath Video Tutorials made by Cristian Negulescu,UCiSb0WLTgB23jT0E6NEuu7Q,uipath-video-tutorials-made-by-cristian-negulescu,https://www.youtube.com/channel/UCiSb0WLTgB23jT0E6NEuu7Q,,3-minute logic: Match LinkedIn Profiles using UiPath & ChatGPT,p9_C2v08dq8,https://www.youtube.com/watch?v=p9_C2v08dq8,https://i.ytimg.com/vi_webp/p9_C2v08dq8/maxresdefault.webp,2023-03-09,00:03:03,2023-10,"Artificial Intelligence,RPA,UiPath,Use Case","ai,rpa,uipath,usecase",video,video,YouTube,youtube
30361,RPA Learners,UCeGAMyKP_6NuCn42kllXwTw,rpa-learners,https://www.youtube.com/channel/UCeGAMyKP_6NuCn42kllXwTw,,Prerequisites or Configurations of Web Automation using BotCity | Opensource RPA | RPA in python,WB4oOpHqgek,https://www.youtube.com/watch?v=WB4oOpHqgek,https://i.ytimg.com/vi/WB4oOpHqgek/maxresdefault.jpg,2023-03-09,00:10:14,2023-10,"BotCity,browser,RPA","botcity,browser,rpa",video,video,YouTube,youtube
30419,RPAFeed,UC3f0L_fUSQe8vAQwJowJ6-g,rpafeed,https://www.youtube.com/channel/UC3f0L_fUSQe8vAQwJowJ6-g,,Code Analysis in A360 | Code Analysis Automation Anywhere,qKsoQb-_zqU,https://www.youtube.com/watch?v=qKsoQb-_zqU,https://i.ytimg.com/vi/qKsoQb-_zqU/maxresdefault.jpg,2023-03-09,00:10:24,2023-10,"Automation Anywhere,Code Review,RPA","automation-anywhere,code-review,rpa",video,video,YouTube,youtube
30355,UiPath Video Tutorials made by Cristian Negulescu,UCiSb0WLTgB23jT0E6NEuu7Q,uipath-video-tutorials-made-by-cristian-negulescu,https://www.youtube.com/channel/UCiSb0WLTgB23jT0E6NEuu7Q,,Smart Recruitment: Matching LinkedIn Profiles with Job Requirements using UiPath Robots and ChatGPT,4u57ycMQ6u0,https://www.youtube.com/watch?v=4u57ycMQ6u0,https://i.ytimg.com/vi_webp/4u57ycMQ6u0/maxresdefault.webp,2023-03-08,00:12:05,2023-10,"Artificial Intelligence,RPA,UiPath,Use Case","ai,rpa,uipath,usecase",video,video,YouTube,youtube
30360,Tutorials by Mukesh Kala,UCtZTZt9fI91Xp-PVTPBESQQ,tutorials-by-mukesh-kala,https://www.youtube.com/channel/UCtZTZt9fI91Xp-PVTPBESQQ,,GPT 3 Explained | What is GPT 3  | GPT 3 AI | Artificial Intelligence | How GPT3 Transformers Works,YJgAsjg6WUU,https://www.youtube.com/watch?v=YJgAsjg6WUU,https://i.ytimg.com/vi_webp/YJgAsjg6WUU/maxresdefault.webp,2023-03-08,00:33:56,2023-10,"Artificial Intelligence,RPA","ai,rpa",video,video,YouTube,youtube
30356,Tom's Tech Academy,UCstCuI_7DvHw7-KSA3Yy9PQ,tom-s-tech-academy,https://www.youtube.com/channel/UCstCuI_7DvHw7-KSA3Yy9PQ,,Tutorial: Add Clients to MyCRM with UiPath Studio X,1RJRm1UbmnM,https://www.youtube.com/watch?v=1RJRm1UbmnM,https://i.ytimg.com/vi/1RJRm1UbmnM/maxresdefault.jpg,2023-03-08,00:18:28,2023-10,"RPA,selectors,UiPath Studio X,Use Case","rpa,selectors,uipath-studio-x,usecase",video,video,YouTube,youtube
30354,Anders Jensen,UCPdtz4gd_iYebJFYq9N8pWA,anders-jensen,https://www.youtube.com/channel/UCPdtz4gd_iYebJFYq9N8pWA,,Power Automate Desktop: PDF Extraction and Application Entry,BxkfdK8rCRU,https://www.youtube.com/watch?v=BxkfdK8rCRU,https://i.ytimg.com/vi_webp/BxkfdK8rCRU/maxresdefault.webp,2023-03-08,01:13:43,2023-10,"Excel,lowcode,Microsoft,MS Power Automate Desktop,PDF,regex,RPA","excel,lowcode,microsoft,ms-power-automate-desktop,pdf,regex,rpa",video,video,YouTube,youtube
30352,UiPath Video Tutorials made by Cristian Negulescu,UCiSb0WLTgB23jT0E6NEuu7Q,uipath-video-tutorials-made-by-cristian-negulescu,https://www.youtube.com/channel/UCiSb0WLTgB23jT0E6NEuu7Q,,Boosting Your UiPath Robots with ChatGPT 3.5: An API Integration Tutorial,Ci5mLnMZqZg,https://www.youtube.com/watch?v=Ci5mLnMZqZg,https://i.ytimg.com/vi_webp/Ci5mLnMZqZg/maxresdefault.webp,2023-03-07,00:09:44,2023-10,"APIs,Artificial Intelligence,RPA,UiPath","apis,ai,rpa,uipath",video,video,YouTube,youtube
30351,RPAFeed,UC3f0L_fUSQe8vAQwJowJ6-g,rpafeed,https://www.youtube.com/channel/UC3f0L_fUSQe8vAQwJowJ6-g,,Creating Custom Roles in A360 | RPAFeed,QsHPQ5HTu2Y,https://www.youtube.com/watch?v=QsHPQ5HTu2Y,https://i.ytimg.com/vi/QsHPQ5HTu2Y/sd2.jpg,2023-03-07,00:00:25,2023-10,"access management,Automation Anywhere,RPA","access-management,automation-anywhere,rpa",video,video,YouTube,youtube
30414,yellowgreys,UCdfnDEVCZ6SGP-PA-KS97ng,yellowgreys,https://www.youtube.com/channel/UCdfnDEVCZ6SGP-PA-KS97ng,,UiPath | String Manipulation | Left Function | Yellowgreys - YouTube,Z-8MC9BxSEs,https://www.youtube.com/watch?v=Z-8MC9BxSEs,https://i.ytimg.com/vi_webp/Z-8MC9BxSEs/maxresdefault.webp,2023-03-06,00:07:16,2023-10,"datatypes,RPA,String,UiPath","datatypes,rpa,string,uipath",video,video,YouTube,youtube
30346,Tutorials by Mukesh Kala,UCtZTZt9fI91Xp-PVTPBESQQ,tutorials-by-mukesh-kala,https://www.youtube.com/channel/UCtZTZt9fI91Xp-PVTPBESQQ,,UiPath | Job Recording in Orchestrator | Video and Screenshots | 2023 UiPath New Update | Robots,LTYgZMnfYSY,https://www.youtube.com/watch?v=LTYgZMnfYSY,https://i.ytimg.com/vi/LTYgZMnfYSY/maxresdefault.jpg,2023-03-06,00:18:23,2023-10,"recording,RPA,UiPath Orchestrator","recording,rpa,uipath-orchestrator",video,video,YouTube,youtube
30347,Daniel Christian,UC2v4TcvO4rdDdfqd6rUR5yg,daniel-christian,https://www.youtube.com/channel/UC2v4TcvO4rdDdfqd6rUR5yg,,Power Automate for Desktop PDF Creator Using Word Template,lYuvBSNKgrk,https://www.youtube.com/watch?v=lYuvBSNKgrk,https://i.ytimg.com/vi/lYuvBSNKgrk/maxresdefault.jpg,2023-03-06,00:38:07,2023-10,"lowcode,MS Power Automate Desktop,MS Word,PDF,RPA","lowcode,ms-power-automate-desktop,ms-word,pdf,rpa",video,video,YouTube,youtube
30348,botsDNA,UCeUnm1Edt7W7CH_E3Nj3eOg,botsdna,https://www.youtube.com/channel/UCeUnm1Edt7W7CH_E3Nj3eOg,,Chatbot Response Update in the Clipboard by Uipath Bot,RnGSwiKDRdk,https://www.youtube.com/watch?v=RnGSwiKDRdk,https://i.ytimg.com/vi/RnGSwiKDRdk/sd2.jpg,2023-03-06,00:00:59,2023-10,"Chatbots,RPA,UiPath","chatbots,rpa,uipath",video,video,YouTube,youtube
