id,org_name,org_slug,org_url,person,title,platform_identifier,url,thumbnail_src,published_at,duration,year_week,tags,tags_slugs,type_name,type_slug,platform_name,platform_slug
30177,Act Automate (Mahmoud TV),act-automate-mahmoud-tv,https://www.youtube.com/channel/UCgmw5KA88D6jS8lPBzEXFgA,,UiPath | Prime Numbers | Calculate Prime Numbers using LINQ | Check if Prime Number | LINQ Tutorials,LzgL9BqehME,https://www.youtube.com/watch?v=LzgL9BqehME,https://i.ytimg.com/vi_webp/LzgL9BqehME/maxresdefault.webp,2023-02-06,00:11:11,2023-6,"LINQ,RPA,UiPath","linq,rpa,uipath",video,video,YouTube,youtube
30195,Act Automate (Mahmoud TV),act-automate-mahmoud-tv,https://www.youtube.com/channel/UCgmw5KA88D6jS8lPBzEXFgA,,UiPath | First Working Day | Last Working Day | Total Working Day | Working Days using LINQ,FoahbkT-qr8,https://www.youtube.com/watch?v=FoahbkT-qr8,https://i.ytimg.com/vi_webp/FoahbkT-qr8/maxresdefault.webp,2023-02-08,00:08:14,2023-6,"LINQ,RPA,UiPath,Use Case","linq,rpa,uipath,usecase",video,video,YouTube,youtube
30224,Anders Jensen,anders-jensen,https://www.youtube.com/channel/UCPdtz4gd_iYebJFYq9N8pWA,,The Power of ChatGPT in Power Automate Desktop Development,faCjxIc-vqQ,https://www.youtube.com/watch?v=faCjxIc-vqQ,https://i.ytimg.com/vi_webp/faCjxIc-vqQ/maxresdefault.webp,2023-02-12,00:26:12,2023-6,"Artificial Intelligence,lowcode,Microsoft,MS Power Automate Desktop,RPA","ai,lowcode,microsoft,ms-power-automate-desktop,rpa",video,video,YouTube,youtube
30211,AutoBot by Rahul,autobot-by-rahul,https://www.youtube.com/channel/UCdrTm1crX3NRkv_KWgmytcA,,ChatGPT integration with UiPath & Postman | Google search Vs ChatGPT,oe8T5ZSEVEU,https://www.youtube.com/watch?v=oe8T5ZSEVEU,https://i.ytimg.com/vi/oe8T5ZSEVEU/maxresdefault.jpg,2023-02-09,00:30:12,2023-6,"Artificial Intelligence,RPA,UiPath","ai,rpa,uipath",video,video,YouTube,youtube
30200,Automate with Piyush,automate-with-piyush,https://www.youtube.com/channel/UCNNQUk0imKD6c9YMoumzhEg,,Entity Relationship,y0Z-EX7U8gg,https://www.youtube.com/watch?v=y0Z-EX7U8gg,https://i.ytimg.com/vi/y0Z-EX7U8gg/sddefault.jpg,2023-02-08,00:06:04,2023-6,"RPA,UiPath,UiPath Apps,UiPath Data Service","rpa,uipath,uipath-apps,uipath-data-service",video,video,YouTube,youtube
30210,Automate with Piyush,automate-with-piyush,https://www.youtube.com/channel/UCNNQUk0imKD6c9YMoumzhEg,,UiPath Apps - Conditional Dropdown,Lge1MXSuJO8,https://www.youtube.com/watch?v=Lge1MXSuJO8,https://i.ytimg.com/vi/Lge1MXSuJO8/sddefault.jpg,2023-02-09,00:08:27,2023-6,"RPA,UiPath,UiPath Apps","rpa,uipath,uipath-apps",video,video,YouTube,youtube
30183,Automate with Rakesh,automate-with-rakesh,https://www.youtube.com/channel/UCqxVW50cODphM0YHvA34NjQ,,UiPath Excel Automation using Modern Activities,iNGfiG98vj0,https://www.youtube.com/watch?v=iNGfiG98vj0,https://i.ytimg.com/vi_webp/iNGfiG98vj0/maxresdefault.webp,2023-02-06,05:13:14,2023-6,"Excel,Modern Design Experience,RPA,UiPath","excel,modern-design-experience,rpa,uipath",video,video,YouTube,youtube
30196,Automate with Rakesh,automate-with-rakesh,https://www.youtube.com/channel/UCqxVW50cODphM0YHvA34NjQ,,#shorts Complex Json To a Data Table Tricks in UiPath,jQ9BZ6hLvzw,https://www.youtube.com/watch?v=jQ9BZ6hLvzw,https://i.ytimg.com/vi/jQ9BZ6hLvzw/sd2.jpg,2023-02-08,00:00:44,2023-6,"DataTable,datatypes,JSON,RPA,UiPath","datatable,datatypes,json,rpa,uipath",video,video,YouTube,youtube
30208,Automate with Rakesh,automate-with-rakesh,https://www.youtube.com/channel/UCqxVW50cODphM0YHvA34NjQ,,UIPath Json to Data Table with Complex Type JSON,wJYRRoHim3o,https://www.youtube.com/watch?v=wJYRRoHim3o,https://i.ytimg.com/vi/wJYRRoHim3o/maxresdefault.jpg,2023-02-09,00:15:41,2023-6,"DataTable,datatypes,JSON,RPA,UiPath","datatable,datatypes,json,rpa,uipath",video,video,YouTube,youtube
30184,botsDNA,botsdna,https://www.youtube.com/channel/UCeUnm1Edt7W7CH_E3Nj3eOg,,Automating Gender Updates with ChatGPT and UiPath,FIcNnLVpX0s,https://www.youtube.com/watch?v=FIcNnLVpX0s,https://i.ytimg.com/vi_webp/FIcNnLVpX0s/sddefault.webp,2023-02-06,00:00:31,2023-6,"Artificial Intelligence,RPA,UiPath","ai,rpa,uipath",video,video,YouTube,youtube
30193,botsDNA,botsdna,https://www.youtube.com/channel/UCeUnm1Edt7W7CH_E3Nj3eOg,,Effortlessly Build Regex Expressions in UiPath with ChatGPT's Expert Help,H0NKAsLyff0,https://www.youtube.com/watch?v=H0NKAsLyff0,https://i.ytimg.com/vi_webp/H0NKAsLyff0/sddefault.webp,2023-02-07,00:01:03,2023-6,"Artificial Intelligence,regex,RPA,UiPath","ai,regex,rpa,uipath",video,video,YouTube,youtube
30192,botsDNA,botsdna,https://www.youtube.com/channel/UCeUnm1Edt7W7CH_E3Nj3eOg,,ChatGPT writing YouTube comments #botsdna #technology #ai,wpkVaM6CpUg,https://www.youtube.com/watch?v=wpkVaM6CpUg,https://i.ytimg.com/vi/wpkVaM6CpUg/sd2.jpg,2023-02-07,00:00:15,2023-6,"Artificial Intelligence,RPA,UiPath","ai,rpa,uipath",video,video,YouTube,youtube
30205,botsDNA,botsdna,https://www.youtube.com/channel/UCeUnm1Edt7W7CH_E3Nj3eOg,,Say Goodbye to Tedious Email Writing with ChatGPT and UiPath,_by9kEye1CU,https://www.youtube.com/watch?v=_by9kEye1CU,https://i.ytimg.com/vi_webp/_by9kEye1CU/sddefault.webp,2023-02-09,00:04:45,2023-6,"Artificial Intelligence,RPA,UiPath","ai,rpa,uipath",video,video,YouTube,youtube
30180,Daniel Christian,daniel-christian,https://www.youtube.com/channel/UC2v4TcvO4rdDdfqd6rUR5yg,,Power Automate for Desktop with Microsoft Excel,d3UWY07z4zo,https://www.youtube.com/watch?v=d3UWY07z4zo,https://i.ytimg.com/vi/d3UWY07z4zo/maxresdefault.jpg,2023-02-06,00:22:25,2023-6,"Excel,lowcode,MS Power Automate Desktop,RPA","excel,lowcode,ms-power-automate-desktop,rpa",video,video,YouTube,youtube
30216,K T Sessions,k-t-sessions,https://www.youtube.com/channel/UCStgI3w3IYFK-q06hCtxcEQ,,Trailer | Blue Prism KT Session in Hindi,d_TarV3bjjo,https://www.youtube.com/watch?v=d_TarV3bjjo,https://i.ytimg.com/vi_webp/d_TarV3bjjo/maxresdefault.webp,2023-02-10,00:01:36,2023-6,"Blue Prism,Hindi,RPA","blue-prism,lang=hin,rpa",video,video,YouTube,youtube
30178,nisarg kadam,nisarg-kadam,https://www.youtube.com/channel/UCX7FdmCv9UOKdlyjfGydV3w,,Six Life saving tricks for UiPath RPA developers using ChatGPT | ChatGPT helps UiPath RPA Developers,6rg6o69AKsI,https://www.youtube.com/watch?v=6rg6o69AKsI,https://i.ytimg.com/vi_webp/6rg6o69AKsI/maxresdefault.webp,2023-02-06,00:12:04,2023-6,"Artificial Intelligence,RPA,UiPath","ai,rpa,uipath",video,video,YouTube,youtube
30188,nisarg kadam,nisarg-kadam,https://www.youtube.com/channel/UCX7FdmCv9UOKdlyjfGydV3w,,Why software engineers are scared of ChatGPT? #chatgpt #openai,xJhXntKTBXs,https://www.youtube.com/watch?v=xJhXntKTBXs,https://i.ytimg.com/vi/xJhXntKTBXs/sd2.jpg,2023-02-06,00:00:28,2023-6,"Artificial Intelligence,RPA","ai,rpa",video,video,YouTube,youtube
30179,Reboot the work - Uipath,reboot-the-work-uipath,https://www.youtube.com/channel/UCb_s0ySmdX17oZpcIpQrrzw,,Uipath Tutorial | Invoke Method Activity in Uipath,jfM_uNGmVwU,https://www.youtube.com/watch?v=jfM_uNGmVwU,https://i.ytimg.com/vi/jfM_uNGmVwU/maxresdefault.jpg,2023-02-06,00:13:32,2023-6,"RPA,UiPath,UiPath Studio","rpa,uipath,uipath-studio",video,video,YouTube,youtube
30190,RPAFeed,rpafeed,https://www.youtube.com/channel/UC3f0L_fUSQe8vAQwJowJ6-g,,Bulk Checkout Tasks in A360 | Task Checkout A360 | RPAShorts,Bi0Mh98q3qs,https://www.youtube.com/watch?v=Bi0Mh98q3qs,https://i.ytimg.com/vi/Bi0Mh98q3qs/sd2.jpg,2023-02-07,00:00:32,2023-6,"Automation Anywhere,RPA","automation-anywhere,rpa",video,video,YouTube,youtube
30220,RPAFeed,rpafeed,https://www.youtube.com/channel/UC3f0L_fUSQe8vAQwJowJ6-g,,ChatGPT and UiPath Integration 💬 🤖 #RPAShorts,jixnfU65ofw,https://www.youtube.com/watch?v=jixnfU65ofw,https://i.ytimg.com/vi/jixnfU65ofw/sd2.jpg,2023-02-11,00:00:17,2023-6,"Artificial Intelligence,RPA,UiPath","ai,rpa,uipath",video,video,YouTube,youtube
30219,RPA Hub,rpa-hub,https://www.youtube.com/channel/UCnSVBOMNpmC-6SxHmogmu8w,,How to work with Hash Algorithm using Power Automate | Power Automate Tutorial,JSZxdq4dyeU,https://www.youtube.com/watch?v=JSZxdq4dyeU,https://i.ytimg.com/vi_webp/JSZxdq4dyeU/maxresdefault.webp,2023-02-11,00:08:02,2023-6,"encryption,lowcode,MS Power Automate Desktop,RPA","encryption,lowcode,ms-power-automate-desktop,rpa",video,video,YouTube,youtube
30202,Tom's Tech Academy,tom-s-tech-academy,https://www.youtube.com/channel/UCstCuI_7DvHw7-KSA3Yy9PQ,,UiPath AI Center | Make your UiPath RPA Bots Smarter with AI,YXY4e59pYCg,https://www.youtube.com/watch?v=YXY4e59pYCg,https://i.ytimg.com/vi/YXY4e59pYCg/maxresdefault.jpg,2023-02-08,00:19:22,2023-6,"Artificial Intelligence,RPA,UiPath,UiPath AI Center","ai,rpa,uipath,uipath-ai-center",video,video,YouTube,youtube
30181,Tutorials by Mukesh Kala,tutorials-by-mukesh-kala,https://www.youtube.com/channel/UCtZTZt9fI91Xp-PVTPBESQQ,,4. Bulk Update Data in Database with UiPath | Excel to Database in UiPath | Database Automation,CP0DJD-Lv10,https://www.youtube.com/watch?v=CP0DJD-Lv10,https://i.ytimg.com/vi/CP0DJD-Lv10/maxresdefault.jpg,2023-02-06,00:29:46,2023-6,"Database,Excel,RPA,UiPath","database,excel,rpa,uipath",video,video,YouTube,youtube
30198,Tutorials by Mukesh Kala,tutorials-by-mukesh-kala,https://www.youtube.com/channel/UCtZTZt9fI91Xp-PVTPBESQQ,,UiPath 2022.10 Updates | Data Manager | UiPath New Features #shorts,y3rSLmXxWh0,https://www.youtube.com/watch?v=y3rSLmXxWh0,https://i.ytimg.com/vi/y3rSLmXxWh0/sd2.jpg,2023-02-08,00:00:59,2023-6,"RPA,UiPath,UiPath Data Manager","rpa,uipath,uipath-data-manager",video,video,YouTube,youtube
30207,Tutorials by Mukesh Kala,tutorials-by-mukesh-kala,https://www.youtube.com/channel/UCtZTZt9fI91Xp-PVTPBESQQ,,🔴 31. [Hindi] : Get Started with UiPath PDF Automation | Read Scanned Pdf  | Read Pdf Text | हिन्दी,b2qTpxT7vmY,https://www.youtube.com/watch?v=b2qTpxT7vmY,https://i.ytimg.com/vi_webp/b2qTpxT7vmY/maxresdefault.webp,2023-02-09,00:40:23,2023-6,"Hindi,PDF,RPA,UiPath","lang=hin,pdf,rpa,uipath",video,video,YouTube,youtube
30225,UiPath Video Tutorials made by Cristian Negulescu,uipath-video-tutorials-made-by-cristian-negulescu,https://www.youtube.com/channel/UCiSb0WLTgB23jT0E6NEuu7Q,,Chatgpt answer to emails with Uipath robots,kDIUSCBtm58,https://www.youtube.com/watch?v=kDIUSCBtm58,https://i.ytimg.com/vi_webp/kDIUSCBtm58/maxresdefault.webp,2023-02-12,00:12:31,2023-6,"Airtable,email automation,RPA,UiPath","airtable,email-automation,rpa,uipath",video,video,YouTube,youtube
30199,UiPath with Jeppe,uipath-with-jeppe,https://www.youtube.com/channel/UCs8A4UTIVWDtq_NGccJUBUw,,Random Test Data activities in UiPath Studio,P8v5Xi1yjCk,https://www.youtube.com/watch?v=P8v5Xi1yjCk,https://i.ytimg.com/vi/P8v5Xi1yjCk/maxresdefault.jpg,2023-02-08,00:09:44,2023-6,"RPA,testing,UiPath","rpa,testing,uipath",video,video,YouTube,youtube
