id,org_name,org_slug,org_url,person,title,platform_identifier,url,thumbnail_src,published_at,duration,year_week,tags,tags_slugs,type_name,type_slug,platform_name,platform_slug
30101,Act Automate (Mahmoud TV),act-automate-mahmoud-tv,https://www.youtube.com/channel/UCgmw5KA88D6jS8lPBzEXFgA,,Integrate ChatGPT into Power Automate Desktop | Invoke Web Service | ChatGPT API in Power Automate,OvAVc3rhn4w,https://www.youtube.com/watch?v=OvAVc3rhn4w,https://i.ytimg.com/vi/OvAVc3rhn4w/maxresdefault.jpg,2023-01-23,00:11:04,2023-4,"Artificial Intelligence,lowcode,Microsoft,MS Power Automate Desktop,RPA","ai,lowcode,microsoft,ms-power-automate-desktop,rpa",video,video,YouTube,youtube
30121,Anders Jensen,anders-jensen,https://www.youtube.com/channel/UCPdtz4gd_iYebJFYq9N8pWA,,Automating Google Workspace in OpenBots,IWmt2dZD4IQ,https://www.youtube.com/watch?v=IWmt2dZD4IQ,https://i.ytimg.com/vi/IWmt2dZD4IQ/maxresdefault.jpg,2023-01-25,00:57:40,2023-4,"Google Workspace,OpenBots,RPA","google-workspace,openbots,rpa",video,video,YouTube,youtube
30109,Automate with Piyush,automate-with-piyush,https://www.youtube.com/channel/UCNNQUk0imKD6c9YMoumzhEg,,RPA Starters - Journey with UiPath,uBf7kuIZ_2M,https://www.youtube.com/watch?v=uBf7kuIZ_2M,https://i.ytimg.com/vi/uBf7kuIZ_2M/hqdefault.jpg,2023-01-23,00:42:27,2023-4,"RPA,UiPath","rpa,uipath",video,video,YouTube,youtube
30116,Automate with Rakesh,automate-with-rakesh,https://www.youtube.com/channel/UCqxVW50cODphM0YHvA34NjQ,,#shorts ChatGPT & UiPath Integration WoW Answers!,3-363mv89dw,https://www.youtube.com/watch?v=3-363mv89dw,https://i.ytimg.com/vi/3-363mv89dw/sd2.jpg,2023-01-25,00:00:49,2023-4,"Artificial Intelligence,RPA,UiPath","ai,rpa,uipath",video,video,YouTube,youtube
30129,Automate with Rakesh,automate-with-rakesh,https://www.youtube.com/channel/UCqxVW50cODphM0YHvA34NjQ,,ChatGPT UiPath Integration Crash Course,qD3yatOnv0g,https://www.youtube.com/watch?v=qD3yatOnv0g,https://i.ytimg.com/vi_webp/qD3yatOnv0g/maxresdefault.webp,2023-01-27,00:22:53,2023-4,"APIs,RPA,UiPath","apis,rpa,uipath",video,video,YouTube,youtube
30135,Automate with Rakesh,automate-with-rakesh,https://www.youtube.com/channel/UCqxVW50cODphM0YHvA34NjQ,,#shorts Multiline Response from ChatGPT in UiPath,3WznLfnLZY8,https://www.youtube.com/watch?v=3WznLfnLZY8,https://i.ytimg.com/vi/3WznLfnLZY8/sd2.jpg,2023-01-29,00:00:26,2023-4,"Artificial Intelligence,RPA,UiPath","ai,rpa,uipath",video,video,YouTube,youtube
30103,AUTOMATE WITH UIPATH,automate-with-uipath,https://www.youtube.com/channel/UCa7b3OJL6ghuCX3hCUghVTA,,Must Know About Argument in UiPath PART 1,BoygW5zcaps,https://www.youtube.com/watch?v=BoygW5zcaps,https://i.ytimg.com/vi/BoygW5zcaps/sd2.jpg,2023-01-23,00:00:20,2023-4,"RPA,UiPath,UiPath Studio","rpa,uipath,uipath-studio",video,video,YouTube,youtube
30130,AUTOMATE WITH UIPATH,automate-with-uipath,https://www.youtube.com/channel/UCa7b3OJL6ghuCX3hCUghVTA,,must know about argument in uipath part 2,wDsNakB2EsE,https://www.youtube.com/watch?v=wDsNakB2EsE,https://i.ytimg.com/vi/wDsNakB2EsE/sd2.jpg,2023-01-27,00:00:20,2023-4,"RPA,UiPath,UiPath Studio","rpa,uipath,uipath-studio",video,video,YouTube,youtube
30105,Daniel Christian,daniel-christian,https://www.youtube.com/channel/UC2v4TcvO4rdDdfqd6rUR5yg,,Power Automate Desktop Variables,Aoy_PfMETSY,https://www.youtube.com/watch?v=Aoy_PfMETSY,https://i.ytimg.com/vi/Aoy_PfMETSY/maxresdefault.jpg,2023-01-23,00:38:07,2023-4,"datatypes,lowcode,MS Power Automate Desktop,RPA,Solution Design","datatypes,lowcode,ms-power-automate-desktop,rpa,solution-design",video,video,YouTube,youtube
30114,Marcelo Cruz,marcelo-cruz,https://www.youtube.com/channel/UCZiebEnHb2xPokSLdCasVNQ,,Word Automation with UiPath: A Step-by-Step Guide,7pbCoGSMOqk,https://www.youtube.com/watch?v=7pbCoGSMOqk,https://i.ytimg.com/vi_webp/7pbCoGSMOqk/maxresdefault.webp,2023-01-24,00:10:01,2023-4,"MS Word,RPA,UiPath,UiPath Studio","ms-word,rpa,uipath,uipath-studio",video,video,YouTube,youtube
30127,Marcelo Cruz,marcelo-cruz,https://www.youtube.com/channel/UCZiebEnHb2xPokSLdCasVNQ,,UiPath Orchestrator: Deploying and Scheduling Automations,I9jfN-ASoaw,https://www.youtube.com/watch?v=I9jfN-ASoaw,https://i.ytimg.com/vi_webp/I9jfN-ASoaw/maxresdefault.webp,2023-01-26,00:06:35,2023-4,"RPA,UiPath,UiPath Orchestrator","rpa,uipath,uipath-orchestrator",video,video,YouTube,youtube
30111,Reboot the work - Uipath,reboot-the-work-uipath,https://www.youtube.com/channel/UCb_s0ySmdX17oZpcIpQrrzw,,Uipath Tutorial | API Automation - Extract data using Deserialize JSON Array (Part - III),OUuXNvd1zME,https://www.youtube.com/watch?v=OUuXNvd1zME,https://i.ytimg.com/vi_webp/OUuXNvd1zME/maxresdefault.webp,2023-01-24,00:14:15,2023-4,"datatypes,JSON,RPA,UiPath","datatypes,json,rpa,uipath",video,video,YouTube,youtube
30132,Reboot the work - Uipath,reboot-the-work-uipath,https://www.youtube.com/channel/UCb_s0ySmdX17oZpcIpQrrzw,,Uipath Tutorial | API Automation - Post Method (Part - IV),P_h_J-QGOyk,https://www.youtube.com/watch?v=P_h_J-QGOyk,https://i.ytimg.com/vi_webp/P_h_J-QGOyk/maxresdefault.webp,2023-01-28,00:07:07,2023-4,"APIs,RPA,UiPath","apis,rpa,uipath",video,video,YouTube,youtube
30134,Reboot the work - Uipath,reboot-the-work-uipath,https://www.youtube.com/channel/UCb_s0ySmdX17oZpcIpQrrzw,,Uipath Tutorial | API Automation - Put and Delete Method (Part - V),9xSWr6NNuHg,https://www.youtube.com/watch?v=9xSWr6NNuHg,https://i.ytimg.com/vi/9xSWr6NNuHg/maxresdefault.jpg,2023-01-29,00:09:36,2023-4,"APIs,RPA,UiPath","apis,rpa,uipath",video,video,YouTube,youtube
30115,Robocorp,robocorp,https://www.youtube.com/channel/UCmdUNLWfRA2MvXlN9c5vtNA,,Welcome to Robocorp’s Coding for Success Series!,2FwvhQsGrnI,https://www.youtube.com/watch?v=2FwvhQsGrnI,https://i.ytimg.com/vi/2FwvhQsGrnI/maxresdefault.jpg,2023-01-24,00:01:01,2023-4,"Robocorp,RPA","robocorp,rpa",video,video,YouTube,youtube
30126,Robocorp,robocorp,https://www.youtube.com/channel/UCmdUNLWfRA2MvXlN9c5vtNA,,Coding for Success Vol.1  - Reading Robocorp Documentation Pages,rGop7UZ7oRU,https://www.youtube.com/watch?v=rGop7UZ7oRU,https://i.ytimg.com/vi/rGop7UZ7oRU/maxresdefault.jpg,2023-01-26,00:14:14,2023-4,"Robocorp,RPA","robocorp,rpa",video,video,YouTube,youtube
30100,RPAFeed,rpafeed,https://www.youtube.com/channel/UC3f0L_fUSQe8vAQwJowJ6-g,,Integrating ChatGPT with Power Automate Desktop | RPAFeed,0etqJ5htX_8,https://www.youtube.com/watch?v=0etqJ5htX_8,https://i.ytimg.com/vi/0etqJ5htX_8/maxresdefault.jpg,2023-01-23,00:11:34,2023-4,"lowcode,Microsoft,MS Power Automate Desktop,RPA","lowcode,microsoft,ms-power-automate-desktop,rpa",video,video,YouTube,youtube
30113,RPA Hub,rpa-hub,https://www.youtube.com/channel/UCnSVBOMNpmC-6SxHmogmu8w,,How to Fetch City Temprature using UiPath,gauH4NJHkMM,https://www.youtube.com/watch?v=gauH4NJHkMM,https://i.ytimg.com/vi_webp/gauH4NJHkMM/maxresdefault.webp,2023-01-24,00:09:02,2023-4,"RPA,UiPath,Use Case","rpa,uipath,usecase",video,video,YouTube,youtube
30125,RPA Hub,rpa-hub,https://www.youtube.com/channel/UCnSVBOMNpmC-6SxHmogmu8w,,How to Automate Amazon and Flipkart Search Product using UiPath | UiPath Tutorial,BeqyW-xzltY,https://www.youtube.com/watch?v=BeqyW-xzltY,https://i.ytimg.com/vi_webp/BeqyW-xzltY/maxresdefault.webp,2023-01-26,00:14:28,2023-4,"RPA,UiPath,Use Case","rpa,uipath,usecase",video,video,YouTube,youtube
30133,RPA Hub,rpa-hub,https://www.youtube.com/channel/UCnSVBOMNpmC-6SxHmogmu8w,,Power Automate Integration with Open AI | Integrate ChatGPT into Power Automate,XKiK8VkdEAc,https://www.youtube.com/watch?v=XKiK8VkdEAc,https://i.ytimg.com/vi_webp/XKiK8VkdEAc/maxresdefault.webp,2023-01-28,00:11:40,2023-4,"Artificial Intelligence,lowcode,Microsoft,MS Power Automate Desktop,RPA","ai,lowcode,microsoft,ms-power-automate-desktop,rpa",video,video,YouTube,youtube
30106,Tutorials by Mukesh Kala,tutorials-by-mukesh-kala,https://www.youtube.com/channel/UCtZTZt9fI91Xp-PVTPBESQQ,,UiPath Integration with Open AI  | RPA with Open AI |  Use Case  Building | ChatGPT  | RPA API 2023-01-23 12:04,HIePjxzTuEk,https://www.youtube.com/watch?v=HIePjxzTuEk,https://i.ytimg.com/vi_webp/HIePjxzTuEk/maxresdefault.webp,2023-01-23,00:58:26,2023-4,"Artificial Intelligence,RPA,UiPath","ai,rpa,uipath",video,video,YouTube,youtube
30124,Tutorials by Mukesh Kala,tutorials-by-mukesh-kala,https://www.youtube.com/channel/UCtZTZt9fI91Xp-PVTPBESQQ,,🔴 30.   [Hindi] : Send Email with Attachments from UiPath | Send SMTP Mail Message | RPA | हिन्दी,VYXhi0yO6Xw,https://www.youtube.com/watch?v=VYXhi0yO6Xw,https://i.ytimg.com/vi_webp/VYXhi0yO6Xw/maxresdefault.webp,2023-01-26,00:26:29,2023-4,"email automation,RPA,UiPath","email-automation,rpa,uipath",video,video,YouTube,youtube
30104,UiPath Video Tutorials made by Cristian Negulescu,uipath-video-tutorials-made-by-cristian-negulescu,https://www.youtube.com/channel/UCiSb0WLTgB23jT0E6NEuu7Q,,UiPath read all chats from MS Teams meeting,bmNJ5PkyfTQ,https://www.youtube.com/watch?v=bmNJ5PkyfTQ,https://i.ytimg.com/vi_webp/bmNJ5PkyfTQ/maxresdefault.webp,2023-01-23,00:11:10,2023-4,"Microsoft,RPA,UiPath,Use Case","microsoft,rpa,uipath,usecase",video,video,YouTube,youtube
30112,UiPath Video Tutorials made by Cristian Negulescu,uipath-video-tutorials-made-by-cristian-negulescu,https://www.youtube.com/channel/UCiSb0WLTgB23jT0E6NEuu7Q,,Modify date activity and how to find the last day of the month,SJK3hFWKnLo,https://www.youtube.com/watch?v=SJK3hFWKnLo,https://i.ytimg.com/vi_webp/SJK3hFWKnLo/maxresdefault.webp,2023-01-24,00:11:40,2023-4,"DateTime,RPA,UiPath","datetime,rpa,uipath",video,video,YouTube,youtube
30122,UiPath Video Tutorials made by Cristian Negulescu,uipath-video-tutorials-made-by-cristian-negulescu,https://www.youtube.com/channel/UCiSb0WLTgB23jT0E6NEuu7Q,,Use ChatGPT via API inside of UiPath Robots (extract specific data from answer),2yvswXwvk2U,https://www.youtube.com/watch?v=2yvswXwvk2U,https://i.ytimg.com/vi_webp/2yvswXwvk2U/maxresdefault.webp,2023-01-26,00:24:24,2023-4,"APIs,Artificial Intelligence,RPA,UiPath","apis,ai,rpa,uipath",video,video,YouTube,youtube
30136,UiPath with Jeppe,uipath-with-jeppe,https://www.youtube.com/channel/UCs8A4UTIVWDtq_NGccJUBUw,,Learn UiPath Action Center (2023 Update - Part 1),32-LuJWno1w,https://www.youtube.com/watch?v=32-LuJWno1w,https://i.ytimg.com/vi/32-LuJWno1w/maxresdefault.jpg,2023-01-29,00:19:36,2023-4,"RPA,UiPath,UiPath Action Center","rpa,uipath,uipath-action-center",video,video,YouTube,youtube
