id,org_name,org_identifier,org_slug,org_url,person,title,platform_identifier,url,thumbnail_src,published_at,duration,year_week,tags,tags_slugs,type_name,type_slug,platform_name,platform_slug
30584,Tom's Tech Academy,UCstCuI_7DvHw7-KSA3Yy9PQ,tom-s-tech-academy,https://www.youtube.com/channel/UCstCuI_7DvHw7-KSA3Yy9PQ,,Power Automate Desktop Excel Tutorial | Excel Tips & Tricks,-l6oZ08M62w,https://www.youtube.com/watch?v=-l6oZ08M62w,https://i.ytimg.com/vi_webp/-l6oZ08M62w/maxresdefault.webp,2023-04-01,00:11:47,2023-13,"Excel,lowcode,Microsoft,MS Power Automate Desktop,RPA","excel,lowcode,microsoft,ms-power-automate-desktop,rpa",video,video,YouTube,youtube
30582,Robobix,UCgSukdk2i259Jke1HW-t39g,robobix,https://www.youtube.com/channel/UCgSukdk2i259Jke1HW-t39g,,UiPath Outlook Automation - Part 1 | UiPath Outlook Mail Activities | UiPath RPA Tutorials,_Y-3ezsDeTk,https://www.youtube.com/watch?v=_Y-3ezsDeTk,https://i.ytimg.com/vi_webp/_Y-3ezsDeTk/maxresdefault.webp,2023-04-01,00:17:35,2023-13,"email automation,RPA,UiPath","email-automation,rpa,uipath",video,video,YouTube,youtube
30585,Reboot the work - Uipath,UCb_s0ySmdX17oZpcIpQrrzw,reboot-the-work-uipath,https://www.youtube.com/channel/UCb_s0ySmdX17oZpcIpQrrzw,,UiPath Tutorial | Orchestrator HTTP Request - Get Asset 2023-04-02 07:36,Gc9LQk_E83E,https://www.youtube.com/watch?v=Gc9LQk_E83E,https://i.ytimg.com/vi/Gc9LQk_E83E/maxresdefault.jpg,2023-04-01,00:08:15,2023-13,"APIs,RPA,UiPath,UiPath Orchestrator","apis,rpa,uipath,uipath-orchestrator",video,video,YouTube,youtube
30583,Anders Jensen,UCPdtz4gd_iYebJFYq9N8pWA,anders-jensen,https://www.youtube.com/channel/UCPdtz4gd_iYebJFYq9N8pWA,,The Best RPA Developer?,VnExWBxKXrQ,https://www.youtube.com/watch?v=VnExWBxKXrQ,https://i.ytimg.com/vi/VnExWBxKXrQ/sd2.jpg,2023-04-01,00:00:43,2023-13,"RPA,UiPath","rpa,uipath",video,video,YouTube,youtube
30567,yellowgreys,UCdfnDEVCZ6SGP-PA-KS97ng,yellowgreys,https://www.youtube.com/channel/UCdfnDEVCZ6SGP-PA-KS97ng,,UiPath | TRUE Or FALSE (Boolean) Demo | English | Yellowgreys - YouTube,lCB_dAhWDXA,https://www.youtube.com/watch?v=lCB_dAhWDXA,https://i.ytimg.com/vi_webp/lCB_dAhWDXA/maxresdefault.webp,2023-03-31,00:04:02,2023-13,"datatypes,RPA,UiPath,UiPath Studio","datatypes,rpa,uipath,uipath-studio",video,video,YouTube,youtube
30566,yellowgreys,UCdfnDEVCZ6SGP-PA-KS97ng,yellowgreys,https://www.youtube.com/channel/UCdfnDEVCZ6SGP-PA-KS97ng,,UiPath | Array Variable Demo | Read Text | Convert Array | English | Yellowgreys,hoL4ew-I4dI,https://www.youtube.com/watch?v=hoL4ew-I4dI,https://i.ytimg.com/vi_webp/hoL4ew-I4dI/maxresdefault.webp,2023-03-31,00:10:02,2023-13,"datatypes,RPA,UiPath,UiPath Studio","datatypes,rpa,uipath,uipath-studio",video,video,YouTube,youtube
30573,yellowgreys,UCdfnDEVCZ6SGP-PA-KS97ng,yellowgreys,https://www.youtube.com/channel/UCdfnDEVCZ6SGP-PA-KS97ng,,UiPath | Data Table Variable Demo | English | Yellowgreys,irqySa1CZMA,https://www.youtube.com/watch?v=irqySa1CZMA,https://i.ytimg.com/vi_webp/irqySa1CZMA/maxresdefault.webp,2023-03-31,00:06:22,2023-13,"DataTable,datatypes,RPA,UiPath,UiPath Studio","datatable,datatypes,rpa,uipath,uipath-studio",video,video,YouTube,youtube
30572,yellowgreys,UCdfnDEVCZ6SGP-PA-KS97ng,yellowgreys,https://www.youtube.com/channel/UCdfnDEVCZ6SGP-PA-KS97ng,,UiPath | Date and Time Variables | Demo | English | Yellowgreys - YouTube,biOqN1n9Lwc,https://www.youtube.com/watch?v=biOqN1n9Lwc,https://i.ytimg.com/vi/biOqN1n9Lwc/maxresdefault.jpg,2023-03-31,00:06:38,2023-13,"datatypes,DateTime,RPA,UiPath,UiPath Studio","datatypes,datetime,rpa,uipath,uipath-studio",video,video,YouTube,youtube
30569,yellowgreys,UCdfnDEVCZ6SGP-PA-KS97ng,yellowgreys,https://www.youtube.com/channel/UCdfnDEVCZ6SGP-PA-KS97ng,,UiPath | Complete String Manipulation Function | English | yellowgreys - YouTube,JEXq29rgClQ,https://www.youtube.com/watch?v=JEXq29rgClQ,https://i.ytimg.com/vi/JEXq29rgClQ/maxresdefault.jpg,2023-03-31,00:33:52,2023-13,"RPA,String,UiPath,UiPath Studio","rpa,string,uipath,uipath-studio",video,video,YouTube,youtube
30568,yellowgreys,UCdfnDEVCZ6SGP-PA-KS97ng,yellowgreys,https://www.youtube.com/channel/UCdfnDEVCZ6SGP-PA-KS97ng,,UiPath | Arguments | Complete End to End Understanding | Demo II | English | Yellowgreys,CMreyHDmUp4,https://www.youtube.com/watch?v=CMreyHDmUp4,https://i.ytimg.com/vi_webp/CMreyHDmUp4/maxresdefault.webp,2023-03-31,00:19:24,2023-13,"RPA,Solution Design,UiPath,UiPath Studio","rpa,solution-design,uipath,uipath-studio",video,video,YouTube,youtube
30575,UiPath,,uipath,https://www.uipath.com/,,Clipboard AI: AI for the rest of us to free up the best in us,FouRcBqj5tA,https://www.youtube.com/watch?v=FouRcBqj5tA,https://i.ytimg.com/vi_webp/FouRcBqj5tA/maxresdefault.webp,2023-03-31,00:01:01,2023-13,"Artificial Intelligence,RPA,UiPath","ai,rpa,uipath",video,video,YouTube,youtube
30579,Tom's Tech Academy,UCstCuI_7DvHw7-KSA3Yy9PQ,tom-s-tech-academy,https://www.youtube.com/channel/UCstCuI_7DvHw7-KSA3Yy9PQ,,String Functions in Power Automate Desktop | Get Subtext | Crop | Trim | Replace | Reverse | Split,J-KUmrGfstw,https://www.youtube.com/watch?v=J-KUmrGfstw,https://i.ytimg.com/vi_webp/J-KUmrGfstw/maxresdefault.webp,2023-03-31,00:10:07,2023-13,"lowcode,Microsoft,MS Power Automate Desktop,RPA,String","lowcode,microsoft,ms-power-automate-desktop,rpa,string",video,video,YouTube,youtube
30577,Tom's Tech Academy,UCstCuI_7DvHw7-KSA3Yy9PQ,tom-s-tech-academy,https://www.youtube.com/channel/UCstCuI_7DvHw7-KSA3Yy9PQ,,Power Automate Desktop DateTime Tutorial | Add Days to Date | Calculate Difference | Change Format,pzB03iFiZRo,https://www.youtube.com/watch?v=pzB03iFiZRo,https://i.ytimg.com/vi/pzB03iFiZRo/maxresdefault.jpg,2023-03-31,00:06:09,2023-13,"DateTime,lowcode,Microsoft,MS Power Automate Desktop,RPA","datetime,lowcode,microsoft,ms-power-automate-desktop,rpa",video,video,YouTube,youtube
30571,Reboot the work - Uipath,UCb_s0ySmdX17oZpcIpQrrzw,reboot-the-work-uipath,https://www.youtube.com/channel/UCb_s0ySmdX17oZpcIpQrrzw,,UiPath Tutorial | Orchestrator HTTP Request - Post Asset,ckMPZ70tzB4,https://www.youtube.com/watch?v=ckMPZ70tzB4,https://i.ytimg.com/vi/ckMPZ70tzB4/maxresdefault.jpg,2023-03-31,00:06:49,2023-13,"APIs,RPA,UiPath,UiPath Orchestrator","apis,rpa,uipath,uipath-orchestrator",video,video,YouTube,youtube
30578,AUTOMATE WITH UIPATH,UCa7b3OJL6ghuCX3hCUghVTA,automate-with-uipath,https://www.youtube.com/channel/UCa7b3OJL6ghuCX3hCUghVTA,,Do you know about the Control Flow PART 1,blOVIDA-04s,https://www.youtube.com/watch?v=blOVIDA-04s,https://i.ytimg.com/vi/blOVIDA-04s/sd2.jpg,2023-03-31,00:00:24,2023-13,"control flow,RPA,UiPath,UiPath Studio","control-flow,rpa,uipath,uipath-studio",video,video,YouTube,youtube
30576,Anders Jensen,UCPdtz4gd_iYebJFYq9N8pWA,anders-jensen,https://www.youtube.com/channel/UCPdtz4gd_iYebJFYq9N8pWA,,Excel & DataTables in Power Automate Desktop - Including VBA and VBScript,urFyD7QOkac,https://www.youtube.com/watch?v=urFyD7QOkac,https://i.ytimg.com/vi_webp/urFyD7QOkac/maxresdefault.webp,2023-03-31,00:35:24,2023-13,"Excel,lowcode,Microsoft,MS Power Automate Desktop,RPA","excel,lowcode,microsoft,ms-power-automate-desktop,rpa",video,video,YouTube,youtube
30560,yellowgreys,UCdfnDEVCZ6SGP-PA-KS97ng,yellowgreys,https://www.youtube.com/channel/UCdfnDEVCZ6SGP-PA-KS97ng,,UiPath | Arguments | Pass Data Table Value From Sequence I to II | English | Yellowgreys,_AtxNCtuwnQ,https://www.youtube.com/watch?v=_AtxNCtuwnQ,https://i.ytimg.com/vi_webp/_AtxNCtuwnQ/maxresdefault.webp,2023-03-30,00:13:15,2023-13,"RPA,Solution Design,UiPath,UiPath Studio","rpa,solution-design,uipath,uipath-studio",video,video,YouTube,youtube
30555,yellowgreys,UCdfnDEVCZ6SGP-PA-KS97ng,yellowgreys,https://www.youtube.com/channel/UCdfnDEVCZ6SGP-PA-KS97ng,,UiPath | Variables Best Practice | Types of Variables | English | Yellowgreys,aEcgSgqbNeo,https://www.youtube.com/watch?v=aEcgSgqbNeo,https://i.ytimg.com/vi_webp/aEcgSgqbNeo/maxresdefault.webp,2023-03-30,00:15:58,2023-13,"datatypes,RPA,UiPath","datatypes,rpa,uipath",video,video,YouTube,youtube
30559,yellowgreys,UCdfnDEVCZ6SGP-PA-KS97ng,yellowgreys,https://www.youtube.com/channel/UCdfnDEVCZ6SGP-PA-KS97ng,,UiPath | What is Arguments? | Manage Arguments | Live Demo | English| Yellowgreys,3G06JYv2Th4,https://www.youtube.com/watch?v=3G06JYv2Th4,https://i.ytimg.com/vi/3G06JYv2Th4/maxresdefault.jpg,2023-03-30,00:18:29,2023-13,"RPA,Solution Design,UiPath,UiPath Studio","rpa,solution-design,uipath,uipath-studio",video,video,YouTube,youtube
30563,UiPath,,uipath,https://www.uipath.com/,,New Ask GPT Document Understanding Activity: UiPath + OpenAI integration,rcIl2usFH8E,https://www.youtube.com/watch?v=rcIl2usFH8E,https://i.ytimg.com/vi/rcIl2usFH8E/maxresdefault.jpg,2023-03-30,00:05:30,2023-13,"Artificial Intelligence,document understanding,RPA,UiPath","ai,document-understanding,rpa,uipath",video,video,YouTube,youtube
30558,Tutorials by Mukesh Kala,UCtZTZt9fI91Xp-PVTPBESQQ,tutorials-by-mukesh-kala,https://www.youtube.com/channel/UCtZTZt9fI91Xp-PVTPBESQQ,,8. What are Operators in SQL Server | Common Operators in Database | SQL Server Beginners,Mp6jleMBlvw,https://www.youtube.com/watch?v=Mp6jleMBlvw,https://i.ytimg.com/vi_webp/Mp6jleMBlvw/maxresdefault.webp,2023-03-30,00:35:18,2023-13,"RPA,SQL","rpa,sql",video,video,YouTube,youtube
30557,Parth Doshi - Learning By Doing,UCznYd5txTJFJ3ar7HD8WUdQ,parth-doshi-learning-by-doing,https://www.youtube.com/channel/UCznYd5txTJFJ3ar7HD8WUdQ,,Reset the Data Grid on Click of Button using UiPath Forms,iXYQ75H_qxI,https://www.youtube.com/watch?v=iXYQ75H_qxI,https://i.ytimg.com/vi_webp/iXYQ75H_qxI/maxresdefault.webp,2023-03-30,00:06:33,2023-13,"RPA,UiPath","rpa,uipath",video,video,YouTube,youtube
30562,Ash Kulkarni,UC7nUL-FahmIJwd9yaNJUQKw,ash-kulkarni,https://www.youtube.com/channel/UC7nUL-FahmIJwd9yaNJUQKw,,Are You Losing Your Job To A Robot? - The Changing Face of RPA,D7D3VUFpdrA,https://www.youtube.com/watch?v=D7D3VUFpdrA,https://i.ytimg.com/vi/D7D3VUFpdrA/maxresdefault.jpg,2023-03-30,00:48:24,2023-13,RPA,rpa,video,video,YouTube,youtube
30565,Anders Jensen,UCPdtz4gd_iYebJFYq9N8pWA,anders-jensen,https://www.youtube.com/channel/UCPdtz4gd_iYebJFYq9N8pWA,,AI/ML and Data Science with Low-Code Python,m4TL9WiSlZw,https://www.youtube.com/watch?v=m4TL9WiSlZw,https://i.ytimg.com/vi/m4TL9WiSlZw/maxresdefault.jpg,2023-03-30,00:50:13,2023-13,"Python,RPA","python,rpa",video,video,YouTube,youtube
30550,UiPath Video Tutorials made by Cristian Negulescu,UCiSb0WLTgB23jT0E6NEuu7Q,uipath-video-tutorials-made-by-cristian-negulescu,https://www.youtube.com/channel/UCiSb0WLTgB23jT0E6NEuu7Q,,Maximizing UiPath Performance with ChatGPT and AI Tools,4IP3_865w5k,https://www.youtube.com/watch?v=4IP3_865w5k,https://i.ytimg.com/vi_webp/4IP3_865w5k/maxresdefault.webp,2023-03-29,00:04:40,2023-13,"Artificial Intelligence,RPA,UiPath","ai,rpa,uipath",video,video,YouTube,youtube
30546,Tutorials by Mukesh Kala,UCtZTZt9fI91Xp-PVTPBESQQ,tutorials-by-mukesh-kala,https://www.youtube.com/channel/UCtZTZt9fI91Xp-PVTPBESQQ,,💡 Config Missing in UiPath RE Framework ! #shorts,OXRtaNtjnvc,https://www.youtube.com/watch?v=OXRtaNtjnvc,https://i.ytimg.com/vi/OXRtaNtjnvc/sd2.jpg,2023-03-29,00:00:57,2023-13,"REFramework,RPA,UiPath","reframework,rpa,uipath",video,video,YouTube,youtube
30552,Robocorp,UCmdUNLWfRA2MvXlN9c5vtNA,robocorp,https://www.youtube.com/channel/UCmdUNLWfRA2MvXlN9c5vtNA,,Robocorp Announces Video Streaming for Unattended Bots,_kevv1KtGyQ,https://www.youtube.com/watch?v=_kevv1KtGyQ,https://i.ytimg.com/vi/_kevv1KtGyQ/maxresdefault.jpg,2023-03-29,00:01:57,2023-13,"Robocorp,RPA","robocorp,rpa",video,video,YouTube,youtube
30553,Robocorp,UCmdUNLWfRA2MvXlN9c5vtNA,robocorp,https://www.youtube.com/channel/UCmdUNLWfRA2MvXlN9c5vtNA,,Coding for Success Vol. 2  - Planning for Your Next Automation Project,Kw1tnitcgQI,https://www.youtube.com/watch?v=Kw1tnitcgQI,https://i.ytimg.com/vi/Kw1tnitcgQI/maxresdefault.jpg,2023-03-29,00:06:51,2023-13,"Robocorp,RPA,Solution Design","robocorp,rpa,solution-design",video,video,YouTube,youtube
30547,Reboot the work - Uipath,UCb_s0ySmdX17oZpcIpQrrzw,reboot-the-work-uipath,https://www.youtube.com/channel/UCb_s0ySmdX17oZpcIpQrrzw,,Uipath Tutorial | Orchestrator HTTP Request - Start Job using Release Key and Robot ID,FsXCGtD254w,https://www.youtube.com/watch?v=FsXCGtD254w,https://i.ytimg.com/vi/FsXCGtD254w/maxresdefault.jpg,2023-03-29,00:09:35,2023-13,"APIs,RPA,UiPath,UiPath Orchestrator","apis,rpa,uipath,uipath-orchestrator",video,video,YouTube,youtube
30542,yellowgreys,UCdfnDEVCZ6SGP-PA-KS97ng,yellowgreys,https://www.youtube.com/channel/UCdfnDEVCZ6SGP-PA-KS97ng,,UiPath | Why Log Message & It's Types Important? | Fatal | Error | Warn | Info | Trace | தமிழில்,O1rKI6SOdxo,https://www.youtube.com/watch?v=O1rKI6SOdxo,https://i.ytimg.com/vi_webp/O1rKI6SOdxo/maxresdefault.webp,2023-03-28,00:23:46,2023-13,"logging,RPA,UiPath","logging,rpa,uipath",video,video,YouTube,youtube
30541,UiPath Video Tutorials made by Cristian Negulescu,UCiSb0WLTgB23jT0E6NEuu7Q,uipath-video-tutorials-made-by-cristian-negulescu,https://www.youtube.com/channel/UCiSb0WLTgB23jT0E6NEuu7Q,,"3 minute Logic: How ChatGPT, UiPath, and LinkedIn Premium Can Help You Find the Perfect Candidate",jodBpuZIlx8,https://www.youtube.com/watch?v=jodBpuZIlx8,https://i.ytimg.com/vi_webp/jodBpuZIlx8/maxresdefault.webp,2023-03-28,00:02:53,2023-13,"Artificial Intelligence,RPA,UiPath","ai,rpa,uipath",video,video,YouTube,youtube
30543,UiPath Video Tutorials made by Cristian Negulescu,UCiSb0WLTgB23jT0E6NEuu7Q,uipath-video-tutorials-made-by-cristian-negulescu,https://www.youtube.com/channel/UCiSb0WLTgB23jT0E6NEuu7Q,,"Hiring Made Easy: How ChatGPT, UiPath, and LinkedIn Premium Can Help You Find the Perfect Candidate",LWT4lYiBZbY,https://www.youtube.com/watch?v=LWT4lYiBZbY,https://i.ytimg.com/vi_webp/LWT4lYiBZbY/maxresdefault.webp,2023-03-28,00:30:42,2023-13,"Artificial Intelligence,RPA,UiPath,Use Case","ai,rpa,uipath,usecase",video,video,YouTube,youtube
30536,Tutorials by Mukesh Kala,UCtZTZt9fI91Xp-PVTPBESQQ,tutorials-by-mukesh-kala,https://www.youtube.com/channel/UCtZTZt9fI91Xp-PVTPBESQQ,,UiPath 2023.4 Update | Live Streaming & Remote Control | Latest Feature in UiPath|  Troubleshooting,UTEyxjFWEsU,https://www.youtube.com/watch?v=UTEyxjFWEsU,https://i.ytimg.com/vi_webp/UTEyxjFWEsU/maxresdefault.webp,2023-03-28,00:12:11,2023-13,"RPA,UiPath","rpa,uipath",video,video,YouTube,youtube
30544,Robocorp,UCmdUNLWfRA2MvXlN9c5vtNA,robocorp,https://www.youtube.com/channel/UCmdUNLWfRA2MvXlN9c5vtNA,,Tommi Talk Episode 6.5: Developments in Generative AI,nDmLexw8T2M,https://www.youtube.com/watch?v=nDmLexw8T2M,https://i.ytimg.com/vi/nDmLexw8T2M/maxresdefault.jpg,2023-03-28,00:12:08,2023-13,"Artificial Intelligence,Robocorp,RPA","ai,robocorp,rpa",video,video,YouTube,youtube
30540,K T Sessions,UCStgI3w3IYFK-q06hCtxcEQ,k-t-sessions,https://www.youtube.com/channel/UCStgI3w3IYFK-q06hCtxcEQ,,Packages | Automation Anywhere A360 | Day - 4,Iu8nzMOdnfA,https://www.youtube.com/watch?v=Iu8nzMOdnfA,https://i.ytimg.com/vi_webp/Iu8nzMOdnfA/maxresdefault.webp,2023-03-28,00:06:50,2023-13,"Automation Anywhere,Control Room,RPA","automation-anywhere,control-room,rpa",video,video,YouTube,youtube
30530,yellowgreys,UCdfnDEVCZ6SGP-PA-KS97ng,yellowgreys,https://www.youtube.com/channel/UCdfnDEVCZ6SGP-PA-KS97ng,,UiPath | Why Coding Standards are Important? | Workflow analyzer | Code Review | தமிழில்-Yellowgreys,TscE48Sx2-0,https://www.youtube.com/watch?v=TscE48Sx2-0,https://i.ytimg.com/vi_webp/TscE48Sx2-0/maxresdefault.webp,2023-03-27,00:36:36,2023-13,"Code Review,RPA,UiPath","code-review,rpa,uipath",video,video,YouTube,youtube
30512,UiPath,,uipath,https://www.uipath.com/,,UiPath Communications Mining: understand and automate every message,Tm3V4AWzlag,https://www.youtube.com/watch?v=Tm3V4AWzlag,https://i.ytimg.com/vi_webp/Tm3V4AWzlag/maxresdefault.webp,2023-03-27,00:02:03,2023-13,"RPA,UiPath","rpa,uipath",video,video,YouTube,youtube
30513,Robobix,UCgSukdk2i259Jke1HW-t39g,robobix,https://www.youtube.com/channel/UCgSukdk2i259Jke1HW-t39g,,UiPath Excel Automation - Part 3 | UiPath Excel Rows and Columns Operations | UiPath RPA Tutorials,CECIK4wNDMg,https://www.youtube.com/watch?v=CECIK4wNDMg,https://i.ytimg.com/vi_webp/CECIK4wNDMg/maxresdefault.webp,2023-03-27,00:20:19,2023-13,"Excel,RPA,UiPath","excel,rpa,uipath",video,video,YouTube,youtube
30533,K T Sessions,UCStgI3w3IYFK-q06hCtxcEQ,k-t-sessions,https://www.youtube.com/channel/UCStgI3w3IYFK-q06hCtxcEQ,,Fun Facts of chatgpt,07nWXdUMkgE,https://www.youtube.com/watch?v=07nWXdUMkgE,https://i.ytimg.com/vi/07nWXdUMkgE/maxresdefault.jpg,2023-03-27,00:00:35,2023-13,"Artificial Intelligence,RPA","ai,rpa",video,video,YouTube,youtube
