id,org_name,org_identifier,org_slug,org_url,person,title,platform_identifier,url,thumbnail_src,published_at,duration,year_week,tags,tags_slugs,type_name,type_slug,platform_name,platform_slug
30790,Anders Jensen,UCPdtz4gd_iYebJFYq9N8pWA,anders-jensen,https://www.youtube.com/channel/UCPdtz4gd_iYebJFYq9N8pWA,,20230428 SQLBeginners,GiqqopBSoHw,https://www.youtube.com/watch?v=GiqqopBSoHw,https://i.ytimg.com/vi/GiqqopBSoHw/maxresdefault.jpg,2023-05-01,00:13:42,2023-18,"RPA,SQL","rpa,sql",video,video,YouTube,youtube
30798,Anders Jensen,UCPdtz4gd_iYebJFYq9N8pWA,anders-jensen,https://www.youtube.com/channel/UCPdtz4gd_iYebJFYq9N8pWA,,Automate SQL Databases with Microsoft Power Automate Desktop,ABg-77uVTDM,https://www.youtube.com/watch?v=ABg-77uVTDM,https://i.ytimg.com/vi_webp/ABg-77uVTDM/maxresdefault.webp,2023-05-02,00:23:11,2023-18,"lowcode,Microsoft,RPA,SQL","lowcode,microsoft,rpa,sql",video,video,YouTube,youtube
30804,Anders Jensen,UCPdtz4gd_iYebJFYq9N8pWA,anders-jensen,https://www.youtube.com/channel/UCPdtz4gd_iYebJFYq9N8pWA,,How to do Invoice Processing with botminds.ai,JEn5L6StcF4,https://www.youtube.com/watch?v=JEn5L6StcF4,https://i.ytimg.com/vi/JEn5L6StcF4/maxresdefault.jpg,2023-05-02,00:54:13,2023-18,"botminds.ai,Intelligent Document Processing,RPA,Use Case","botminds.ai,intelligent-document-processing,rpa,usecase",video,video,YouTube,youtube
30843,Ash Kulkarni,UC7nUL-FahmIJwd9yaNJUQKw,ash-kulkarni,https://www.youtube.com/channel/UC7nUL-FahmIJwd9yaNJUQKw,,The FOUR SECRETS To A Successful RPA Career | RPA For Everyone | Episode 2,Jjoj9ogBPLQ,https://www.youtube.com/watch?v=Jjoj9ogBPLQ,https://i.ytimg.com/vi_webp/Jjoj9ogBPLQ/maxresdefault.webp,2023-05-07,00:15:34,2023-18,"learning,RPA","learning,rpa",video,video,YouTube,youtube
30808,Automate with Rakesh,UCqxVW50cODphM0YHvA34NjQ,automate-with-rakesh,https://www.youtube.com/channel/UCqxVW50cODphM0YHvA34NjQ,,UiPath Uninstall | Steps To Uninstall UiPath Completely & ReInstall Steps,kL25VoyTRvw,https://www.youtube.com/watch?v=kL25VoyTRvw,https://i.ytimg.com/vi_webp/kL25VoyTRvw/maxresdefault.webp,2023-05-03,00:20:15,2023-18,"RPA,UiPath","rpa,uipath",video,video,YouTube,youtube
30815,Automate with Rakesh,UCqxVW50cODphM0YHvA34NjQ,automate-with-rakesh,https://www.youtube.com/channel/UCqxVW50cODphM0YHvA34NjQ,,How do I Install UiPath Robot in Service Mode or User Mode | UiPath Service Mode | UiPath User Mode,wZiAw5vZTPA,https://www.youtube.com/watch?v=wZiAw5vZTPA,https://i.ytimg.com/vi/wZiAw5vZTPA/maxresdefault.jpg,2023-05-04,00:10:20,2023-18,"RPA,UiPath","rpa,uipath",video,video,YouTube,youtube
30819,Automate with Rakesh,UCqxVW50cODphM0YHvA34NjQ,automate-with-rakesh,https://www.youtube.com/channel/UCqxVW50cODphM0YHvA34NjQ,,How do I find UiPath Client ID and Secret | UiPath Client ID | UiPath Client Secret,YNclrQrlGhw,https://www.youtube.com/watch?v=YNclrQrlGhw,https://i.ytimg.com/vi_webp/YNclrQrlGhw/maxresdefault.webp,2023-05-04,00:02:10,2023-18,"RPA,UiPath,UiPath Automation Hub","rpa,uipath,uipath-automation-hub",video,video,YouTube,youtube
30826,Automate with Rakesh,UCqxVW50cODphM0YHvA34NjQ,automate-with-rakesh,https://www.youtube.com/channel/UCqxVW50cODphM0YHvA34NjQ,,How Do I Publish UiPath Project Locally and Upload it to Orchestrator | Export UiPath Project,0PGvblwopdw,https://www.youtube.com/watch?v=0PGvblwopdw,https://i.ytimg.com/vi_webp/0PGvblwopdw/maxresdefault.webp,2023-05-05,00:04:57,2023-18,"RPA,UiPath,UiPath Studio","rpa,uipath,uipath-studio",video,video,YouTube,youtube
30828,Automate with Rakesh,UCqxVW50cODphM0YHvA34NjQ,automate-with-rakesh,https://www.youtube.com/channel/UCqxVW50cODphM0YHvA34NjQ,,UiPath PIP Mode | How Do I Use UiPath PIP Mode,POPYAQVHtTM,https://www.youtube.com/watch?v=POPYAQVHtTM,https://i.ytimg.com/vi_webp/POPYAQVHtTM/maxresdefault.webp,2023-05-05,00:10:00,2023-18,"picture in picture,RPA,UiPath","picture-in-picture,rpa,uipath",video,video,YouTube,youtube
30838,Automate with Rakesh,UCqxVW50cODphM0YHvA34NjQ,automate-with-rakesh,https://www.youtube.com/channel/UCqxVW50cODphM0YHvA34NjQ,,UiPath Apps Demo | How to Use UiPath Apps Demo for Beginners,nrnT9p9kP_A,https://www.youtube.com/watch?v=nrnT9p9kP_A,https://i.ytimg.com/vi_webp/nrnT9p9kP_A/maxresdefault.webp,2023-05-06,00:46:33,2023-18,"RPA,UiPath,UiPath Apps","rpa,uipath,uipath-apps",video,video,YouTube,youtube
30782,AUTOMATE WITH UIPATH,UCa7b3OJL6ghuCX3hCUghVTA,automate-with-uipath,https://www.youtube.com/channel/UCa7b3OJL6ghuCX3hCUghVTA,,🌟Elevate Your Skills and Achieve Mastery in RPA! 💻,FvJj0HQOdac,https://www.youtube.com/watch?v=FvJj0HQOdac,https://i.ytimg.com/vi/FvJj0HQOdac/sd2.jpg,2023-05-01,00:00:34,2023-18,"RPA,UiPath","rpa,uipath",video,video,YouTube,youtube
30817,AUTOMATE WITH UIPATH,UCa7b3OJL6ghuCX3hCUghVTA,automate-with-uipath,https://www.youtube.com/channel/UCa7b3OJL6ghuCX3hCUghVTA,,'UiPath Interview Challenge '🤖,SL7_YVddbhY,https://www.youtube.com/watch?v=SL7_YVddbhY,https://i.ytimg.com/vi/SL7_YVddbhY/sd2.jpg,2023-05-04,00:00:20,2023-18,"Job Interview Questions,RPA,UiPath","job-interview-questions,rpa,uipath",video,video,YouTube,youtube
30823,AUTOMATE WITH UIPATH,UCa7b3OJL6ghuCX3hCUghVTA,automate-with-uipath,https://www.youtube.com/channel/UCa7b3OJL6ghuCX3hCUghVTA,,Must Know About Argument in UiPath PART 2,WQ4aEow8pZ4,https://www.youtube.com/watch?v=WQ4aEow8pZ4,https://i.ytimg.com/vi/WQ4aEow8pZ4/sd2.jpg,2023-05-05,00:00:20,2023-18,"RPA,UiPath,UiPath Studio","rpa,uipath,uipath-studio",video,video,YouTube,youtube
30791,Automation Rocketship,UCd10w9kdYvSVyxTVAo6vjMw,automation-rocketship,https://www.youtube.com/channel/UCd10w9kdYvSVyxTVAo6vjMw,,UiPath AI Summit 2023 - #1 AI Use Case - Efficient Product Sequencing Recommendation Model,bTKUCg3MCsA,https://www.youtube.com/watch?v=bTKUCg3MCsA,https://i.ytimg.com/vi/bTKUCg3MCsA/sddefault.jpg,2023-05-02,00:35:28,2023-18,"Artificial Intelligence,RPA,UiPath,Use Case","ai,rpa,uipath,usecase",video,video,YouTube,youtube
30783,Harika Mudiam,UCDIBmgKBPBtNJrE0dQfnAYg,harika-mudiam,https://www.youtube.com/channel/UCDIBmgKBPBtNJrE0dQfnAYg,,Latest UiPath Forms - Complete Use Case Demo - Step-by-step Tutorial - Part 1,fQEtT0QlnWg,https://www.youtube.com/watch?v=fQEtT0QlnWg,https://i.ytimg.com/vi/fQEtT0QlnWg/maxresdefault.jpg,2023-05-01,00:17:47,2023-18,"RPA,UiPath,UiPath Forms","rpa,uipath,uipath-forms",video,video,YouTube,youtube
30792,Harika Mudiam,UCDIBmgKBPBtNJrE0dQfnAYg,harika-mudiam,https://www.youtube.com/channel/UCDIBmgKBPBtNJrE0dQfnAYg,,CHATGPT vs Google - which is best???,Ydlq67o9r-M,https://www.youtube.com/watch?v=Ydlq67o9r-M,https://i.ytimg.com/vi_webp/Ydlq67o9r-M/sddefault.webp,2023-05-02,00:15:28,2023-18,"Artificial Intelligence,RPA","ai,rpa",video,video,YouTube,youtube
30801,Harika Mudiam,UCDIBmgKBPBtNJrE0dQfnAYg,harika-mudiam,https://www.youtube.com/channel/UCDIBmgKBPBtNJrE0dQfnAYg,,Trigger Based Attended Automation | UiPath Forms | Study Participation Consent Use Case |  Part 2,GSRXNuqiqD8,https://www.youtube.com/watch?v=GSRXNuqiqD8,https://i.ytimg.com/vi_webp/GSRXNuqiqD8/maxresdefault.webp,2023-05-03,00:22:52,2023-18,"RPA,UiPath,UiPath Forms","rpa,uipath,uipath-forms",video,video,YouTube,youtube
30813,Harika Mudiam,UCDIBmgKBPBtNJrE0dQfnAYg,harika-mudiam,https://www.youtube.com/channel/UCDIBmgKBPBtNJrE0dQfnAYg,,Updating Forms - Complete Use Case - Step by step tutorial - UiPath Forms - Latest version 23.4.3,Ux26_WPb19U,https://www.youtube.com/watch?v=Ux26_WPb19U,https://i.ytimg.com/vi_webp/Ux26_WPb19U/maxresdefault.webp,2023-05-04,00:12:08,2023-18,"RPA,UiPath,UiPath Forms,Use Case","rpa,uipath,uipath-forms,usecase",video,video,YouTube,youtube
30832,Harika Mudiam,UCDIBmgKBPBtNJrE0dQfnAYg,harika-mudiam,https://www.youtube.com/channel/UCDIBmgKBPBtNJrE0dQfnAYg,,UiPath Document Understanding as a Service - REST API - Swagger - Actions - Latest 23.4 Release,qOErku5DfOg,https://www.youtube.com/watch?v=qOErku5DfOg,https://i.ytimg.com/vi_webp/qOErku5DfOg/sddefault.webp,2023-05-05,00:24:26,2023-18,"document understanding,RPA,UiPath","document-understanding,rpa,uipath",video,video,YouTube,youtube
30821,Harika Mudiam,UCDIBmgKBPBtNJrE0dQfnAYg,harika-mudiam,https://www.youtube.com/channel/UCDIBmgKBPBtNJrE0dQfnAYg,,Integrate  Custom HTML form into Latest UiPath Forms - Trigger Based Attended Automation - API calls,-1bnhTl0Pag,https://www.youtube.com/watch?v=-1bnhTl0Pag,https://i.ytimg.com/vi_webp/-1bnhTl0Pag/maxresdefault.webp,2023-05-05,00:15:15,2023-18,"RPA,UiPath,UiPath Forms","rpa,uipath,uipath-forms",video,video,YouTube,youtube
30831,Harika Mudiam,UCDIBmgKBPBtNJrE0dQfnAYg,harika-mudiam,https://www.youtube.com/channel/UCDIBmgKBPBtNJrE0dQfnAYg,,Document Understanding as a Service - shorts  - complete video link in 1st comment,etLZ3zLY6VQ,https://www.youtube.com/watch?v=etLZ3zLY6VQ,https://i.ytimg.com/vi/etLZ3zLY6VQ/sd2.jpg,2023-05-05,00:00:51,2023-18,"document understanding,RPA,UiPath","document-understanding,rpa,uipath",video,video,YouTube,youtube
30840,Harika Mudiam,UCDIBmgKBPBtNJrE0dQfnAYg,harika-mudiam,https://www.youtube.com/channel/UCDIBmgKBPBtNJrE0dQfnAYg,,"API calls in -Design Custom HTML Form with Latest UiPath Forms - Get value, Set value with Triggers.",EpDjqWMOZlo,https://www.youtube.com/watch?v=EpDjqWMOZlo,https://i.ytimg.com/vi/EpDjqWMOZlo/maxresdefault.jpg,2023-05-07,00:17:57,2023-18,"APIs,RPA,UiPath,UiPath Forms","apis,rpa,uipath,uipath-forms",video,video,YouTube,youtube
30811,K T Sessions,UCStgI3w3IYFK-q06hCtxcEQ,k-t-sessions,https://www.youtube.com/channel/UCStgI3w3IYFK-q06hCtxcEQ,,"Overview, Installation, History || Blue Prism हिंदी में 2023-05-04 07:51",qUTZgB1hMWY,https://www.youtube.com/watch?v=qUTZgB1hMWY,https://i.ytimg.com/vi/qUTZgB1hMWY/maxresdefault.jpg,2023-05-03,00:20:16,2023-18,"Blue Prism,RPA","blue-prism,rpa",video,video,YouTube,youtube
30842,K T Sessions,UCStgI3w3IYFK-q06hCtxcEQ,k-t-sessions,https://www.youtube.com/channel/UCStgI3w3IYFK-q06hCtxcEQ,,IF Else Pacakge in Automation Anywhere | Loop Pacakge in Automation Anywhere A360,E6Sicj4znrE,https://www.youtube.com/watch?v=E6Sicj4znrE,https://i.ytimg.com/vi/E6Sicj4znrE/sddefault.jpg,2023-05-07,00:20:34,2023-18,"Automation Anywhere,control flow,RPA","automation-anywhere,control-flow,rpa",video,video,YouTube,youtube
30812,Lahiru Fernando,UCCNS3JXwMDYlbJh7HsV8geg,lahiru-fernando,https://www.youtube.com/channel/UCCNS3JXwMDYlbJh7HsV8geg,,UiPath Document Understanding Solution Architecture - Part 1 | RPA | Use of DU Template,EqcKYxjV1qI,https://www.youtube.com/watch?v=EqcKYxjV1qI,https://i.ytimg.com/vi/EqcKYxjV1qI/hqdefault.jpg,2023-05-04,00:24:35,2023-18,"document understanding,RPA,Solution Design,UiPath","document-understanding,rpa,solution-design,uipath",video,video,YouTube,youtube
30841,Lahiru Fernando,UCCNS3JXwMDYlbJh7HsV8geg,lahiru-fernando,https://www.youtube.com/channel/UCCNS3JXwMDYlbJh7HsV8geg,,UiPath Document Understanding Solution Architecture - Quick Setup - Document Understanding Template,pVPRGTe30YA,https://www.youtube.com/watch?v=pVPRGTe30YA,https://i.ytimg.com/vi/pVPRGTe30YA/hqdefault.jpg,2023-05-07,00:25:58,2023-18,"document understanding,RPA,Solution Design,UiPath","document-understanding,rpa,solution-design,uipath",video,video,YouTube,youtube
30834,nisarg kadam,UCX7FdmCv9UOKdlyjfGydV3w,nisarg-kadam,https://www.youtube.com/channel/UCX7FdmCv9UOKdlyjfGydV3w,,Mastering Document Understanding as a Service : REST API & Cloud Integration,cFyHraaQvgU,https://www.youtube.com/watch?v=cFyHraaQvgU,https://i.ytimg.com/vi/cFyHraaQvgU/maxresdefault.jpg,2023-05-05,00:13:26,2023-18,"document understanding,RPA,UiPath","document-understanding,rpa,uipath",video,video,YouTube,youtube
30833,Robocorp,UCmdUNLWfRA2MvXlN9c5vtNA,robocorp,https://www.youtube.com/channel/UCmdUNLWfRA2MvXlN9c5vtNA,,Emerson x Robocorp: A Journey to Modern Intelligent Automation,6uDiQgLOkpQ,https://www.youtube.com/watch?v=6uDiQgLOkpQ,https://i.ytimg.com/vi/6uDiQgLOkpQ/maxresdefault.jpg,2023-05-05,00:59:19,2023-18,"Robocorp,RPA","robocorp,rpa",video,video,YouTube,youtube
30809,RPAFeed,UC3f0L_fUSQe8vAQwJowJ6-g,rpafeed,https://www.youtube.com/channel/UC3f0L_fUSQe8vAQwJowJ6-g,,Bot Games 4 - Challenge 1 | AI Healthcare Challenge | #rpashorts,noe1BImWKUI,https://www.youtube.com/watch?v=noe1BImWKUI,https://i.ytimg.com/vi/noe1BImWKUI/maxresdefault.jpg,2023-05-03,00:00:36,2023-18,"Artificial Intelligence,Automation Anywhere,Challenge,RPA","ai,automation-anywhere,challenge,rpa",video,video,YouTube,youtube
30810,RPAFeed,UC3f0L_fUSQe8vAQwJowJ6-g,rpafeed,https://www.youtube.com/channel/UC3f0L_fUSQe8vAQwJowJ6-g,,Variables in Power Automate Desktop | RPAFeed,qKApPFntqwQ,https://www.youtube.com/watch?v=qKApPFntqwQ,https://i.ytimg.com/vi_webp/qKApPFntqwQ/maxresdefault.webp,2023-05-03,00:07:04,2023-18,"datatypes,lowcode,Microsoft,MS Power Automate Desktop,RPA","datatypes,lowcode,microsoft,ms-power-automate-desktop,rpa",video,video,YouTube,youtube
30818,RPAFeed,UC3f0L_fUSQe8vAQwJowJ6-g,rpafeed,https://www.youtube.com/channel/UC3f0L_fUSQe8vAQwJowJ6-g,,Bot Games 4 Challenge1 Solution | AI Healthcare Challenge | RPAFeed,VatGWNLW1mM,https://www.youtube.com/watch?v=VatGWNLW1mM,https://i.ytimg.com/vi_webp/VatGWNLW1mM/maxresdefault.webp,2023-05-04,00:10:02,2023-18,"Automation Anywhere,Challenge,RPA","automation-anywhere,challenge,rpa",video,video,YouTube,youtube
30844,Sharath Raju,UCEvXklbyuKHPjIeJqlVkOSA,sharath-raju,https://www.youtube.com/channel/UCEvXklbyuKHPjIeJqlVkOSA,,Microsoft Power Automate Desktop 2023 -  RPA MasterClass (Complete Practical Course),VSAkqqHCUts,https://www.youtube.com/watch?v=VSAkqqHCUts,https://i.ytimg.com/vi/VSAkqqHCUts/maxresdefault.jpg,2023-05-07,04:19:52,2023-18,"lowcode,Microsoft,MS Power Automate Desktop,RPA","lowcode,microsoft,ms-power-automate-desktop,rpa",video,video,YouTube,youtube
30799,Tom's Tech Academy,UCstCuI_7DvHw7-KSA3Yy9PQ,tom-s-tech-academy,https://www.youtube.com/channel/UCstCuI_7DvHw7-KSA3Yy9PQ,,How to stop flows in Power Automate Desktop #shorts,ohLI6z5fjGQ,https://www.youtube.com/watch?v=ohLI6z5fjGQ,https://i.ytimg.com/vi/ohLI6z5fjGQ/sd2.jpg,2023-05-02,00:00:56,2023-18,"lowcode,Microsoft,MS Power Automate Desktop,RPA","lowcode,microsoft,ms-power-automate-desktop,rpa",video,video,YouTube,youtube
30825,Tom's Tech Academy,UCstCuI_7DvHw7-KSA3Yy9PQ,tom-s-tech-academy,https://www.youtube.com/channel/UCstCuI_7DvHw7-KSA3Yy9PQ,,I order pizzas 🍕 for my party with UiPath and Chat-GPT 😎,Cc2X89pdHOk,https://www.youtube.com/watch?v=Cc2X89pdHOk,https://i.ytimg.com/vi_webp/Cc2X89pdHOk/maxresdefault.webp,2023-05-05,00:10:44,2023-18,"Artificial Intelligence,RPA,UiPath,Use Case","ai,rpa,uipath,usecase",video,video,YouTube,youtube
30829,Tom's Tech Academy,UCstCuI_7DvHw7-KSA3Yy9PQ,tom-s-tech-academy,https://www.youtube.com/channel/UCstCuI_7DvHw7-KSA3Yy9PQ,,Reduce Blue Light and Improve your Sleep by Switching UiPath to Dark Mode,v26hbcvVjuA,https://www.youtube.com/watch?v=v26hbcvVjuA,https://i.ytimg.com/vi_webp/v26hbcvVjuA/maxresdefault.webp,2023-05-05,00:00:29,2023-18,"RPA,UiPath,UiPath Studio","rpa,uipath,uipath-studio",video,video,YouTube,youtube
30830,Tom's Tech Academy,UCstCuI_7DvHw7-KSA3Yy9PQ,tom-s-tech-academy,https://www.youtube.com/channel/UCstCuI_7DvHw7-KSA3Yy9PQ,,Reduce Blue Light and Change UiPath from White to Dark Mode,qXN7CBXBZIU,https://www.youtube.com/watch?v=qXN7CBXBZIU,https://i.ytimg.com/vi/qXN7CBXBZIU/sd2.jpg,2023-05-05,00:00:29,2023-18,"RPA,UiPath,UiPath Studio","rpa,uipath,uipath-studio",video,video,YouTube,youtube
30785,Tutorials by Mukesh Kala,UCtZTZt9fI91Xp-PVTPBESQQ,tutorials-by-mukesh-kala,https://www.youtube.com/channel/UCtZTZt9fI91Xp-PVTPBESQQ,,🔴 37. [Hindi] : Use Case in RPA | Sample Practice Project in UiPath | Password Reset Robot  | हिंदी,N7Dq44kQ_HI,https://www.youtube.com/watch?v=N7Dq44kQ_HI,https://i.ytimg.com/vi_webp/N7Dq44kQ_HI/maxresdefault.webp,2023-05-01,02:00:46,2023-18,"REFramework,RPA,UiPath,Use Case","reframework,rpa,uipath,usecase",video,video,YouTube,youtube
30805,Tutorials by Mukesh Kala,UCtZTZt9fI91Xp-PVTPBESQQ,tutorials-by-mukesh-kala,https://www.youtube.com/channel/UCtZTZt9fI91Xp-PVTPBESQQ,,11. UiPath RPA Developer Best Practices  | Documentation | RPA Projects UiPath,LKI12wdXaxw,https://www.youtube.com/watch?v=LKI12wdXaxw,https://i.ytimg.com/vi_webp/LKI12wdXaxw/maxresdefault.webp,2023-05-03,00:05:15,2023-18,"documentation,RPA,UiPath","documentation,rpa,uipath",video,video,YouTube,youtube
30824,Tutorials by Mukesh Kala,UCtZTZt9fI91Xp-PVTPBESQQ,tutorials-by-mukesh-kala,https://www.youtube.com/channel/UCtZTZt9fI91Xp-PVTPBESQQ,,UiPath Quiz 21 | Question and Answer #shorts,GvWpAnhXxMA,https://www.youtube.com/watch?v=GvWpAnhXxMA,https://i.ytimg.com/vi/GvWpAnhXxMA/sd2.jpg,2023-05-05,00:00:37,2023-18,"Quiz,RPA,UiPath","quiz,rpa,uipath",video,video,YouTube,youtube
30807,UiPath,,uipath,https://www.uipath.com/,,Transforming IT Application testing with UiPath - Insights from JPMorgan,GujcaHlYHTc,https://www.youtube.com/watch?v=GujcaHlYHTc,https://i.ytimg.com/vi/GujcaHlYHTc/maxresdefault.jpg,2023-05-03,00:04:39,2023-18,"RPA,testing,UiPath","rpa,testing,uipath",video,video,YouTube,youtube
30795,UiPath Video Tutorials made by Cristian Negulescu,UCiSb0WLTgB23jT0E6NEuu7Q,uipath-video-tutorials-made-by-cristian-negulescu,https://www.youtube.com/channel/UCiSb0WLTgB23jT0E6NEuu7Q,,Automate Your Data Management: Using GSheet as a Database Managed by UiPath Robots and Humans,OUujRK19FOI,https://www.youtube.com/watch?v=OUujRK19FOI,https://i.ytimg.com/vi/OUujRK19FOI/maxresdefault.jpg,2023-05-02,00:16:06,2023-18,"Google Sheets,RPA,UiPath","google-sheets,rpa,uipath",video,video,YouTube,youtube
30822,UiPath Video Tutorials made by Cristian Negulescu,UCiSb0WLTgB23jT0E6NEuu7Q,uipath-video-tutorials-made-by-cristian-negulescu,https://www.youtube.com/channel/UCiSb0WLTgB23jT0E6NEuu7Q,,GSheet example in UiPath: Using GSheet as a Database Managed by UiPath Robots and Humans,PCgnhJmiqU8,https://www.youtube.com/watch?v=PCgnhJmiqU8,https://i.ytimg.com/vi_webp/PCgnhJmiqU8/maxresdefault.webp,2023-05-05,00:14:10,2023-18,"Google Sheets,RPA,UiPath","google-sheets,rpa,uipath",video,video,YouTube,youtube
30784,yellowgreys,UCdfnDEVCZ6SGP-PA-KS97ng,yellowgreys,https://www.youtube.com/channel/UCdfnDEVCZ6SGP-PA-KS97ng,,UiPath l How to Remove Unused Dependency in 3 ways!,THS0DByKcKQ,https://www.youtube.com/watch?v=THS0DByKcKQ,https://i.ytimg.com/vi/THS0DByKcKQ/maxresdefault.jpg,2023-05-01,00:00:48,2023-18,"RPA,UiPath,UiPath Studio","rpa,uipath,uipath-studio",video,video,YouTube,youtube
30793,yellowgreys,UCdfnDEVCZ6SGP-PA-KS97ng,yellowgreys,https://www.youtube.com/channel/UCdfnDEVCZ6SGP-PA-KS97ng,,UiPath | Excel Automation | Streamline Your Tasks with Condition Statements | English | Yellowgreys,1UTqzEepW2k,https://www.youtube.com/watch?v=1UTqzEepW2k,https://i.ytimg.com/vi_webp/1UTqzEepW2k/maxresdefault.webp,2023-05-02,00:16:27,2023-18,"control flow,Excel,RPA,UiPath","control-flow,excel,rpa,uipath",video,video,YouTube,youtube
30800,yellowgreys,UCdfnDEVCZ6SGP-PA-KS97ng,yellowgreys,https://www.youtube.com/channel/UCdfnDEVCZ6SGP-PA-KS97ng,,UiPath | How do I Consolidate Excel Workbooks? | English | Yellowgreys,egJplAHdJr4,https://www.youtube.com/watch?v=egJplAHdJr4,https://i.ytimg.com/vi/egJplAHdJr4/maxresdefault.jpg,2023-05-03,00:13:21,2023-18,"Excel,RPA,UiPath","excel,rpa,uipath",video,video,YouTube,youtube
30803,yellowgreys,UCdfnDEVCZ6SGP-PA-KS97ng,yellowgreys,https://www.youtube.com/channel/UCdfnDEVCZ6SGP-PA-KS97ng,,UiPath Modern Design Experience,rjKYV_y-0Yo,https://www.youtube.com/watch?v=rjKYV_y-0Yo,https://i.ytimg.com/vi/rjKYV_y-0Yo/maxresdefault.jpg,2023-05-03,00:00:52,2023-18,"Modern Design Experience,RPA,UiPath","modern-design-experience,rpa,uipath",video,video,YouTube,youtube
30814,yellowgreys,UCdfnDEVCZ6SGP-PA-KS97ng,yellowgreys,https://www.youtube.com/channel/UCdfnDEVCZ6SGP-PA-KS97ng,,UiPath | How to Export PDF Page as Images | ENGLISH | Yellowgreys - YouTube,ltBE5MW3gYs,https://www.youtube.com/watch?v=ltBE5MW3gYs,https://i.ytimg.com/vi_webp/ltBE5MW3gYs/maxresdefault.webp,2023-05-04,00:05:22,2023-18,"PDF,RPA,UiPath","pdf,rpa,uipath",video,video,YouTube,youtube
30820,yellowgreys,UCdfnDEVCZ6SGP-PA-KS97ng,yellowgreys,https://www.youtube.com/channel/UCdfnDEVCZ6SGP-PA-KS97ng,,UiPath | How to Extract Images from PDF | ENGLISH | Yellowgreys - YouTube,vp2bEgucJes,https://www.youtube.com/watch?v=vp2bEgucJes,https://i.ytimg.com/vi_webp/vp2bEgucJes/maxresdefault.webp,2023-05-05,00:03:25,2023-18,"PDF,RPA,UiPath","pdf,rpa,uipath",video,video,YouTube,youtube
30835,yellowgreys,UCdfnDEVCZ6SGP-PA-KS97ng,yellowgreys,https://www.youtube.com/channel/UCdfnDEVCZ6SGP-PA-KS97ng,,UiPath | Complete Setup Guide with Reading Settings and Constants Config Sheet | English,RGnIpy25KCw,https://www.youtube.com/watch?v=RGnIpy25KCw,https://i.ytimg.com/vi_webp/RGnIpy25KCw/maxresdefault.webp,2023-05-06,00:31:52,2023-18,"REFramework,RPA,UiPath","reframework,rpa,uipath",video,video,YouTube,youtube
30836,yellowgreys,UCdfnDEVCZ6SGP-PA-KS97ng,yellowgreys,https://www.youtube.com/channel/UCdfnDEVCZ6SGP-PA-KS97ng,,UiPath Modern vs Classic Design Different #uipath,XvnqzIvARNQ,https://www.youtube.com/watch?v=XvnqzIvARNQ,https://i.ytimg.com/vi/XvnqzIvARNQ/maxresdefault.jpg,2023-05-06,00:00:48,2023-18,"Modern Design Experience,RPA,UiPath","modern-design-experience,rpa,uipath",video,video,YouTube,youtube
30839,yellowgreys,UCdfnDEVCZ6SGP-PA-KS97ng,yellowgreys,https://www.youtube.com/channel/UCdfnDEVCZ6SGP-PA-KS97ng,,UiPath Complete Setup Guide with Reading Assets Config Data | English,hmDUiU8u7TU,https://www.youtube.com/watch?v=hmDUiU8u7TU,https://i.ytimg.com/vi/hmDUiU8u7TU/maxresdefault.jpg,2023-05-06,00:24:16,2023-18,"REFramework,RPA,UiPath","reframework,rpa,uipath",video,video,YouTube,youtube
